


                     eT 1.8 - an electronic structure program

  ------------------------------------------------------------------------
   Author list in alphabetical order:
  ------------------------------------------------------------------------
   J. H. Andersen, A. Balbi, S. Coriani, S. D. Folkestad, T. Giovannini, 
   L. Goletto, T. S. Haugland, A. Hutcheson, I-M. Høyvik, E. F. Kjønstad, 
   H. Koch, R. Matveeva, T. Moitra, R. H. Myhre, A. C. Paul, S. Roet, 
   E. Ronca, M. Scavino, A. K. Schnack-Petersen, A. S. Skeidsvoll, Å. 
   H. Tveten
  ------------------------------------------------------------------------
   J. Chem. Phys. 152, 184103 (2020); https://doi.org/10.1063/5.0004713


   This is eT 1.8.0 Ibiza
  ------------------------------------------------------------
  Configuration date: 2022-06-30 08:43:06 UTC +02:00
  Git branch:         release-v1.8.0
  Git hash:           9204bbd8a5d9984444afd222ec28d0f1c1e17adf
  Fortran compiler:   GNU 9.4.0
  C compiler:         GNU 9.4.0
  C++ compiler:       GNU 9.4.0
  LAPACK type:        MKL
  BLAS type:          MKL
  64-bit integers:    ON
  OpenMP:             ON
  PCM:                OFF
  Forced batching:    OFF
  Runtime checks:     OFF
  ------------------------------------------------------------


  :: Input file
  ================

     Note: geometry section is excluded from this print

     system
        name: hof he
        charge: 0
     end system

     do
        response
     end do

     method
        hf
        ccsd
     end method

     cc response
        eom
        dipole length
        transition moments
     end cc response

     solver scf
        gradient threshold: 1.0d-11
     end solver scf

     solver cholesky
        threshold: 1.0d-11
     end solver cholesky

     solver cc gs
        omega threshold: 1.0d-11
     end solver cc gs

     solver cc multipliers
        threshold: 1.0d-11
     end solver cc multipliers

     solver cc es
        residual threshold: 1.0d-11
        singlet states: 1
     end solver cc es


  Calculation start:2022-06-30 08:47:09 UTC +02:00

  Running on 2 OMP threads
  Memory available for calculation: 8.000000 GB


  :: RHF wavefunction
  ===================

     ==============================================================================
                                     Geometry (angstrom)
     ==============================================================================
        Atom           X                  Y                  Z         # in input
     ==============================================================================
        Basis: cc-pvdz
        1  H     0.866810000000     0.601440000000     5.000000000000        1
        2  F    -0.866810000000     0.601440000000     5.000000000000        2
        3  O     0.000000000000    -0.075790000000     5.000000000000        3
        4 He     0.100000000000     0.100000000000     7.500000000000        4
     ==============================================================================

     ==============================================================================
                                     Geometry (a.u.)
     ==============================================================================
        Atom           X                  Y                  Z         # in input
     ==============================================================================
        Basis: cc-pvdz
        1  H     1.638033502034     1.136556880358     9.448630622825        1
        2  F    -1.638033502034     1.136556880358     9.448630622825        2
        3  O     0.000000000000    -0.143222342981     9.448630622825        3
        4 He     0.188972612457     0.188972612457    14.172945934238        4
     ==============================================================================

  - Cholesky decomposition of AO overlap to get linearly independent AOs:

     Linear dependence threshold:             0.10E-05
     Number of atomic orbitals:               38
     Number of orthonormal atomic orbitals:   38

  - Molecular orbital details:

     Number of occupied orbitals:        10
     Number of virtual orbitals:         28
     Number of molecular orbitals:       38


  Generating initial SAD density
  ==============================


  Determining reference state
  ===========================

  - Setting initial AO density to sad

     Energy of initial guess:              -178.316435989155
     Number of electrons in guess:           20.000000000000

  - Screening and integral thresholds:

     Coulomb screening threshold:    0.1000E-16
     Exchange screening threshold:   0.1000E-14
     ERI cutoff:                     0.1000E-16
     One-electron integral  cutoff:  0.1000E-21
     Cumulative Fock threshold:      0.1000E+01

  - SCF solver settings:

     Maximum iterations:                   100
     Acceleration type:                   diis

  - Convergence thresholds

     Residual threshold:            0.1000E-10

  - DIIS tool settings:

     DIIS dimension:   8

     Storage (solver scf_errors): memory
     Storage (solver scf_parameters): memory

  Iteration       Energy (a.u.)      Max(grad.)    Delta E (a.u.)
  ---------------------------------------------------------------
     1          -177.452460025510     0.7565E-01     0.1775E+03
     2          -177.479057956533     0.1129E-01     0.2660E-01
     3          -177.480052448592     0.4142E-02     0.9945E-03
     4          -177.480180104062     0.1387E-02     0.1277E-03
     5          -177.480194080187     0.4312E-03     0.1398E-04
     6          -177.480195433667     0.8262E-04     0.1353E-05
     7          -177.480195516708     0.2289E-04     0.8304E-07
     8          -177.480195527015     0.4801E-05     0.1031E-07
     9          -177.480195527843     0.1045E-05     0.8286E-09
    10          -177.480195527874     0.2388E-06     0.3089E-10
    11          -177.480195527875     0.5236E-07     0.1080E-11
    12          -177.480195527875     0.9618E-08     0.8527E-13
    13          -177.480195527875     0.4310E-08     0.1421E-12
    14          -177.480195527875     0.1983E-08     0.2842E-13
    15          -177.480195527875     0.6772E-09     0.2274E-12
    16          -177.480195527875     0.1634E-09     0.8527E-13
    17          -177.480195527875     0.4727E-10     0.5684E-13
    18          -177.480195527875     0.8073E-11     0.0000E+00
  ---------------------------------------------------------------
  Convergence criterion met in 18 iterations!

  - Summary of RHF wavefunction energetics (a.u.):

     HOMO-LUMO gap:                  0.600390987894
     Nuclear repulsion energy:      48.499011140892
     Electronic energy:           -225.979206668767
     Total energy:                -177.480195527875


  :: CCSD wavefunction
  ====================

     Bath orbital(s):         False

   - Number of orbitals:

     Occupied orbitals:    10
     Virtual orbitals:     28
     Molecular orbitals:   38
     Atomic orbitals:      38

   - Number of ground state amplitudes:

     Single excitation amplitudes:  280
     Double excitation amplitudes:  39340


  Cholesky-decomposing electron repulsion integrals
  =================================================

  Cholesky decomposition of electronic repulsion integrals solver
  ---------------------------------------------------------------

  Performs a Cholesky decomposition of the two-electron electronic repulsion 
  integrals in the atomic orbital basis,

  (ab|cd) = sum_J L_ab^J L_cd^J.

  Once the Cholesky basis has been determined, the vectors L^J are constructed 
  and stored to disk. These may either be used directly, or be transformed 
  to the MO basis for use in post-HF calculations. For more information, 
  see S. D. Folkestad, E. F. Kjønstad and H. Koch, JCP, 150(19), (2019)

  - Cholesky decomposition settings:

     Target threshold is:   0.10E-10
     Span factor:           0.10E-01
     Max qual:                  1000

  - Cholesky decomposition ao details:

     Total number of AOs:                    38
     Total number of shell pairs:           171
     Total number of AO pairs:              741

     Significant shell pairs:               161
     Significant AO pairs:                  697

     Construct shell pairs:                 171
     Construct AO pairs:                    741

  Iter.  #Sign. ao pairs / shell pairs   Max diagonal    #Qualified    #Cholesky    Cholesky array size
  -------------------------------------------------------------------------------------------------------
     1               671 /     150       0.53537E+01         194             49             32879
     2               524 /     128       0.52718E-01         398            155             81220
     3               484 /     114       0.52421E-03         303            243            117612
     4               362 /      92       0.51415E-05         311            362            131044
     5               232 /      54       0.50229E-07         225            475            110200
     6                 0 /       0       0.50128E-09         127            550                 0
  -------------------------------------------------------------------------------------------------------

  - Summary of Cholesky decomposition of electronic repulsion integrals:

     Final number of Cholesky vectors: 550

 - Testing the Cholesky decomposition decomposition electronic repulsion integrals:

     Maximal difference between approximate and actual diagonal:              0.9471E-11
     Minimal element of difference between approximate and actual diagonal:  -0.1084E-14

  - Settings for integral handling:

     Cholesky vectors in memory: True
     ERI matrix in memory:       True

  - Finished decomposing the ERIs.

     Total wall time (sec):              0.62376
     Total cpu time (sec):               1.23885


  Determining CC cluster amplitudes
  =================================

   - DIIS coupled cluster ground state solver
  ----------------------------------------------

  A DIIS CC ground state amplitude equations solver. It uses an extrapolation 
  of previous quasi-Newton perturbation theory estimates of the next amplitudes. 
  See Helgaker et al., Molecular Electronic Structure Theory, Chapter 
  13.

  - CC ground state solver settings:

  - Convergence thresholds

     Residual threshold:            0.1000E-10
     Max number of iterations:      100

  - DIIS tool settings:

     DIIS dimension:   8

     Storage (cc_gs_diis_errors): file
     Storage (cc_gs_diis_parameters): file

  Iteration    Energy (a.u.)        |omega|       Delta E (a.u.)
  ---------------------------------------------------------------
    1          -177.877001409677     0.1168E+00     0.1779E+03
    2          -177.886677470622     0.3120E-01     0.9676E-02
    3          -177.894835530803     0.8696E-02     0.8158E-02
    4          -177.896138458912     0.2772E-02     0.1303E-02
    5          -177.895996892340     0.9633E-03     0.1416E-03
    6          -177.895989294977     0.4209E-03     0.7597E-05
    7          -177.895986725657     0.1136E-03     0.2569E-05
    8          -177.895979732813     0.3176E-04     0.6993E-05
    9          -177.895980089063     0.8612E-05     0.3562E-06
   10          -177.895980244987     0.3383E-05     0.1559E-06
   11          -177.895980204536     0.1671E-05     0.4045E-07
   12          -177.895980277251     0.8445E-06     0.7272E-07
   13          -177.895980290896     0.2798E-06     0.1364E-07
   14          -177.895980297510     0.1025E-06     0.6614E-08
   15          -177.895980299218     0.2911E-07     0.1708E-08
   16          -177.895980298866     0.8897E-08     0.3515E-09
   17          -177.895980298711     0.2774E-08     0.1558E-09
   18          -177.895980298609     0.8305E-09     0.1012E-09
   19          -177.895980298572     0.3203E-09     0.3786E-10
   20          -177.895980298567     0.1026E-09     0.4292E-11
   21          -177.895980298568     0.3742E-10     0.8527E-12
   22          -177.895980298569     0.1594E-10     0.1336E-11
   23          -177.895980298570     0.9386E-11     0.1137E-12
  ---------------------------------------------------------------
  Convergence criterion met in 23 iterations!

  - Ground state summary:

     Final ground state energy (a.u.):  -177.895980298570

     Correlation energy (a.u.):           -0.415784770694

     Largest single amplitudes:
     -----------------------------------
        a       i         t(a,i)
     -----------------------------------
        1      9        0.020651636307
        3      9        0.009706732908
        4      7        0.006068718376
       14      9       -0.005941010436
        5      6        0.004942153768
       14      6       -0.004895171179
        4     10        0.004671533334
       10      7        0.004165868969
        6      9        0.004156331764
       22      8       -0.004124452262
     ------------------------------------

     Largest double amplitudes:
     --------------------------------------------------
        a      i       b      j         t(ai,bj)
     --------------------------------------------------
        1      9       1      9       -0.041651517350
        3      9       3      9       -0.038277257591
        1      9       3      9       -0.032355810187
        4     10       4     10       -0.031405794810
       16      5      16      5       -0.031169179228
       17      5      17      5       -0.031146442905
        2      8       2      8       -0.030330489548
        8      5       8      5       -0.027874803993
        1      6       1      9       -0.024542890128
        3      6       3      9       -0.021838950657
     --------------------------------------------------

  - Finished solving the CCSD ground state equations

     Total wall time (sec):              1.52542
     Total cpu time (sec):               3.05539


  Determining CC multipliers
  ==========================

   - Davidson tool settings:

     Number of parameters:                39620
     Number of requested solutions:           1
     Max reduced space dimension:            50

     Storage (multipliers_davidson_trials): file
     Storage (multipliers_davidson_transforms): file

  - Davidson solver settings

     Residual threshold:              0.10E-10
     Max number of iterations:             100

   Iteration       Residual norm
  -------------------------------
     1               0.4855E-01
     2               0.1222E-01
     3               0.2595E-02
     4               0.1809E-02
     5               0.5186E-03
     6               0.1639E-03
     7               0.4304E-04
     8               0.1141E-04
     9               0.3933E-05
    10               0.2240E-05
    11               0.9962E-06
    12               0.2804E-06
    13               0.9298E-07
    14               0.2758E-07
    15               0.7670E-08
    16               0.2052E-08
    17               0.6176E-09
    18               0.1691E-09
    19               0.4902E-10
    20               0.1407E-10
    21               0.4176E-11
  -------------------------------
  Convergence criterion met in 21 iterations!

  - CC multipliers solver summary:

     Largest single amplitudes:
     -----------------------------------
        a       i         tbar(a,i)
     -----------------------------------
        1      9        0.029646992276
        3      9        0.014755436675
       14      9       -0.010760413665
       14      6       -0.008752717973
        4      7        0.008523553423
        5      6        0.007827835745
       22      8       -0.007464592417
        6      9        0.007308533179
        4     10        0.007005592089
        9      8       -0.006942220637
     ------------------------------------

     Largest double amplitudes:
     --------------------------------------------------
        a      i       b      j         tbar(ai,bj)
     --------------------------------------------------
        1      9       1      9       -0.079106600826
        3      9       3      9       -0.073265261745
        4     10       4     10       -0.062400215002
       16      5      16      5       -0.061891347282
       17      5      17      5       -0.061846092494
        1      9       3      9       -0.061771798249
        2      8       2      8       -0.058800453496
        5      8       4     10        0.055766556913
        8      5       8      5       -0.055363216798
        6      9       4     10        0.052190751147
     --------------------------------------------------


  Determining CC excited state amplitudes
  =======================================

  Davidson eigenvalue equation solver
  -----------------------------------

  A Davidson solver that solves an eigenvalue equation: M x = omega x. 
  This equation is solved in a reduced space. A description of the algorithm 
  can be found in E. R. Davidson, J. Comput. Phys. 17, 87 (1975).

   - Davidson tool settings:

     Number of parameters:                39620
     Number of requested solutions:           1
     Max reduced space dimension:           100

     Storage (cc_es_davidson_trials): file
     Storage (cc_es_davidson_transforms): file

  - Davidson solver settings

     Number of singlet states:               1
     Max number of iterations:             100

  Iteration:                  1
  Reduced space dimension:    1

  Root  Eigenvalue (Re)   Eigenvalue (Im)    |residual|   Delta E (Re)
  -------------------------------------------------------------------------
     1   0.361112312030    0.000000000000     0.5140E+00   0.3611E+00
  -------------------------------------------------------------------------

  Iteration:                  2
  Reduced space dimension:    2

  Root  Eigenvalue (Re)   Eigenvalue (Im)    |residual|   Delta E (Re)
  -------------------------------------------------------------------------
     1   0.208063028040    0.000000000000     0.1138E+00   0.1530E+00
  -------------------------------------------------------------------------

  Iteration:                  3
  Reduced space dimension:    3

  Root  Eigenvalue (Re)   Eigenvalue (Im)    |residual|   Delta E (Re)
  -------------------------------------------------------------------------
     1   0.204031052740    0.000000000000     0.4311E-01   0.4032E-02
  -------------------------------------------------------------------------

  Iteration:                  4
  Reduced space dimension:    4

  Root  Eigenvalue (Re)   Eigenvalue (Im)    |residual|   Delta E (Re)
  -------------------------------------------------------------------------
     1   0.204711068920    0.000000000000     0.1706E-01   0.6800E-03
  -------------------------------------------------------------------------

  Iteration:                  5
  Reduced space dimension:    5

  Root  Eigenvalue (Re)   Eigenvalue (Im)    |residual|   Delta E (Re)
  -------------------------------------------------------------------------
     1   0.204628984754    0.000000000000     0.4391E-02   0.8208E-04
  -------------------------------------------------------------------------

  Iteration:                  6
  Reduced space dimension:    6

  Root  Eigenvalue (Re)   Eigenvalue (Im)    |residual|   Delta E (Re)
  -------------------------------------------------------------------------
     1   0.204569272276    0.000000000000     0.1678E-02   0.5971E-04
  -------------------------------------------------------------------------

  Iteration:                  7
  Reduced space dimension:    7

  Root  Eigenvalue (Re)   Eigenvalue (Im)    |residual|   Delta E (Re)
  -------------------------------------------------------------------------
     1   0.204556351157    0.000000000000     0.8467E-03   0.1292E-04
  -------------------------------------------------------------------------

  Iteration:                  8
  Reduced space dimension:    8

  Root  Eigenvalue (Re)   Eigenvalue (Im)    |residual|   Delta E (Re)
  -------------------------------------------------------------------------
     1   0.204565612176    0.000000000000     0.3608E-03   0.9261E-05
  -------------------------------------------------------------------------

  Iteration:                  9
  Reduced space dimension:    9

  Root  Eigenvalue (Re)   Eigenvalue (Im)    |residual|   Delta E (Re)
  -------------------------------------------------------------------------
     1   0.204566827404    0.000000000000     0.1238E-03   0.1215E-05
  -------------------------------------------------------------------------

  Iteration:                 10
  Reduced space dimension:   10

  Root  Eigenvalue (Re)   Eigenvalue (Im)    |residual|   Delta E (Re)
  -------------------------------------------------------------------------
     1   0.204566109268    0.000000000000     0.5133E-04   0.7181E-06
  -------------------------------------------------------------------------

  Iteration:                 11
  Reduced space dimension:   11

  Root  Eigenvalue (Re)   Eigenvalue (Im)    |residual|   Delta E (Re)
  -------------------------------------------------------------------------
     1   0.204566165385    0.000000000000     0.2606E-04   0.5612E-07
  -------------------------------------------------------------------------

  Iteration:                 12
  Reduced space dimension:   12

  Root  Eigenvalue (Re)   Eigenvalue (Im)    |residual|   Delta E (Re)
  -------------------------------------------------------------------------
     1   0.204566016498    0.000000000000     0.1888E-04   0.1489E-06
  -------------------------------------------------------------------------

  Iteration:                 13
  Reduced space dimension:   13

  Root  Eigenvalue (Re)   Eigenvalue (Im)    |residual|   Delta E (Re)
  -------------------------------------------------------------------------
     1   0.204565880789    0.000000000000     0.9192E-05   0.1357E-06
  -------------------------------------------------------------------------

  Iteration:                 14
  Reduced space dimension:   14

  Root  Eigenvalue (Re)   Eigenvalue (Im)    |residual|   Delta E (Re)
  -------------------------------------------------------------------------
     1   0.204565958942    0.000000000000     0.2949E-05   0.7815E-07
  -------------------------------------------------------------------------

  Iteration:                 15
  Reduced space dimension:   15

  Root  Eigenvalue (Re)   Eigenvalue (Im)    |residual|   Delta E (Re)
  -------------------------------------------------------------------------
     1   0.204565987181    0.000000000000     0.1107E-05   0.2824E-07
  -------------------------------------------------------------------------

  Iteration:                 16
  Reduced space dimension:   16

  Root  Eigenvalue (Re)   Eigenvalue (Im)    |residual|   Delta E (Re)
  -------------------------------------------------------------------------
     1   0.204566000837    0.000000000000     0.4092E-06   0.1366E-07
  -------------------------------------------------------------------------

  Iteration:                 17
  Reduced space dimension:   17

  Root  Eigenvalue (Re)   Eigenvalue (Im)    |residual|   Delta E (Re)
  -------------------------------------------------------------------------
     1   0.204566000643    0.000000000000     0.1201E-06   0.1944E-09
  -------------------------------------------------------------------------

  Iteration:                 18
  Reduced space dimension:   18

  Root  Eigenvalue (Re)   Eigenvalue (Im)    |residual|   Delta E (Re)
  -------------------------------------------------------------------------
     1   0.204566000969    0.000000000000     0.3179E-07   0.3262E-09
  -------------------------------------------------------------------------

  Iteration:                 19
  Reduced space dimension:   19

  Root  Eigenvalue (Re)   Eigenvalue (Im)    |residual|   Delta E (Re)
  -------------------------------------------------------------------------
     1   0.204566001049    0.000000000000     0.1016E-07   0.7974E-10
  -------------------------------------------------------------------------

  Iteration:                 20
  Reduced space dimension:   20

  Root  Eigenvalue (Re)   Eigenvalue (Im)    |residual|   Delta E (Re)
  -------------------------------------------------------------------------
     1   0.204566001059    0.000000000000     0.3766E-08   0.1002E-10
  -------------------------------------------------------------------------

  Iteration:                 21
  Reduced space dimension:   21

  Root  Eigenvalue (Re)   Eigenvalue (Im)    |residual|   Delta E (Re)
  -------------------------------------------------------------------------
     1   0.204566001063    0.000000000000     0.1318E-08   0.3809E-11
  -------------------------------------------------------------------------

  Iteration:                 22
  Reduced space dimension:   22

  Root  Eigenvalue (Re)   Eigenvalue (Im)    |residual|   Delta E (Re)
  -------------------------------------------------------------------------
     1   0.204566001064    0.000000000000     0.3588E-09   0.1791E-11
  -------------------------------------------------------------------------

  Iteration:                 23
  Reduced space dimension:   23

  Root  Eigenvalue (Re)   Eigenvalue (Im)    |residual|   Delta E (Re)
  -------------------------------------------------------------------------
     1   0.204566001066    0.000000000000     0.1010E-09   0.1497E-11
  -------------------------------------------------------------------------

  Iteration:                 24
  Reduced space dimension:   24

  Root  Eigenvalue (Re)   Eigenvalue (Im)    |residual|   Delta E (Re)
  -------------------------------------------------------------------------
     1   0.204566001066    0.000000000000     0.2675E-10   0.1429E-12
  -------------------------------------------------------------------------

  Iteration:                 25
  Reduced space dimension:   25

  Root  Eigenvalue (Re)   Eigenvalue (Im)    |residual|   Delta E (Re)
  -------------------------------------------------------------------------
     1   0.204566001066    0.000000000000     0.7214E-11   0.7069E-13
  -------------------------------------------------------------------------
  Convergence criterion met in 25 iterations!

  - Excitation vector amplitudes:

     Electronic state nr. 1

     Energy (Hartree):                  0.204566001066
     Fraction singles (|R1|/|R|):       0.973748919575

     Largest single amplitudes:
     -----------------------------------
        a       i         R(a,i)
     -----------------------------------
        1     10       -0.960302407234
        3     10       -0.136219055709
        2     10       -0.045809047288
        1      7       -0.045498210867
       13     10        0.024180057758
        6     10        0.023627378747
       12     10        0.022421109307
        3      7       -0.017619844819
        2      7       -0.012994462409
        1      5       -0.011620781984
     ------------------------------------

     Largest double amplitudes:
     --------------------------------------------------
        a      i       b      j         R(ai,bj)
     --------------------------------------------------
        1      9       1     10        0.112676520247
        3      9       1     10        0.066312173335
        1      6       1     10        0.064260638269
        1     10       4     10        0.037629620096
        1      4       1     10        0.036591326805
        3      6       1     10        0.034417643976
        1      7       2      8        0.033164233562
        1      8       1     10        0.030712077738
        4      7       1     10        0.028539418989
        1      7       4     10        0.028106421137
     --------------------------------------------------

  - CCSD excitation energies:

                                      Excitation energy
                          ------------------------------------------
      State                (Hartree)             (eV)
     ---------------------------------------------------------------
        1                  0.204566001066        5.566524421567
     ---------------------------------------------------------------
     eV/Hartree (CODATA 2014): 27.21138602


  Determining CC excited state amplitudes
  =======================================

  Davidson eigenvalue equation solver
  -----------------------------------

  A Davidson solver that solves an eigenvalue equation: M x = omega x. 
  This equation is solved in a reduced space. A description of the algorithm 
  can be found in E. R. Davidson, J. Comput. Phys. 17, 87 (1975).

   - Davidson tool settings:

     Number of parameters:                39620
     Number of requested solutions:           1
     Max reduced space dimension:           100

     Storage (cc_es_davidson_trials): file
     Storage (cc_es_davidson_transforms): file
     Restarting left vector 1 from file r_001.

  - Davidson solver settings

     Number of singlet states:               1
     Max number of iterations:             100

  Iteration:                  1
  Reduced space dimension:    1

  Root  Eigenvalue (Re)   Eigenvalue (Im)    |residual|   Delta E (Re)
  -------------------------------------------------------------------------
     1   0.188025277697    0.000000000000     0.1409E+00   0.1880E+00
  -------------------------------------------------------------------------

  Iteration:                  2
  Reduced space dimension:    2

  Root  Eigenvalue (Re)   Eigenvalue (Im)    |residual|   Delta E (Re)
  -------------------------------------------------------------------------
     1   0.204419100100    0.000000000000     0.3255E-01   0.1639E-01
  -------------------------------------------------------------------------

  Iteration:                  3
  Reduced space dimension:    3

  Root  Eigenvalue (Re)   Eigenvalue (Im)    |residual|   Delta E (Re)
  -------------------------------------------------------------------------
     1   0.204391157860    0.000000000000     0.9408E-02   0.2794E-04
  -------------------------------------------------------------------------

  Iteration:                  4
  Reduced space dimension:    4

  Root  Eigenvalue (Re)   Eigenvalue (Im)    |residual|   Delta E (Re)
  -------------------------------------------------------------------------
     1   0.204560038933    0.000000000000     0.3278E-02   0.1689E-03
  -------------------------------------------------------------------------

  Iteration:                  5
  Reduced space dimension:    5

  Root  Eigenvalue (Re)   Eigenvalue (Im)    |residual|   Delta E (Re)
  -------------------------------------------------------------------------
     1   0.204571827995    0.000000000000     0.1158E-02   0.1179E-04
  -------------------------------------------------------------------------

  Iteration:                  6
  Reduced space dimension:    6

  Root  Eigenvalue (Re)   Eigenvalue (Im)    |residual|   Delta E (Re)
  -------------------------------------------------------------------------
     1   0.204564352310    0.000000000000     0.3182E-03   0.7476E-05
  -------------------------------------------------------------------------

  Iteration:                  7
  Reduced space dimension:    7

  Root  Eigenvalue (Re)   Eigenvalue (Im)    |residual|   Delta E (Re)
  -------------------------------------------------------------------------
     1   0.204564533561    0.000000000000     0.1167E-03   0.1813E-06
  -------------------------------------------------------------------------

  Iteration:                  8
  Reduced space dimension:    8

  Root  Eigenvalue (Re)   Eigenvalue (Im)    |residual|   Delta E (Re)
  -------------------------------------------------------------------------
     1   0.204566135865    0.000000000000     0.5325E-04   0.1602E-05
  -------------------------------------------------------------------------

  Iteration:                  9
  Reduced space dimension:    9

  Root  Eigenvalue (Re)   Eigenvalue (Im)    |residual|   Delta E (Re)
  -------------------------------------------------------------------------
     1   0.204566131816    0.000000000000     0.2439E-04   0.4048E-08
  -------------------------------------------------------------------------

  Iteration:                 10
  Reduced space dimension:   10

  Root  Eigenvalue (Re)   Eigenvalue (Im)    |residual|   Delta E (Re)
  -------------------------------------------------------------------------
     1   0.204566035889    0.000000000000     0.1121E-04   0.9593E-07
  -------------------------------------------------------------------------

  Iteration:                 11
  Reduced space dimension:   11

  Root  Eigenvalue (Re)   Eigenvalue (Im)    |residual|   Delta E (Re)
  -------------------------------------------------------------------------
     1   0.204566000415    0.000000000000     0.6398E-05   0.3547E-07
  -------------------------------------------------------------------------

  Iteration:                 12
  Reduced space dimension:   12

  Root  Eigenvalue (Re)   Eigenvalue (Im)    |residual|   Delta E (Re)
  -------------------------------------------------------------------------
     1   0.204566006648    0.000000000000     0.3235E-05   0.6233E-08
  -------------------------------------------------------------------------

  Iteration:                 13
  Reduced space dimension:   13

  Root  Eigenvalue (Re)   Eigenvalue (Im)    |residual|   Delta E (Re)
  -------------------------------------------------------------------------
     1   0.204565999671    0.000000000000     0.1509E-05   0.6977E-08
  -------------------------------------------------------------------------

  Iteration:                 14
  Reduced space dimension:   14

  Root  Eigenvalue (Re)   Eigenvalue (Im)    |residual|   Delta E (Re)
  -------------------------------------------------------------------------
     1   0.204565996029    0.000000000000     0.8844E-06   0.3642E-08
  -------------------------------------------------------------------------

  Iteration:                 15
  Reduced space dimension:   15

  Root  Eigenvalue (Re)   Eigenvalue (Im)    |residual|   Delta E (Re)
  -------------------------------------------------------------------------
     1   0.204566000953    0.000000000000     0.2952E-06   0.4924E-08
  -------------------------------------------------------------------------

  Iteration:                 16
  Reduced space dimension:   16

  Root  Eigenvalue (Re)   Eigenvalue (Im)    |residual|   Delta E (Re)
  -------------------------------------------------------------------------
     1   0.204566000928    0.000000000000     0.8895E-07   0.2486E-10
  -------------------------------------------------------------------------

  Iteration:                 17
  Reduced space dimension:   17

  Root  Eigenvalue (Re)   Eigenvalue (Im)    |residual|   Delta E (Re)
  -------------------------------------------------------------------------
     1   0.204566000899    0.000000000000     0.2671E-07   0.2938E-10
  -------------------------------------------------------------------------

  Iteration:                 18
  Reduced space dimension:   18

  Root  Eigenvalue (Re)   Eigenvalue (Im)    |residual|   Delta E (Re)
  -------------------------------------------------------------------------
     1   0.204566001022    0.000000000000     0.8557E-08   0.1229E-09
  -------------------------------------------------------------------------

  Iteration:                 19
  Reduced space dimension:   19

  Root  Eigenvalue (Re)   Eigenvalue (Im)    |residual|   Delta E (Re)
  -------------------------------------------------------------------------
     1   0.204566001070    0.000000000000     0.2491E-08   0.4830E-10
  -------------------------------------------------------------------------

  Iteration:                 20
  Reduced space dimension:   20

  Root  Eigenvalue (Re)   Eigenvalue (Im)    |residual|   Delta E (Re)
  -------------------------------------------------------------------------
     1   0.204566001070    0.000000000000     0.7446E-09   0.4990E-12
  -------------------------------------------------------------------------

  Iteration:                 21
  Reduced space dimension:   21

  Root  Eigenvalue (Re)   Eigenvalue (Im)    |residual|   Delta E (Re)
  -------------------------------------------------------------------------
     1   0.204566001066    0.000000000000     0.2327E-09   0.3932E-11
  -------------------------------------------------------------------------

  Iteration:                 22
  Reduced space dimension:   22

  Root  Eigenvalue (Re)   Eigenvalue (Im)    |residual|   Delta E (Re)
  -------------------------------------------------------------------------
     1   0.204566001066    0.000000000000     0.8312E-10   0.8458E-12
  -------------------------------------------------------------------------

  Iteration:                 23
  Reduced space dimension:   23

  Root  Eigenvalue (Re)   Eigenvalue (Im)    |residual|   Delta E (Re)
  -------------------------------------------------------------------------
     1   0.204566001066    0.000000000000     0.2665E-10   0.1077E-13
  -------------------------------------------------------------------------

  Iteration:                 24
  Reduced space dimension:   24

  Root  Eigenvalue (Re)   Eigenvalue (Im)    |residual|   Delta E (Re)
  -------------------------------------------------------------------------
     1   0.204566001066    0.000000000000     0.7793E-11   0.8221E-13
  -------------------------------------------------------------------------
  Convergence criterion met in 24 iterations!

  - Excitation vector amplitudes:

     Electronic state nr. 1

     Energy (Hartree):                  0.204566001066
     Fraction singles (|L1|/|L|):       0.941146411186

     Largest single amplitudes:
     -----------------------------------
        a       i         L(a,i)
     -----------------------------------
        1     10        0.928856378560
        3     10        0.127109170645
        1      7        0.044655054086
        2     10        0.044020600866
       13     10       -0.022765151103
        6     10       -0.021000167835
       12     10       -0.020684251958
        3      7        0.017525011612
        2      7        0.012533148032
        1      5        0.011466156423
     ------------------------------------

     Largest double amplitudes:
     --------------------------------------------------
        a      i       b      j         L(ai,bj)
     --------------------------------------------------
        3      9       1     10       -0.118873613050
        1      9       1     10       -0.110113614956
        1      7       2      8       -0.076829391742
        1      6       1     10       -0.066602965349
        3      6       1     10       -0.064648562837
        1      7       5      8        0.057297803052
        3      4       1     10       -0.044999920804
        2      9       1     10       -0.043842233266
        7      8       1     10        0.042266683210
        2      6       1      7       -0.041330749774
     --------------------------------------------------

  - CCSD excitation energies:

                                      Excitation energy
                          ------------------------------------------
      State                (Hartree)             (eV)
     ---------------------------------------------------------------
        1                  0.204566001066        5.566524421566
     ---------------------------------------------------------------
     eV/Hartree (CODATA 2014): 27.21138602


  Biorthonormalization of excited CC states
  =========================================


  Determining CC EOM transition moments
  =====================================

  :: EOM properties calculation

  - Summary of EOM transition properties calculation:

     States m = 0 and n = 1:
     -------------------------
     Calculation type:                             EOM
     Excitation energy [E_h]:           0.204566001066
     Excitation energy [eV]:            5.566524421567
     Hartree-to-eV (CODATA 2014):          27.21138602

                   Transition moments [a.u.]         Transition strength [a.u.]
     --------------------------------------------------------------------------
     Comp. q     < n |q| m >       < m |q| n >        < n |q| m > < m |q| n >
     --------------------------------------------------------------------------
     X          -0.0049658034     -0.0095695320            0.0000475204
     Y          -0.0021940008     -0.0042315603            0.0000092840
     Z           0.1002975782      0.1953886002            0.0195970034
     --------------------------------------------------------------------------
     Oscillator strength:      0.002680333920

  Peak memory usage during the execution of eT: 40.381464 MB

  Total wall time in eT (sec):              7.46464
  Total cpu time in eT (sec):              14.87938

  Calculation end:2022-06-30 08:47:17 UTC +02:00

  - Implementation references:

     eT: https://doi.org/10.1063/5.0004713
     Cholesky decomposition of ERIs: https://doi.org/10.1063/1.5083802

  eT terminated successfully!
