


                     eT 1.8 - an electronic structure program

  ------------------------------------------------------------------------
   Author list in alphabetical order:
  ------------------------------------------------------------------------
   J. H. Andersen, A. Balbi, S. Coriani, S. D. Folkestad, T. Giovannini, 
   L. Goletto, T. S. Haugland, A. Hutcheson, I-M. Høyvik, E. F. Kjønstad, 
   H. Koch, R. Matveeva, T. Moitra, R. H. Myhre, A. C. Paul, S. Roet, 
   E. Ronca, M. Scavino, A. K. Schnack-Petersen, A. S. Skeidsvoll, Å. 
   H. Tveten
  ------------------------------------------------------------------------
   J. Chem. Phys. 152, 184103 (2020); https://doi.org/10.1063/5.0004713


   This is eT 1.8.0 Ibiza
  ------------------------------------------------------------
  Configuration date: 2022-06-30 08:43:06 UTC +02:00
  Git branch:         release-v1.8.0
  Git hash:           9204bbd8a5d9984444afd222ec28d0f1c1e17adf
  Fortran compiler:   GNU 9.4.0
  C compiler:         GNU 9.4.0
  C++ compiler:       GNU 9.4.0
  LAPACK type:        MKL
  BLAS type:          MKL
  64-bit integers:    ON
  OpenMP:             ON
  PCM:                OFF
  Forced batching:    OFF
  Runtime checks:     OFF
  ------------------------------------------------------------


  :: Input file
  ================

     Note: geometry section is excluded from this print

     system
        name: o2
        charge: 0
        multiplicity: 3
     end system

     method
        cuhf
     end method

     memory
        available: 8
     end memory

     solver scf
        algorithm:          scf-diis
        energy threshold:   1.0d-12
        gradient threshold: 1.0d-12
     end solver scf

     do
        ground state
     end do


  Calculation start:2022-06-30 08:45:26 UTC +02:00

  Running on 2 OMP threads
  Memory available for calculation: 8.000000 GB


  :: CUHF wavefunction
  ====================

     ==============================================================================
                                     Geometry (angstrom)
     ==============================================================================
        Atom           X                  Y                  Z         # in input
     ==============================================================================
        Basis: cc-pvdz
        1  O     0.000000000000     0.000000000000     0.000000000000        1
        2  O     0.000000000000     0.000000000000     1.208000000000        2
     ==============================================================================

     ==============================================================================
                                     Geometry (a.u.)
     ==============================================================================
        Atom           X                  Y                  Z         # in input
     ==============================================================================
        Basis: cc-pvdz
        1  O     0.000000000000     0.000000000000     0.000000000000        1
        2  O     0.000000000000     0.000000000000     2.282789158475        2
     ==============================================================================

  - Cholesky decomposition of AO overlap to get linearly independent AOs:

     Linear dependence threshold:             0.10E-05
     Number of atomic orbitals:               28
     Number of orthonormal atomic orbitals:   28

  - Molecular orbital details:

     Number of alpha electrons:               9
     Number of beta electrons:                7
     Number of virtual alpha orbitals:       19
     Number of virtual beta orbitals:        21
     Number of molecular orbitals:           28


  Generating initial SAD density
  ==============================


  Determining reference state
  ===========================

  - Setting initial AO density to sad

     Energy of initial guess:              -149.807063350854
     Number of electrons in guess:           16.000000000000

  - Screening and integral thresholds:

     Coulomb screening threshold:    0.1000E-17
     Exchange screening threshold:   0.1000E-15
     ERI cutoff:                     0.1000E-17
     One-electron integral  cutoff:  0.1000E-22
     Cumulative Fock threshold:      0.1000E+01

  - SCF solver settings:

     Maximum iterations:                   100
     Acceleration type:                   diis

  - Convergence thresholds

     Residual threshold:            0.1000E-11
     Energy threshold:              0.1000E-11

  - DIIS tool settings:

     DIIS dimension:   8

     Storage (solver scf_errors): memory
     Storage (solver scf_parameters): memory

  Iteration       Energy (a.u.)      Max(grad.)    Delta E (a.u.)
  ---------------------------------------------------------------
     1          -149.589618401230     0.3103E-01     0.1496E+03
     2          -149.606236838358     0.7431E-02     0.1662E-01
     3          -149.608005598348     0.1044E-02     0.1769E-02
     4          -149.607984653333     0.1260E-03     0.2095E-04
     5          -149.607987078031     0.2460E-04     0.2425E-05
     6          -149.607986658183     0.2929E-05     0.4198E-06
     7          -149.607986598273     0.2320E-06     0.5991E-07
     8          -149.607986594229     0.1164E-07     0.4043E-08
     9          -149.607986594666     0.1025E-08     0.4370E-09
    10          -149.607986594647     0.1629E-09     0.1964E-10
    11          -149.607986594647     0.1156E-10     0.4832E-12
    12          -149.607986594647     0.4813E-12     0.1137E-12
  ---------------------------------------------------------------
  Convergence criterion met in 12 iterations!

  - Summary of CUHF wavefunction energetics (a.u.):

     HOMO-LUMO gap (alpha):          0.959378708598
     HOMO-LUMO gap (beta):           0.681470871175
     Nuclear repulsion energy:      28.035878724238
     Electronic energy:           -177.643865318886
     Total energy:                -149.607986594647

  - CUHF wavefunction spin expectation values:

     Sz:                   1.00000000
     Sz(Sz + 1):           2.00000000
     S^2:                  2.00000000
     Spin contamination:   0.00000000

  Peak memory usage during the execution of eT: 289.776 KB

  Total wall time in eT (sec):              0.73289
  Total cpu time in eT (sec):               1.43177

  Calculation end:2022-06-30 08:45:27 UTC +02:00

  - Implementation references:

     eT: https://doi.org/10.1063/5.0004713

  eT terminated successfully!
