


                     eT 1.8 - an electronic structure program

  ------------------------------------------------------------------------
   Author list in alphabetical order:
  ------------------------------------------------------------------------
   J. H. Andersen, A. Balbi, S. Coriani, S. D. Folkestad, T. Giovannini, 
   L. Goletto, T. S. Haugland, A. Hutcheson, I-M. Høyvik, E. F. Kjønstad, 
   H. Koch, R. Matveeva, T. Moitra, R. H. Myhre, A. C. Paul, S. Roet, 
   E. Ronca, M. Scavino, A. K. Schnack-Petersen, A. S. Skeidsvoll, Å. 
   H. Tveten
  ------------------------------------------------------------------------
   J. Chem. Phys. 152, 184103 (2020); https://doi.org/10.1063/5.0004713


   This is eT 1.8.0 Ibiza
  ------------------------------------------------------------
  Configuration date: 2022-06-30 08:43:06 UTC +02:00
  Git branch:         release-v1.8.0
  Git hash:           9204bbd8a5d9984444afd222ec28d0f1c1e17adf
  Fortran compiler:   GNU 9.4.0
  C compiler:         GNU 9.4.0
  C++ compiler:       GNU 9.4.0
  LAPACK type:        MKL
  BLAS type:          MKL
  64-bit integers:    ON
  OpenMP:             ON
  PCM:                OFF
  Forced batching:    OFF
  Runtime checks:     OFF
  ------------------------------------------------------------


  :: Input file
  ================

     Note: geometry section is excluded from this print

     system
        name: 2 h2o close
        charge: 0
        multiplicity: 1
     end system

     do
        ground state
     end do

     memory
        available: 8
     end memory

     solver scf
        restart
        algorithm: mo-scf-diis
        energy threshold:   1.0d-11
        gradient threshold: 1.0d-11
     end solver scf

     method
        mlhf
     end method

     active atoms
        selection type: list
        hf: {1, 2, 3}
     end active atoms


  Calculation start:2022-06-30 08:45:36 UTC +02:00

  Running on 2 OMP threads
  Memory available for calculation: 8.000000 GB


  :: MLHF wavefunction
  ====================

  - MLHF settings:

     Occupied orbitals:    Cholesky
     Virtual orbitals:     PAOs

     Cholesky decomposition threshold:  0.10E-01

     MO screening enabled

     ==============================================================================
                                     Geometry (angstrom)
     ==============================================================================
        Atom           X                  Y                  Z         # in input
     ==============================================================================
        Basis: cc-pvdz
        1  O    -0.573030000000     2.189950000000    -0.052560000000        1
        2  H     0.347690000000     2.485980000000     0.050490000000        2
        3  H    -1.075800000000     3.019470000000     0.020240000000        3
        4  O    -1.567030000000    -0.324500000000     0.450780000000        4
        5  H    -1.211220000000     0.588750000000     0.375890000000        5
        6  H    -1.604140000000    -0.590960000000    -0.479690000000        6
     ==============================================================================

     ==============================================================================
                                     Geometry (a.u.)
     ==============================================================================
        Atom           X                  Y                  Z         # in input
     ==============================================================================
        Basis: cc-pvdz
        1  O    -1.082869761160     4.138405726491    -0.099324005107        1
        2  H     0.657038876250     4.697821351146     0.095412272029        2
        3  H    -2.032967364807     5.705971341340     0.038248056761        3
        4  O    -2.961257528977    -0.613216127421     0.851850742431        4
        5  H    -2.288874076596     1.112576255838     0.710329152963        5
        6  H    -3.031385265460    -1.116752550573    -0.906482724693        6
     ==============================================================================

  - Cholesky decomposition of AO overlap to get linearly independent AOs:

     Linear dependence threshold:             0.10E-05
     Number of atomic orbitals:               48
     Number of orthonormal atomic orbitals:   48

  - Molecular orbital details:

     Number of occupied orbitals:        10
     Number of virtual orbitals:         38
     Number of molecular orbitals:       48


  Determining reference state
  ===========================

  - Requested restart. Reading orbitals from file

  - Active orbital space:

      Number of active occupied orbitals:        5
      Number of active virtual orbitals:        23
      Number of active orbitals:                28

  - Screening and integral thresholds:

     Coulomb screening threshold:    0.1000E-16
     Exchange screening threshold:   0.1000E-14
     ERI cutoff:                     0.1000E-16
     One-electron integral  cutoff:  0.1000E-21
     Cumulative Fock threshold:      0.1000E+01

  - SCF solver settings:

     Maximum iterations:                   100
     Acceleration type:                   diis

  - Convergence thresholds

     Residual threshold:            0.1000E-10
     Energy threshold:              0.1000E-10

  - DIIS tool settings:

     DIIS dimension:   8

     Storage (solver scf_errors): memory
     Storage (solver scf_parameters): memory

  Iteration       Energy (a.u.)      Max(grad.)    Delta E (a.u.)
  ---------------------------------------------------------------
     1          -152.018704702591     0.1751E-03     0.1520E+03
     2          -152.018704717406     0.7185E-04     0.1482E-07
     3          -152.018704720343     0.8378E-05     0.2937E-08
     4          -152.018704720391     0.3491E-05     0.4741E-10
     5          -152.018704720398     0.6596E-06     0.7191E-11
     6          -152.018704720398     0.1957E-06     0.5400E-12
     7          -152.018704720398     0.4074E-07     0.5684E-13
     8          -152.018704720398     0.9845E-08     0.5684E-13
     9          -152.018704720398     0.1422E-08     0.8527E-13
    10          -152.018704720398     0.1631E-09     0.0000E+00
    11          -152.018704720399     0.1419E-10     0.8527E-13
    12          -152.018704720399     0.3390E-11     0.2842E-13
  ---------------------------------------------------------------
  Convergence criterion met in 12 iterations!

  - Summary of MLHF wavefunction energetics (a.u.):

     HOMO-LUMO gap:                  0.695204742951
     Nuclear repulsion energy:      37.386395233393
     Electronic energy:           -189.405099953792
     Total energy:                -152.018704720399

  - Summary of MLHF active/inactive contributions to electronic energy (a.u.):

     Active energy:               -104.805789875476
     Active-inactive energy:        19.262564524022
     Inactive energy:             -103.861874602337

  Peak memory usage during the execution of eT: 420.016 KB

  Total wall time in eT (sec):              0.88095
  Total cpu time in eT (sec):               1.72585

  Calculation end:2022-06-30 08:45:36 UTC +02:00

  - Implementation references:

     eT: https://doi.org/10.1063/5.0004713

  eT terminated successfully!
