


                     eT 1.8 - an electronic structure program

  ------------------------------------------------------------------------
   Author list in alphabetical order:
  ------------------------------------------------------------------------
   J. H. Andersen, A. Balbi, S. Coriani, S. D. Folkestad, T. Giovannini, 
   L. Goletto, T. S. Haugland, A. Hutcheson, I-M. Høyvik, E. F. Kjønstad, 
   H. Koch, R. Matveeva, T. Moitra, R. H. Myhre, A. C. Paul, S. Roet, 
   E. Ronca, M. Scavino, A. K. Schnack-Petersen, A. S. Skeidsvoll, Å. 
   H. Tveten
  ------------------------------------------------------------------------
   J. Chem. Phys. 152, 184103 (2020); https://doi.org/10.1063/5.0004713


   This is eT 1.8.0 Ibiza
  ------------------------------------------------------------
  Configuration date: 2022-06-30 08:43:06 UTC +02:00
  Git branch:         release-v1.8.0
  Git hash:           9204bbd8a5d9984444afd222ec28d0f1c1e17adf
  Fortran compiler:   GNU 9.4.0
  C compiler:         GNU 9.4.0
  C++ compiler:       GNU 9.4.0
  LAPACK type:        MKL
  BLAS type:          MKL
  64-bit integers:    ON
  OpenMP:             ON
  PCM:                OFF
  Forced batching:    OFF
  Runtime checks:     OFF
  ------------------------------------------------------------


  :: Input file
  ================

     Note: geometry section is excluded from this print

     system
        name: h2o he
        charge: 0
     end system

     do
        ground state
        excited state
     end do

     memory
        available: 8
     end memory

     solver cholesky
        threshold: 1.0d-12
     end solver cholesky

     solver scf
        algorithm:          scf-diis
        energy threshold:   1.0d-10
        gradient threshold: 1.0d-10
     end solver scf

     method
        hf
        cc3
     end method

     solver cc gs
        omega threshold:  1.0d-10
        energy threshold: 1.0d-10
     end solver cc gs

     solver cc es
        core excitation:    {1}
        algorithm:          diis
        singlet states:     2
        residual threshold: 1.0d-10
        energy threshold:   1.0d-10
        left eigenvectors
     end solver cc es


  Calculation start:2022-06-30 08:48:45 UTC +02:00

  Running on 2 OMP threads
  Memory available for calculation: 8.000000 GB


  :: RHF wavefunction
  ===================

     ==============================================================================
                                     Geometry (angstrom)
     ==============================================================================
        Atom           X                  Y                  Z         # in input
     ==============================================================================
        Basis: cc-pvdz
        1  H     0.866810000000     0.601440000000     5.000000000000        1
        2  H    -0.866810000000     0.601440000000     5.000000000000        2
        3  O     0.000000000000    -0.075790000000     5.000000000000        3
        4 He     0.100000000000    -0.020000000000     7.530000000000        4
     ==============================================================================

     ==============================================================================
                                     Geometry (a.u.)
     ==============================================================================
        Atom           X                  Y                  Z         # in input
     ==============================================================================
        Basis: cc-pvdz
        1  H     1.638033502034     1.136556880358     9.448630622825        1
        2  H    -1.638033502034     1.136556880358     9.448630622825        2
        3  O     0.000000000000    -0.143222342981     9.448630622825        3
        4 He     0.188972612457    -0.037794522491    14.229637717975        4
     ==============================================================================

  - Cholesky decomposition of AO overlap to get linearly independent AOs:

     Linear dependence threshold:             0.10E-05
     Number of atomic orbitals:               29
     Number of orthonormal atomic orbitals:   29

  - Molecular orbital details:

     Number of occupied orbitals:         6
     Number of virtual orbitals:         23
     Number of molecular orbitals:       29


  Generating initial SAD density
  ==============================


  Determining reference state
  ===========================

  - Setting initial AO density to sad

     Energy of initial guess:               -78.492022836361
     Number of electrons in guess:           12.000000000000

  - Screening and integral thresholds:

     Coulomb screening threshold:    0.1000E-15
     Exchange screening threshold:   0.1000E-13
     ERI cutoff:                     0.1000E-15
     One-electron integral  cutoff:  0.1000E-20
     Cumulative Fock threshold:      0.1000E+01

  - SCF solver settings:

     Maximum iterations:                   100
     Acceleration type:                   diis

  - Convergence thresholds

     Residual threshold:            0.1000E-09
     Energy threshold:              0.1000E-09

  - DIIS tool settings:

     DIIS dimension:   8

     Storage (solver scf_errors): memory
     Storage (solver scf_parameters): memory

  Iteration       Energy (a.u.)      Max(grad.)    Delta E (a.u.)
  ---------------------------------------------------------------
     1           -78.796606592568     0.9786E-01     0.7880E+02
     2           -78.828675852646     0.7077E-01     0.3207E-01
     3           -78.843487343819     0.6747E-02     0.1481E-01
     4           -78.843814479549     0.2753E-02     0.3271E-03
     5           -78.843850612079     0.3973E-03     0.3613E-04
     6           -78.843851670925     0.5220E-04     0.1059E-05
     7           -78.843851692779     0.6096E-05     0.2185E-07
     8           -78.843851693528     0.2137E-05     0.7487E-09
     9           -78.843851693630     0.3151E-06     0.1028E-09
    10           -78.843851693631     0.2637E-07     0.4405E-12
    11           -78.843851693631     0.5634E-08     0.2842E-13
    12           -78.843851693631     0.1415E-08     0.0000E+00
    13           -78.843851693631     0.6806E-09     0.1421E-13
    14           -78.843851693631     0.1491E-09     0.1421E-13
    15           -78.843851693631     0.2501E-10     0.4263E-13
  ---------------------------------------------------------------
  Convergence criterion met in 15 iterations!

  - Summary of RHF wavefunction energetics (a.u.):

     HOMO-LUMO gap:                  0.645629080219
     Nuclear repulsion energy:      12.116100574587
     Electronic energy:            -90.959952268218
     Total energy:                 -78.843851693631


  :: CC3 wavefunction
  ===================

     Bath orbital(s):         False

   - Number of orbitals:

     Occupied orbitals:    6
     Virtual orbitals:     23
     Molecular orbitals:   29
     Atomic orbitals:      29

   - Number of ground state amplitudes:

     Single excitation amplitudes:  138
     Double excitation amplitudes:  9591


  Cholesky-decomposing electron repulsion integrals
  =================================================

  Cholesky decomposition of electronic repulsion integrals solver
  ---------------------------------------------------------------

  Performs a Cholesky decomposition of the two-electron electronic repulsion 
  integrals in the atomic orbital basis,

  (ab|cd) = sum_J L_ab^J L_cd^J.

  Once the Cholesky basis has been determined, the vectors L^J are constructed 
  and stored to disk. These may either be used directly, or be transformed 
  to the MO basis for use in post-HF calculations. For more information, 
  see S. D. Folkestad, E. F. Kjønstad and H. Koch, JCP, 150(19), (2019)

  - Cholesky decomposition settings:

     Target threshold is:   0.10E-11
     Span factor:           0.10E-01
     Max qual:                  1000

  - Cholesky decomposition ao details:

     Total number of AOs:                    29
     Total number of shell pairs:           120
     Total number of AO pairs:              435

     Significant shell pairs:               118
     Significant AO pairs:                  431

     Construct shell pairs:                 120
     Construct AO pairs:                    435

  Iter.  #Sign. ao pairs / shell pairs   Max diagonal    #Qualified    #Cholesky    Cholesky array size
  -------------------------------------------------------------------------------------------------------
     1               406 /     108       0.47383E+01         147             42             17052
     2               319 /      93       0.47165E-01         234            111             35409
     3               250 /      76       0.46944E-03         178            183             45750
     4               187 /      55       0.38270E-05         145            265             49555
     5                87 /      25       0.38106E-07          78            324             28188
     6                21 /       3       0.37202E-09          43            349              7329
     7                 0 /       0       0.36652E-11           7            354                 0
  -------------------------------------------------------------------------------------------------------

  - Summary of Cholesky decomposition of electronic repulsion integrals:

     Final number of Cholesky vectors: 354

 - Testing the Cholesky decomposition decomposition electronic repulsion integrals:

     Maximal difference between approximate and actual diagonal:              0.7161E-12
     Minimal element of difference between approximate and actual diagonal:  -0.1238E-14

  - Settings for integral handling:

     Cholesky vectors in memory: True
     ERI matrix in memory:       True

  - Finished decomposing the ERIs.

     Total wall time (sec):              0.20706
     Total cpu time (sec):               0.41698


  Determining CC cluster amplitudes
  =================================

   - Davidson tool settings:

     Number of parameters:                 9729
     Number of requested solutions:           1
     Max reduced space dimension:            50

     Storage (newton_raphson_amplitude_updator_trials): file
     Storage (newton_raphson_amplitude_updator_transforms): file

   - DIIS coupled cluster ground state solver
  ----------------------------------------------

  A DIIS CC ground state amplitude equations solver. It uses an extrapolation 
  of previous quasi-Newton perturbation theory estimates of the next amplitudes. 
  See Helgaker et al., Molecular Electronic Structure Theory, Chapter 
  13.

  - CC ground state solver settings:

  - Convergence thresholds

     Residual threshold:            0.1000E-09
     Energy threshold:              0.1000E-09
     Max number of iterations:      100

  - DIIS tool settings:

     DIIS dimension:   8

     Storage (cc_gs_diis_errors): file
     Storage (cc_gs_diis_parameters): file

  Iteration    Energy (a.u.)        |omega|       Delta E (a.u.)
  ---------------------------------------------------------------
    1           -79.084241931609     0.9358E-01     0.7908E+02
    2           -79.103956188886     0.1780E-02     0.1971E-01
    3           -79.104372326749     0.1172E-03     0.4161E-03
    4           -79.104388195848     0.9192E-05     0.1587E-04
    5           -79.104388536633     0.8539E-06     0.3408E-06
    6           -79.104388533341     0.4169E-07     0.3292E-08
    7           -79.104388533080     0.2159E-08     0.2611E-09
    8           -79.104388533034     0.9443E-10     0.4638E-10
  ---------------------------------------------------------------
  Convergence criterion met in 8 iterations!

  - Ground state summary:

     Final ground state energy (a.u.):   -79.104388533034

     Correlation energy (a.u.):           -0.260536839403

     Largest single amplitudes:
     -----------------------------------
        a       i         t(a,i)
     -----------------------------------
        1      5        0.015274304439
       14      4       -0.008970023656
        7      4        0.007312583247
        4      5        0.006872684677
        2      4        0.006012921707
       15      5       -0.005704150038
        6      2        0.005025576014
       13      5        0.004933889032
        5      6        0.004366074620
        3      4        0.004126391913
     ------------------------------------

     Largest double amplitudes:
     --------------------------------------------------
        a      i       b      j         t(ai,bj)
     --------------------------------------------------
        2      4       2      4       -0.049931914514
        5      6       5      6       -0.046567925290
        9      3       9      3       -0.041349512983
        3      4       3      4       -0.037778342511
        1      5       1      5       -0.037299297318
        6      5       6      5       -0.034903296771
       16      3      16      3       -0.032107572471
       17      3      17      3       -0.032051843284
        2      4       1      5       -0.031565942817
       18      3      18      3       -0.031349888894
     --------------------------------------------------

  - Finished solving the CC3 ground state equations

     Total wall time (sec):              0.71709
     Total cpu time (sec):               1.43705


  Determining CC excited state amplitudes
  =======================================

   - DIIS coupled cluster excited state solver
  -----------------------------------------------

  A DIIS solver that solves for the lowest eigenvalues and  the right 
  eigenvectors of the Jacobian matrix, A. The eigenvalue  problem is solved 
  by DIIS extrapolation of residuals for each  eigenvector until the convergence 
  criteria are met.

  More on the DIIS algorithm can be found in P. Pulay, Chemical Physics 
  Letters, 73(2), 393-398 (1980).

  - Settings for coupled cluster excited state solver (DIIS):
     Excitation vectors:  left

  - Convergence thresholds

     Residual threshold:            0.1000E-09
     Energy threshold:              0.1000E-09

     Number of singlet states:               2
     Max number of iterations:             100

  - DIIS tool settings:

     DIIS dimension:  20

     Storage (diis_cc_es_001_errors): file
     Storage (diis_cc_es_001_parameters): file

  - DIIS tool settings:

     DIIS dimension:  20

     Storage (diis_cc_es_002_errors): file
     Storage (diis_cc_es_002_parameters): file

  Iteration:                  1

   Root     Eigenvalue (Re)     Residual norm
  -----------------------------------------------
     1     20.324668869413       0.1951E+01
     2     20.387194522395       0.1933E+01
  -----------------------------------------------

  Iteration:                  2

   Root     Eigenvalue (Re)     Residual norm
  -----------------------------------------------
     1     19.723255982574       0.3149E+00
     2     19.802938413653       0.3470E+00
  -----------------------------------------------

  Iteration:                  3

   Root     Eigenvalue (Re)     Residual norm
  -----------------------------------------------
     1     19.711627527409       0.9654E-01
     2     19.770685020085       0.1092E+00
  -----------------------------------------------

  Iteration:                  4

   Root     Eigenvalue (Re)     Residual norm
  -----------------------------------------------
     1     19.706805860838       0.5613E-01
     2     19.775170811268       0.7106E-01
  -----------------------------------------------

  Iteration:                  5

   Root     Eigenvalue (Re)     Residual norm
  -----------------------------------------------
     1     19.699495800505       0.2494E-01
     2     19.763130795122       0.4056E-01
  -----------------------------------------------

  Iteration:                  6

   Root     Eigenvalue (Re)     Residual norm
  -----------------------------------------------
     1     19.697937470045       0.1296E-01
     2     19.761592753537       0.2075E-01
  -----------------------------------------------

  Iteration:                  7

   Root     Eigenvalue (Re)     Residual norm
  -----------------------------------------------
     1     19.695410031695       0.6836E-02
     2     19.757483483880       0.1024E-01
  -----------------------------------------------

  Iteration:                  8

   Root     Eigenvalue (Re)     Residual norm
  -----------------------------------------------
     1     19.695618487112       0.2820E-02
     2     19.757170346771       0.4020E-02
  -----------------------------------------------

  Iteration:                  9

   Root     Eigenvalue (Re)     Residual norm
  -----------------------------------------------
     1     19.695746181349       0.8172E-03
     2     19.757562919459       0.1181E-02
  -----------------------------------------------

  Iteration:                 10

   Root     Eigenvalue (Re)     Residual norm
  -----------------------------------------------
     1     19.695796121013       0.3034E-03
     2     19.757614226045       0.4408E-03
  -----------------------------------------------

  Iteration:                 11

   Root     Eigenvalue (Re)     Residual norm
  -----------------------------------------------
     1     19.695801569085       0.1118E-03
     2     19.757625699617       0.2369E-03
  -----------------------------------------------

  Iteration:                 12

   Root     Eigenvalue (Re)     Residual norm
  -----------------------------------------------
     1     19.695813326279       0.4194E-04
     2     19.757641408947       0.1805E-03
  -----------------------------------------------

  Iteration:                 13

   Root     Eigenvalue (Re)     Residual norm
  -----------------------------------------------
     1     19.695814196776       0.3248E-04
     2     19.757641300897       0.1838E-03
  -----------------------------------------------

  Iteration:                 14

   Root     Eigenvalue (Re)     Residual norm
  -----------------------------------------------
     1     19.695814283459       0.2839E-04
     2     19.757639838669       0.1573E-03
  -----------------------------------------------

  Iteration:                 15

   Root     Eigenvalue (Re)     Residual norm
  -----------------------------------------------
     1     19.695815371855       0.2277E-04
     2     19.757637537469       0.6810E-04
  -----------------------------------------------

  Iteration:                 16

   Root     Eigenvalue (Re)     Residual norm
  -----------------------------------------------
     1     19.695814954118       0.1270E-04
     2     19.757642826651       0.2596E-04
  -----------------------------------------------

  Iteration:                 17

   Root     Eigenvalue (Re)     Residual norm
  -----------------------------------------------
     1     19.695814238374       0.5194E-05
     2     19.757644147292       0.1158E-04
  -----------------------------------------------

  Iteration:                 18

   Root     Eigenvalue (Re)     Residual norm
  -----------------------------------------------
     1     19.695814373341       0.1552E-05
     2     19.757643758442       0.4129E-05
  -----------------------------------------------

  Iteration:                 19

   Root     Eigenvalue (Re)     Residual norm
  -----------------------------------------------
     1     19.695814424128       0.5032E-06
     2     19.757643810222       0.1030E-05
  -----------------------------------------------

  Iteration:                 20

   Root     Eigenvalue (Re)     Residual norm
  -----------------------------------------------
     1     19.695814441369       0.2066E-06
     2     19.757643785343       0.4240E-06
  -----------------------------------------------

  Iteration:                 21

   Root     Eigenvalue (Re)     Residual norm
  -----------------------------------------------
     1     19.695814453726       0.9280E-07
     2     19.757643767166       0.2148E-06
  -----------------------------------------------

  Iteration:                 22

   Root     Eigenvalue (Re)     Residual norm
  -----------------------------------------------
     1     19.695814455682       0.4441E-07
     2     19.757643763471       0.1174E-06
  -----------------------------------------------

  Iteration:                 23

   Root     Eigenvalue (Re)     Residual norm
  -----------------------------------------------
     1     19.695814454063       0.1381E-07
     2     19.757643766484       0.4198E-07
  -----------------------------------------------

  Iteration:                 24

   Root     Eigenvalue (Re)     Residual norm
  -----------------------------------------------
     1     19.695814453492       0.4400E-08
     2     19.757643767540       0.1187E-07
  -----------------------------------------------

  Iteration:                 25

   Root     Eigenvalue (Re)     Residual norm
  -----------------------------------------------
     1     19.695814453423       0.1472E-08
     2     19.757643767710       0.3377E-08
  -----------------------------------------------

  Iteration:                 26

   Root     Eigenvalue (Re)     Residual norm
  -----------------------------------------------
     1     19.695814453405       0.5739E-09
     2     19.757643767757       0.9903E-09
  -----------------------------------------------

  Iteration:                 27

   Root     Eigenvalue (Re)     Residual norm
  -----------------------------------------------
     1     19.695814453423       0.1568E-09
     2     19.757643767734       0.3271E-09
  -----------------------------------------------

  Iteration:                 28

   Root     Eigenvalue (Re)     Residual norm
  -----------------------------------------------
     1     19.695814453426       0.4018E-10
     2     19.757643767735       0.1051E-09
  -----------------------------------------------

  Iteration:                 29

   Root     Eigenvalue (Re)     Residual norm
  -----------------------------------------------
     1     19.695814453426       0.4018E-10
     2     19.757643767738       0.3047E-10
  -----------------------------------------------
  Convergence criterion met in 29 iterations!

  - Resorting roots according to excitation energy.

  - Stored converged states to file.

  - Excitation vector amplitudes:

     Electronic state nr. 1

     Energy (Hartree):                 19.695814453426
     Fraction singles (|L1|/|L|):       0.756337451729

     Largest single amplitudes:
     -----------------------------------
        a       i         L(a,i)
     -----------------------------------
        1      1        0.739825028909
        4      1        0.137081241344
        6      1       -0.060846305601
       13      1       -0.037059239106
       15      1        0.025522302610
        9      1       -0.009351942865
       10      1        0.006761553119
       11      1       -0.005686046197
       22      1        0.003216358981
        8      1       -0.002897706550
     ------------------------------------

     Largest double amplitudes:
     --------------------------------------------------
        a      i       b      j         L(ai,bj)
     --------------------------------------------------
        1      1       2      4       -0.286845280945
        1      1       5      6       -0.277311541187
        1      1       6      5        0.240512922072
        1      1       7      4        0.202624663067
        1      1       3      4       -0.159183268110
        1      1       4      5       -0.135090588857
        1      1       1      5       -0.128800346318
        1      1      13      2        0.112544501897
        1      1      14      4       -0.106644758799
        5      1       1      6        0.104463580452
     --------------------------------------------------

     Electronic state nr. 2

     Energy (Hartree):                 19.757643767738
     Fraction singles (|L1|/|L|):       0.773228701648

     Largest single amplitudes:
     -----------------------------------
        a       i         L(a,i)
     -----------------------------------
        2      1        0.744082691387
        3      1        0.176552144524
        7      1       -0.106201291544
       14      1        0.040722648781
       12      1       -0.009531813524
       23      1        0.004730204525
        4      1        0.001032441273
        5      1        0.000772724884
       17      1       -0.000655928492
        1      1       -0.000634982454
     ------------------------------------

     Largest double amplitudes:
     --------------------------------------------------
        a      i       b      j         L(ai,bj)
     --------------------------------------------------
        2      1       5      6       -0.270855444175
        2      1       6      5        0.233452976122
        2      1       1      5       -0.202857819992
        2      1       7      4        0.202351960438
        2      1       2      4       -0.182556041554
        2      1       4      5       -0.139204146715
        2      1       3      4       -0.139028283347
        2      1       1      2       -0.138937591346
        2      1      13      2        0.110250493388
        2      1      14      4       -0.101454495341
     --------------------------------------------------

     - Electronic excitation energies:

                                      Excitation energy
                          ------------------------------------------
      State                (Hartree)             (eV)
     ---------------------------------------------------------------
        1                 19.695814453426      535.950410070463
        2                 19.757643767738      537.632871409569
     ---------------------------------------------------------------
     eV/Hartree (CODATA 2014): 27.21138602

  - Finished solving the CC3 excited state equations (left)

     Total wall time (sec):              2.04890
     Total cpu time (sec):               4.09877

  Peak memory usage during the execution of eT: 15.903960 MB

  Total wall time in eT (sec):              3.51237
  Total cpu time in eT (sec):               6.97995

  Calculation end:2022-06-30 08:48:49 UTC +02:00

  - Implementation references:

     eT: https://doi.org/10.1063/5.0004713
     CC3: https://doi.org/10.1021/acs.jctc.0c00686
     Cholesky decomposition of ERIs: https://doi.org/10.1063/1.5083802
     Multimodel Newton algorithm: https://doi.org/10.1063/5.0010989

  eT terminated successfully!
