


                     eT 1.8 - an electronic structure program

  ------------------------------------------------------------------------
   Author list in alphabetical order:
  ------------------------------------------------------------------------
   J. H. Andersen, A. Balbi, S. Coriani, S. D. Folkestad, T. Giovannini, 
   L. Goletto, T. S. Haugland, A. Hutcheson, I-M. Høyvik, E. F. Kjønstad, 
   H. Koch, R. Matveeva, T. Moitra, R. H. Myhre, A. C. Paul, S. Roet, 
   E. Ronca, M. Scavino, A. K. Schnack-Petersen, A. S. Skeidsvoll, Å. 
   H. Tveten
  ------------------------------------------------------------------------
   J. Chem. Phys. 152, 184103 (2020); https://doi.org/10.1063/5.0004713


   This is eT 1.8.0 Ibiza
  ------------------------------------------------------------
  Configuration date: 2022-06-30 08:43:06 UTC +02:00
  Git branch:         release-v1.8.0
  Git hash:           9204bbd8a5d9984444afd222ec28d0f1c1e17adf
  Fortran compiler:   GNU 9.4.0
  C compiler:         GNU 9.4.0
  C++ compiler:       GNU 9.4.0
  LAPACK type:        MKL
  BLAS type:          MKL
  64-bit integers:    ON
  OpenMP:             ON
  PCM:                OFF
  Forced batching:    OFF
  Runtime checks:     OFF
  ------------------------------------------------------------


  :: Input file
  ================

     Note: geometry section is excluded from this print

     system
        name: h2o
        charge: 1
        multiplicity: 2
     end system

     do
        ground state
     end do

     memory
        available: 8
     end memory

     method
        rohf
        fci
     end method

     solver cholesky
        threshold: 1e-11
     end solver cholesky

     solver scf
        algorithm:          scf-diis
        energy threshold:   1.0d-10
        gradient threshold: 1.0d-10
        diis dimension: 8
     end solver scf

     solver fci
        states: 5
        residual threshold: 1.0d-10
        energy threshold: 1.0d-10
        storage: memory
     end solver fci


  Calculation start:2022-06-30 08:49:34 UTC +02:00

  Running on 2 OMP threads
  Memory available for calculation: 8.000000 GB

  Warning: ROHF orbital energies are not uniquely defined,  and may not 
           fulfill Koopmans theorem


  :: ROHF wavefunction
  ====================

     ==============================================================================
                                     Geometry (angstrom)
     ==============================================================================
        Atom           X                  Y                  Z         # in input
     ==============================================================================
        Basis: sto-3g
        1  O     0.000000000000     0.000000000000     0.000000000000        1
        2  H     0.000000000000     0.000000000000     0.950000000000        2
        3  H     0.895670000000     0.000000000000    -0.316663000000        3
     ==============================================================================

     ==============================================================================
                                     Geometry (a.u.)
     ==============================================================================
        Atom           X                  Y                  Z         # in input
     ==============================================================================
        Basis: sto-3g
        1  O     0.000000000000     0.000000000000     0.000000000000        1
        2  H     0.000000000000     0.000000000000     1.795239818337        2
        3  H     1.692570997989     0.000000000000    -0.598406343783        3
     ==============================================================================

  - Cholesky decomposition of AO overlap to get linearly independent AOs:

     Linear dependence threshold:             0.10E-05
     Number of atomic orbitals:               7
     Number of orthonormal atomic orbitals:   7

  - Molecular orbital details:

     Number of alpha electrons:               5
     Number of beta electrons:                4
     Number of virtual alpha orbitals:        2
     Number of virtual beta orbitals:         3
     Number of molecular orbitals:            7


  Generating initial SAD density
  ==============================


  Determining reference state
  ===========================

  - Setting initial AO density to sad

     Energy of initial guess:               -74.808753043480
     Number of electrons in guess:           10.000000000000
     Overall charge:                                       1

  - Screening and integral thresholds:

     Coulomb screening threshold:    0.1000E-15
     Exchange screening threshold:   0.1000E-13
     ERI cutoff:                     0.1000E-15
     One-electron integral  cutoff:  0.1000E-20
     Cumulative Fock threshold:      0.1000E+01

  - SCF solver settings:

     Maximum iterations:                   100
     Acceleration type:                   diis

  - Convergence thresholds

     Residual threshold:            0.1000E-09
     Energy threshold:              0.1000E-09

  - DIIS tool settings:

     DIIS dimension:   8

     Storage (solver scf_errors): memory
     Storage (solver scf_parameters): memory

  Iteration       Energy (a.u.)      Max(grad.)    Delta E (a.u.)
  ---------------------------------------------------------------
     1           -74.638383252693     0.3673E-01     0.7464E+02
     2           -74.652108587150     0.3535E-02     0.1373E-01
     3           -74.652385903875     0.1063E-02     0.2773E-03
     4           -74.652410893756     0.1454E-03     0.2499E-04
     5           -74.652410875460     0.2335E-04     0.1830E-07
     6           -74.652410641633     0.9253E-07     0.2338E-06
     7           -74.652410642763     0.5495E-09     0.1130E-08
     8           -74.652410642769     0.4018E-12     0.6779E-11
  ---------------------------------------------------------------
  Convergence criterion met in 8 iterations!

  - Summary of ROHF wavefunction energetics (a.u.):

     HOMO-LUMO gap (alpha):          1.145371989265
     HOMO-LUMO gap (beta):           0.774164524079
     Nuclear repulsion energy:       9.253567250513
     Electronic energy:            -83.905977893283
     Total energy:                 -74.652410642769

  - ROHF wavefunction spin expectation values:

     Sz:                   0.50000000
     Sz(Sz + 1):           0.75000000
     S^2:                  0.75000000
     Spin contamination:   0.00000000


  :: FCI wavefunction
  ======================

   - Number of orbitals:

     Alpha electrons:          5
     Virtual alpha orbitals:   2
     Beta electrons:           4
     Virtual beta orbitals:    3
     Molecular orbitals:       7

   - Number of determinants:
     Alpha Determinants:       21
     Beta Determinants:        35

  Cholesky decomposition of electronic repulsion integrals solver
  ---------------------------------------------------------------

  Performs a Cholesky decomposition of the two-electron electronic repulsion 
  integrals in the atomic orbital basis,

  (ab|cd) = sum_J L_ab^J L_cd^J.

  Once the Cholesky basis has been determined, the vectors L^J are constructed 
  and stored to disk. These may either be used directly, or be transformed 
  to the MO basis for use in post-HF calculations. For more information, 
  see S. D. Folkestad, E. F. Kjønstad and H. Koch, JCP, 150(19), (2019)

  - Cholesky decomposition settings:

     Target threshold is:   0.10E-10
     Span factor:           0.10E-01
     Max qual:                  1000

  - Cholesky decomposition ao details:

     Total number of AOs:                     7
     Total number of shell pairs:            15
     Total number of AO pairs:               28

     Significant shell pairs:                15
     Significant AO pairs:                   28

     Construct shell pairs:                  15
     Construct AO pairs:                     28

  Iter.  #Sign. ao pairs / shell pairs   Max diagonal    #Qualified    #Cholesky    Cholesky array size
  -------------------------------------------------------------------------------------------------------
     1                22 /      11       0.47851E+01          15              9               198
     2                 5 /       5       0.47444E-01          16             23               115
     3                 0 /       0       0.10516E-03           5             28                 0
  -------------------------------------------------------------------------------------------------------

  - Summary of Cholesky decomposition of electronic repulsion integrals:

     Final number of Cholesky vectors: 28

 - Testing the Cholesky decomposition decomposition electronic repulsion integrals:

     Maximal difference between approximate and actual diagonal:              0.2832E-15
     Minimal element of difference between approximate and actual diagonal:  -0.2832E-15

  - Finished decomposing the ERIs.

     Total wall time (sec):              0.00470
     Total cpu time (sec):               0.00470


  Determining FCI eigenstates
  ===========================

  Davidson eigenvalue equation solver
  -----------------------------------

  A Davidson solver that solves an eigenvalue equation: M x = omega x. 
  This equation is solved in a reduced space. A description of the algorithm 
  can be found in E. R. Davidson, J. Comput. Phys. 17, 87 (1975).

   - Davidson tool settings:

     Number of parameters:                  735
     Number of requested solutions:           5
     Max reduced space dimension:           100

     Storage (fci_davidson_trials): memory
     Storage (fci_davidson_transforms): memory

  - Davidson solver settings

     Number of singlet states:               5
     Max number of iterations:             100

  Iteration:                  1
  Reduced space dimension:    5

  Root  Eigenvalue (Re)   Eigenvalue (Im)    |residual|   Delta E (Re)
  -------------------------------------------------------------------------
     1 -74.652971701364    0.000000000000     0.2869E+00   0.7465E+02
     2 -73.975981546906    0.000000000000     0.3264E+00   0.7398E+02
     3 -73.968787698433    0.000000000000     0.3621E+00   0.7397E+02
     4 -73.848269941609    0.000000000000     0.2363E+00   0.7385E+02
     5 -73.142640896416    0.000000000000     0.3612E+00   0.7314E+02
  -------------------------------------------------------------------------

  Iteration:                  2
  Reduced space dimension:   10

  Root  Eigenvalue (Re)   Eigenvalue (Im)    |residual|   Delta E (Re)
  -------------------------------------------------------------------------
     1 -74.690578243216    0.000000000000     0.6080E-01   0.3761E-01
     2 -74.062690251759    0.000000000000     0.3196E+00   0.8671E-01
     3 -74.053593187089    0.000000000000     0.1261E+00   0.8481E-01
     4 -73.945006134497    0.000000000000     0.2838E+00   0.9674E-01
     5 -73.916697322543    0.000000000000     0.2330E+00   0.7741E+00
  -------------------------------------------------------------------------

  Iteration:                  3
  Reduced space dimension:   15

  Root  Eigenvalue (Re)   Eigenvalue (Im)    |residual|   Delta E (Re)
  -------------------------------------------------------------------------
     1 -74.692020822715    0.000000000000     0.1261E-01   0.1443E-02
     2 -74.125664822355    0.000000000000     0.9473E-01   0.6297E-01
     3 -74.061829849256    0.000000000000     0.3969E-01   0.8237E-02
     4 -73.999663342229    0.000000000000     0.8700E-01   0.5466E-01
     5 -73.940475349149    0.000000000000     0.2037E+00   0.2378E-01
  -------------------------------------------------------------------------

  Iteration:                  4
  Reduced space dimension:   20

  Root  Eigenvalue (Re)   Eigenvalue (Im)    |residual|   Delta E (Re)
  -------------------------------------------------------------------------
     1 -74.692084327055    0.000000000000     0.1997E-02   0.6350E-04
     2 -74.131365281550    0.000000000000     0.2808E-01   0.5700E-02
     3 -74.062612130740    0.000000000000     0.1006E-01   0.7823E-03
     4 -74.025797071894    0.000000000000     0.1996E+00   0.2613E-01
     5 -74.016241111841    0.000000000000     0.2021E+00   0.7577E-01
  -------------------------------------------------------------------------

  Iteration:                  5
  Reduced space dimension:   25

  Root  Eigenvalue (Re)   Eigenvalue (Im)    |residual|   Delta E (Re)
  -------------------------------------------------------------------------
     1 -74.692085780844    0.000000000000     0.2550E-03   0.1454E-05
     2 -74.131977512151    0.000000000000     0.8898E-02   0.6122E-03
     3 -74.062682997766    0.000000000000     0.4302E-02   0.7087E-04
     4 -74.046932331070    0.000000000000     0.8682E-01   0.2114E-01
     5 -74.046415955859    0.000000000000     0.3665E-01   0.3017E-01
  -------------------------------------------------------------------------

  Iteration:                  6
  Reduced space dimension:   30

  Root  Eigenvalue (Re)   Eigenvalue (Im)    |residual|   Delta E (Re)
  -------------------------------------------------------------------------
     1 -74.692085804473    0.000000000000     0.4099E-04   0.2363E-07
     2 -74.132031534554    0.000000000000     0.2217E-02   0.5402E-04
     3 -74.062696678097    0.000000000000     0.1454E-02   0.1368E-04
     4 -74.051912780686    0.000000000000     0.3265E-01   0.4980E-02
     5 -74.047148664560    0.000000000000     0.7439E-02   0.7327E-03
  -------------------------------------------------------------------------

  Iteration:                  7
  Reduced space dimension:   35

  Root  Eigenvalue (Re)   Eigenvalue (Im)    |residual|   Delta E (Re)
  -------------------------------------------------------------------------
     1 -74.692085805089    0.000000000000     0.8486E-05   0.6157E-09
     2 -74.132033812772    0.000000000000     0.4694E-03   0.2278E-05
     3 -74.062698206977    0.000000000000     0.4840E-03   0.1529E-05
     4 -74.052755992026    0.000000000000     0.1150E-01   0.8432E-03
     5 -74.047174060466    0.000000000000     0.1426E-02   0.2540E-04
  -------------------------------------------------------------------------

  Iteration:                  8
  Reduced space dimension:   40

  Root  Eigenvalue (Re)   Eigenvalue (Im)    |residual|   Delta E (Re)
  -------------------------------------------------------------------------
     1 -74.692085805113    0.000000000000     0.1417E-05   0.2375E-10
     2 -74.132033911184    0.000000000000     0.9664E-04   0.9841E-07
     3 -74.062698366960    0.000000000000     0.1542E-03   0.1600E-06
     4 -74.052857218577    0.000000000000     0.5516E-02   0.1012E-03
     5 -74.047175131890    0.000000000000     0.3528E-03   0.1071E-05
  -------------------------------------------------------------------------

  Iteration:                  9
  Reduced space dimension:   45

  Root  Eigenvalue (Re)   Eigenvalue (Im)    |residual|   Delta E (Re)
  -------------------------------------------------------------------------
     1 -74.692085805113    0.000000000000     0.1779E-06   0.7958E-12
     2 -74.132033916162    0.000000000000     0.1691E-04   0.4978E-08
     3 -74.062698385285    0.000000000000     0.5857E-04   0.1833E-07
     4 -74.052877510170    0.000000000000     0.1674E-02   0.2029E-04
     5 -74.047175203814    0.000000000000     0.7268E-04   0.7192E-07
  -------------------------------------------------------------------------

  Iteration:                 10
  Reduced space dimension:   50

  Root  Eigenvalue (Re)   Eigenvalue (Im)    |residual|   Delta E (Re)
  -------------------------------------------------------------------------
     1 -74.692085805114    0.000000000000     0.2302E-07   0.2132E-12
     2 -74.132033916283    0.000000000000     0.2654E-05   0.1211E-09
     3 -74.062698387093    0.000000000000     0.1471E-04   0.1808E-08
     4 -74.052878931293    0.000000000000     0.4050E-03   0.1421E-05
     5 -74.047175206074    0.000000000000     0.1126E-04   0.2260E-08
  -------------------------------------------------------------------------

  Iteration:                 11
  Reduced space dimension:   55

  Root  Eigenvalue (Re)   Eigenvalue (Im)    |residual|   Delta E (Re)
  -------------------------------------------------------------------------
     1 -74.692085805113    0.000000000000     0.2285E-08   0.3126E-12
     2 -74.132033916286    0.000000000000     0.3948E-06   0.2885E-11
     3 -74.062698387144    0.000000000000     0.3290E-05   0.5107E-10
     4 -74.052879042833    0.000000000000     0.1488E-03   0.1115E-06
     5 -74.047175206122    0.000000000000     0.1736E-05   0.4864E-10
  -------------------------------------------------------------------------

  Iteration:                 12
  Reduced space dimension:   60

  Root  Eigenvalue (Re)   Eigenvalue (Im)    |residual|   Delta E (Re)
  -------------------------------------------------------------------------
     1 -74.692085805113    0.000000000000     0.2635E-09   0.5684E-13
     2 -74.132033916286    0.000000000000     0.5121E-07   0.4263E-13
     3 -74.062698387151    0.000000000000     0.1934E-05   0.7034E-11
     4 -74.052879057210    0.000000000000     0.4702E-04   0.1438E-07
     5 -74.047175206124    0.000000000000     0.2115E-06   0.1364E-11
  -------------------------------------------------------------------------

  Iteration:                 13
  Reduced space dimension:   65

  Root  Eigenvalue (Re)   Eigenvalue (Im)    |residual|   Delta E (Re)
  -------------------------------------------------------------------------
     1 -74.692085805113    0.000000000000     0.3454E-10   0.1705E-12
     2 -74.250820814684    0.000000000000     0.8706E+00   0.1188E+00
     3 -74.132033916286    0.000000000000     0.9933E-08   0.6934E-01
     4 -74.062698387151    0.000000000000     0.3124E-06   0.9819E-02
     5 -74.052879058269    0.000000000000     0.1105E-04   0.5704E-02
  -------------------------------------------------------------------------

  Iteration:                 14
  Reduced space dimension:   69

  Root  Eigenvalue (Re)   Eigenvalue (Im)    |residual|   Delta E (Re)
  -------------------------------------------------------------------------
     1 -74.692085805113    0.000000000000     0.2082E-10   0.1563E-12
     2 -74.269647921793    0.000000000000     0.7916E+00   0.1883E-01
     3 -74.132033916286    0.000000000000     0.1474E-08   0.4405E-12
     4 -74.062698387151    0.000000000000     0.2804E-06   0.2700E-12
     5 -74.052879058338    0.000000000000     0.2984E-05   0.6895E-10
  -------------------------------------------------------------------------

  Iteration:                 15
  Reduced space dimension:   73

  Root  Eigenvalue (Re)   Eigenvalue (Im)    |residual|   Delta E (Re)
  -------------------------------------------------------------------------
     1 -74.692085805113    0.000000000000     0.2101E-10   0.9948E-13
     2 -74.493215761690    0.000000000000     0.5475E+00   0.2236E+00
     3 -74.132033916286    0.000000000000     0.2713E-09   0.1421E-13
     4 -74.062698387152    0.000000000000     0.3802E-07   0.5684E-12
     5 -74.052879058342    0.000000000000     0.6836E-06   0.3865E-11
  -------------------------------------------------------------------------

  Iteration:                 16
  Reduced space dimension:   77

  Root  Eigenvalue (Re)   Eigenvalue (Im)    |residual|   Delta E (Re)
  -------------------------------------------------------------------------
     1 -74.692085805114    0.000000000000     0.2034E-10   0.8100E-12
     2 -74.597222050904    0.000000000000     0.1916E+00   0.1040E+00
     3 -74.132033916286    0.000000000000     0.3481E-10   0.5969E-12
     4 -74.062698387151    0.000000000000     0.8292E-08   0.3126E-12
     5 -74.052879058342    0.000000000000     0.1148E-06   0.6111E-12
  -------------------------------------------------------------------------

  Iteration:                 17
  Reduced space dimension:   80

  Root  Eigenvalue (Re)   Eigenvalue (Im)    |residual|   Delta E (Re)
  -------------------------------------------------------------------------
     1 -74.692085805113    0.000000000000     0.2032E-10   0.5258E-12
     2 -74.612109976670    0.000000000000     0.3607E-01   0.1489E-01
     3 -74.132033916286    0.000000000000     0.3480E-10   0.5400E-12
     4 -74.062698387151    0.000000000000     0.2011E-08   0.7105E-13
     5 -74.052879058342    0.000000000000     0.2382E-07   0.7105E-12
  -------------------------------------------------------------------------

  Iteration:                 18
  Reduced space dimension:   83

  Root  Eigenvalue (Re)   Eigenvalue (Im)    |residual|   Delta E (Re)
  -------------------------------------------------------------------------
     1 -74.692085805114    0.000000000000     0.2033E-10   0.1279E-12
     2 -74.612591238490    0.000000000000     0.4659E-02   0.4813E-03
     3 -74.132033916286    0.000000000000     0.3481E-10   0.8384E-12
     4 -74.062698387151    0.000000000000     0.4280E-09   0.1137E-12
     5 -74.052879058342    0.000000000000     0.5575E-08   0.4263E-13
  -------------------------------------------------------------------------

  Iteration:                 19
  Reduced space dimension:   86

  Root  Eigenvalue (Re)   Eigenvalue (Im)    |residual|   Delta E (Re)
  -------------------------------------------------------------------------
     1 -74.692085805113    0.000000000000     0.2032E-10   0.1705E-12
     2 -74.612599839006    0.000000000000     0.5046E-03   0.8601E-05
     3 -74.132033916286    0.000000000000     0.3481E-10   0.7105E-13
     4 -74.062698387151    0.000000000000     0.7993E-10   0.4263E-12
     5 -74.052879058342    0.000000000000     0.1194E-08   0.1421E-13
  -------------------------------------------------------------------------

  Iteration:                 20
  Reduced space dimension:   88

  Root  Eigenvalue (Re)   Eigenvalue (Im)    |residual|   Delta E (Re)
  -------------------------------------------------------------------------
     1 -74.692085805114    0.000000000000     0.2033E-10   0.2700E-12
     2 -74.612599928553    0.000000000000     0.7139E-04   0.8955E-07
     3 -74.132033916286    0.000000000000     0.3479E-10   0.6537E-12
     4 -74.062698387151    0.000000000000     0.7400E-10   0.2700E-12
     5 -74.052879058341    0.000000000000     0.1653E-09   0.9948E-13
  -------------------------------------------------------------------------

  Iteration:                 21
  Reduced space dimension:   90

  Root  Eigenvalue (Re)   Eigenvalue (Im)    |residual|   Delta E (Re)
  -------------------------------------------------------------------------
     1 -74.692085805113    0.000000000000     0.2032E-10   0.1705E-12
     2 -74.612599930655    0.000000000000     0.1447E-04   0.2102E-08
     3 -74.132033916286    0.000000000000     0.3479E-10   0.8527E-13
     4 -74.062698387151    0.000000000000     0.7387E-10   0.3695E-12
     5 -74.052879058342    0.000000000000     0.3318E-10   0.1990E-12
  -------------------------------------------------------------------------

  Iteration:                 22
  Reduced space dimension:   91

  Root  Eigenvalue (Re)   Eigenvalue (Im)    |residual|   Delta E (Re)
  -------------------------------------------------------------------------
     1 -74.692085805114    0.000000000000     0.2033E-10   0.3695E-12
     2 -74.612599930731    0.000000000000     0.2520E-05   0.7606E-10
     3 -74.132033916286    0.000000000000     0.3481E-10   0.2558E-12
     4 -74.062698387151    0.000000000000     0.7287E-10   0.7105E-13
     5 -74.052879058341    0.000000000000     0.3319E-10   0.1990E-12
  -------------------------------------------------------------------------

  Iteration:                 23
  Reduced space dimension:   92

  Root  Eigenvalue (Re)   Eigenvalue (Im)    |residual|   Delta E (Re)
  -------------------------------------------------------------------------
     1 -74.692085805114    0.000000000000     0.2033E-10   0.7105E-13
     2 -74.612599930733    0.000000000000     0.4047E-06   0.2430E-11
     3 -74.132033916286    0.000000000000     0.3481E-10   0.5400E-12
     4 -74.062698387151    0.000000000000     0.7672E-10   0.3268E-12
     5 -74.052879058342    0.000000000000     0.3319E-10   0.5826E-12
  -------------------------------------------------------------------------

  Iteration:                 24
  Reduced space dimension:   93

  Root  Eigenvalue (Re)   Eigenvalue (Im)    |residual|   Delta E (Re)
  -------------------------------------------------------------------------
     1 -74.692085805114    0.000000000000     0.2033E-10   0.9948E-13
     2 -74.612599930733    0.000000000000     0.8469E-07   0.2416E-12
     3 -74.132033916286    0.000000000000     0.3480E-10   0.3837E-12
     4 -74.123311345191    0.000000000000     0.7616E+00   0.6061E-01
     5 -74.062698387151    0.000000000000     0.1684E-09   0.9819E-02
  -------------------------------------------------------------------------

  Iteration:                 25
  Reduced space dimension:   96

  Root  Eigenvalue (Re)   Eigenvalue (Im)    |residual|   Delta E (Re)
  -------------------------------------------------------------------------
     1 -74.692085805114    0.000000000000     0.2033E-10   0.2842E-13
     2 -74.612599930734    0.000000000000     0.1485E-07   0.3268E-12
     3 -74.355001373538    0.000000000000     0.2473E+00   0.2230E+00
     4 -74.132033916286    0.000000000000     0.3482E-10   0.8723E-02
     5 -74.062698387151    0.000000000000     0.1987E-10   0.2558E-12
  -------------------------------------------------------------------------

  Iteration:                 26
  Reduced space dimension:   99

  Root  Eigenvalue (Re)   Eigenvalue (Im)    |residual|   Delta E (Re)
  -------------------------------------------------------------------------
     1 -74.692085805114    0.000000000000     0.2008E-10   0.7105E-13
     2 -74.612599930733    0.000000000000     0.2285E-08   0.7105E-13
     3 -74.380436968290    0.000000000000     0.7316E-01   0.2544E-01
     4 -74.132033916286    0.000000000000     0.3909E-11   0.4263E-13
     5 -74.062698387151    0.000000000000     0.1610E-10   0.1137E-12
  -------------------------------------------------------------------------

  Iteration:                 27
  Reduced space dimension:    5

  Root  Eigenvalue (Re)   Eigenvalue (Im)    |residual|   Delta E (Re)
  -------------------------------------------------------------------------
     1 -74.692085805113    0.000000000000     0.2007E-10   0.4121E-12
     2 -74.612599930733    0.000000000000     0.2285E-08   0.2558E-12
     3 -74.380436968290    0.000000000000     0.7316E-01   0.5684E-13
     4 -74.132033916286    0.000000000000     0.3909E-11   0.4263E-13
     5 -74.062698387151    0.000000000000     0.1610E-10   0.2842E-13
  -------------------------------------------------------------------------

  Iteration:                 28
  Reduced space dimension:    7

  Root  Eigenvalue (Re)   Eigenvalue (Im)    |residual|   Delta E (Re)
  -------------------------------------------------------------------------
     1 -74.692085805113    0.000000000000     0.2007E-10   0.0000E+00
     2 -74.612599930733    0.000000000000     0.4016E-09   0.1990E-12
     3 -74.382565925283    0.000000000000     0.1479E-01   0.2129E-02
     4 -74.132033916286    0.000000000000     0.3909E-11   0.7105E-13
     5 -74.062698387151    0.000000000000     0.1443E-10   0.4263E-13
  -------------------------------------------------------------------------

  Iteration:                 29
  Reduced space dimension:    9

  Root  Eigenvalue (Re)   Eigenvalue (Im)    |residual|   Delta E (Re)
  -------------------------------------------------------------------------
     1 -74.692085805113    0.000000000000     0.2007E-10   0.0000E+00
     2 -74.612599930733    0.000000000000     0.7439E-10   0.1705E-12
     3 -74.382680402522    0.000000000000     0.4138E-02   0.1145E-03
     4 -74.132033916286    0.000000000000     0.3910E-11   0.9948E-13
     5 -74.062698387151    0.000000000000     0.1430E-10   0.8527E-13
  -------------------------------------------------------------------------

  Iteration:                 30
  Reduced space dimension:   10

  Root  Eigenvalue (Re)   Eigenvalue (Im)    |residual|   Delta E (Re)
  -------------------------------------------------------------------------
     1 -74.692085805113    0.000000000000     0.2007E-10   0.0000E+00
     2 -74.612599930733    0.000000000000     0.6801E-10   0.5684E-13
     3 -74.382686739357    0.000000000000     0.1084E-02   0.6337E-05
     4 -74.132033916286    0.000000000000     0.3910E-11   0.1279E-12
     5 -74.062698387151    0.000000000000     0.1424E-10   0.1990E-12
  -------------------------------------------------------------------------

  Iteration:                 31
  Reduced space dimension:   11

  Root  Eigenvalue (Re)   Eigenvalue (Im)    |residual|   Delta E (Re)
  -------------------------------------------------------------------------
     1 -74.692085805113    0.000000000000     0.2007E-10   0.0000E+00
     2 -74.612599930733    0.000000000000     0.6019E-10   0.4263E-13
     3 -74.382687272261    0.000000000000     0.2369E-03   0.5329E-06
     4 -74.132033916286    0.000000000000     0.3910E-11   0.5684E-13
     5 -74.062698387151    0.000000000000     0.1416E-10   0.7105E-13
  -------------------------------------------------------------------------

  Iteration:                 32
  Reduced space dimension:   12

  Root  Eigenvalue (Re)   Eigenvalue (Im)    |residual|   Delta E (Re)
  -------------------------------------------------------------------------
     1 -74.692085805113    0.000000000000     0.2007E-10   0.0000E+00
     2 -74.612599930733    0.000000000000     0.5927E-10   0.8527E-13
     3 -74.382687296277    0.000000000000     0.4980E-04   0.2402E-07
     4 -74.132033916286    0.000000000000     0.3912E-11   0.1137E-12
     5 -74.062698387151    0.000000000000     0.1418E-10   0.4263E-13
  -------------------------------------------------------------------------

  Iteration:                 33
  Reduced space dimension:   13

  Root  Eigenvalue (Re)   Eigenvalue (Im)    |residual|   Delta E (Re)
  -------------------------------------------------------------------------
     1 -74.692085805113    0.000000000000     0.2007E-10   0.0000E+00
     2 -74.612599930733    0.000000000000     0.5907E-10   0.4263E-13
     3 -74.382687297359    0.000000000000     0.1117E-04   0.1081E-08
     4 -74.132033916286    0.000000000000     0.3910E-11   0.1847E-12
     5 -74.062698387151    0.000000000000     0.1432E-10   0.1137E-12
  -------------------------------------------------------------------------

  Iteration:                 34
  Reduced space dimension:   14

  Root  Eigenvalue (Re)   Eigenvalue (Im)    |residual|   Delta E (Re)
  -------------------------------------------------------------------------
     1 -74.692085805113    0.000000000000     0.2007E-10   0.0000E+00
     2 -74.612599930733    0.000000000000     0.5989E-10   0.1421E-13
     3 -74.382687297412    0.000000000000     0.2655E-05   0.5306E-10
     4 -74.132033916286    0.000000000000     0.3910E-11   0.9948E-13
     5 -74.062698387151    0.000000000000     0.1436E-10   0.7105E-13
  -------------------------------------------------------------------------

  Iteration:                 35
  Reduced space dimension:   15

  Root  Eigenvalue (Re)   Eigenvalue (Im)    |residual|   Delta E (Re)
  -------------------------------------------------------------------------
     1 -74.692085805113    0.000000000000     0.2007E-10   0.0000E+00
     2 -74.612599930733    0.000000000000     0.5943E-10   0.1279E-12
     3 -74.382687297414    0.000000000000     0.5938E-06   0.2572E-11
     4 -74.132033916286    0.000000000000     0.3911E-11   0.8527E-13
     5 -74.062698387151    0.000000000000     0.1440E-10   0.1421E-12
  -------------------------------------------------------------------------

  Iteration:                 36
  Reduced space dimension:   16

  Root  Eigenvalue (Re)   Eigenvalue (Im)    |residual|   Delta E (Re)
  -------------------------------------------------------------------------
     1 -74.692085805113    0.000000000000     0.2007E-10   0.0000E+00
     2 -74.612599930733    0.000000000000     0.5874E-10   0.1990E-12
     3 -74.382687297414    0.000000000000     0.1362E-06   0.5684E-13
     4 -74.132033916286    0.000000000000     0.3910E-11   0.9948E-13
     5 -74.062698387151    0.000000000000     0.1444E-10   0.1990E-12
  -------------------------------------------------------------------------

  Iteration:                 37
  Reduced space dimension:   17

  Root  Eigenvalue (Re)   Eigenvalue (Im)    |residual|   Delta E (Re)
  -------------------------------------------------------------------------
     1 -74.692085805113    0.000000000000     0.2007E-10   0.0000E+00
     2 -74.612599930733    0.000000000000     0.5867E-10   0.5684E-13
     3 -74.382687297414    0.000000000000     0.2598E-07   0.1421E-13
     4 -74.132033916286    0.000000000000     0.3911E-11   0.1421E-12
     5 -74.062698387151    0.000000000000     0.1444E-10   0.7105E-13
  -------------------------------------------------------------------------

  Iteration:                 38
  Reduced space dimension:   18

  Root  Eigenvalue (Re)   Eigenvalue (Im)    |residual|   Delta E (Re)
  -------------------------------------------------------------------------
     1 -74.692085805113    0.000000000000     0.2007E-10   0.0000E+00
     2 -74.612599930733    0.000000000000     0.5829E-10   0.1421E-12
     3 -74.382687297414    0.000000000000     0.4793E-08   0.8527E-13
     4 -74.132033916286    0.000000000000     0.3910E-11   0.9948E-13
     5 -74.062698387151    0.000000000000     0.1423E-10   0.2842E-13
  -------------------------------------------------------------------------

  Iteration:                 39
  Reduced space dimension:   19

  Root  Eigenvalue (Re)   Eigenvalue (Im)    |residual|   Delta E (Re)
  -------------------------------------------------------------------------
     1 -74.692085805113    0.000000000000     0.2007E-10   0.0000E+00
     2 -74.612599930733    0.000000000000     0.5824E-10   0.1279E-12
     3 -74.382687297415    0.000000000000     0.9270E-09   0.8527E-13
     4 -74.132033916286    0.000000000000     0.3910E-11   0.2842E-13
     5 -74.062698387151    0.000000000000     0.1425E-10   0.2842E-13
  -------------------------------------------------------------------------

  Iteration:                 40
  Reduced space dimension:   20

  Root  Eigenvalue (Re)   Eigenvalue (Im)    |residual|   Delta E (Re)
  -------------------------------------------------------------------------
     1 -74.692085805113    0.000000000000     0.2007E-10   0.0000E+00
     2 -74.612599930733    0.000000000000     0.5824E-10   0.7105E-13
     3 -74.382687297415    0.000000000000     0.2049E-09   0.2842E-13
     4 -74.132033916286    0.000000000000     0.3914E-11   0.1990E-12
     5 -74.062698387151    0.000000000000     0.1396E-10   0.1137E-12
  -------------------------------------------------------------------------

  Iteration:                 41
  Reduced space dimension:   21

  Root  Eigenvalue (Re)   Eigenvalue (Im)    |residual|   Delta E (Re)
  -------------------------------------------------------------------------
     1 -74.692085805113    0.000000000000     0.2007E-10   0.0000E+00
     2 -74.612599930733    0.000000000000     0.5792E-10   0.5684E-13
     3 -74.382687297415    0.000000000000     0.4189E-10   0.1421E-13
     4 -74.132033916286    0.000000000000     0.3912E-11   0.2416E-12
     5 -74.062698387151    0.000000000000     0.1386E-10   0.9948E-13
  -------------------------------------------------------------------------
  Convergence criterion met in 41 iterations!

  - CI amplitudes:

     Electronic state nr. 1

     Energy (Hartree):     -74.692085805113
     Spin Multiplicity:      2.000000000000

     Largest CI amplitudes:
     ---------------------------
     00a2222      0.989340790360
     20a2022      0.069698006310
     0ab22a2     -0.041261112569
     02a2022      0.035443034599
     baaba22      0.033446634036
     a0b2a22      0.033190202613
     abaab22      0.031959802802
     aba2ba2     -0.031125500301
     baa2ab2     -0.029229899875
     02a2202      0.029039200561
     ---------------------------

     Electronic state nr. 2

     Energy (Hartree):     -74.612599930733
     Spin Multiplicity:      2.000000000000

     Largest CI amplitudes:
     ---------------------------
     002a222      0.990913305779
     202a022      0.069883204004
     022a022      0.035065532612
     00222a2      0.033968374233
     a022ba2      0.032156657077
     ab2aba2     -0.031914323063
     ba2aab2     -0.031816360280
     ba20a22      0.031662132801
     022a202      0.029272354184
     02202a2     -0.027816747380
     ---------------------------

     Electronic state nr. 3

     Energy (Hartree):     -74.382687297415
     Spin Multiplicity:      2.000000000000

     Largest CI amplitudes:
     ---------------------------
     0022a22      0.984514626151
     0a2ba22     -0.082376560007
     a022022     -0.060183194391
     0b2aa22     -0.050695885590
     a02b2a2      0.050029683079
     a002222      0.045766139104
     ab2a022     -0.036306705037
     0220a22     -0.034695678369
     2020a22     -0.033281468494
     0a2ab22     -0.031680674426
     ---------------------------

     Electronic state nr. 4

     Energy (Hartree):     -74.132033916286
     Spin Multiplicity:      4.000000000000

     Largest CI amplitudes:
     ---------------------------
     0baa222     -0.560568685377
     0aba222      0.560568685377
     0aab222     -0.560568685376
     a0b2a22      0.091471675982
     a0a2b22     -0.091471675981
     b0a2a22     -0.091471675981
     abaab22     -0.078937458316
     babaa22     -0.068158594366
     baaba22      0.062453705722
     0ba22a2      0.043531906525
     ---------------------------

     Electronic state nr. 5

     Energy (Hartree):     -74.062698387151
     Spin Multiplicity:      2.000000000000

     Largest CI amplitudes:
     ---------------------------
     0a02222     -0.935878499794
     00222a2      0.208284715969
     0a20222      0.181256078386
     ba02a22      0.117497778462
     ab02a22      0.071241590630
     0a22202      0.062015759619
     200a222      0.056125697615
     2a02022     -0.053912751511
     020a222      0.053747385375
     0a22022      0.049093083846
     ---------------------------

  - Electronic energies:

                                      Energy
                          ------------------------------------------
      State                (Hartree)             (eV)
     ---------------------------------------------------------------
        1                -74.692085805113    -2032.475179481896
        2                -74.612599930733    -2030.312258671009
        3                -74.382687297415    -2024.056017254897
        4                -74.132033916286    -2017.235391343792
        5                -74.062698387151    -2015.348675495598
     ---------------------------------------------------------------
     eV/Hartree (CODATA 2014): 27.21138602

  :: There was 1 warning during the execution of eT. ::

  Peak memory usage during the execution of eT: 2.089136 MB

  Total wall time in eT (sec):              0.16429
  Total cpu time in eT (sec):               0.29954

  Calculation end:2022-06-30 08:49:34 UTC +02:00

  - Implementation references:

     eT: https://doi.org/10.1063/5.0004713
     Cholesky decomposition of ERIs: https://doi.org/10.1063/1.5083802

  eT terminated successfully!
