


                     eT 1.8 - an electronic structure program

  ------------------------------------------------------------------------
   Author list in alphabetical order:
  ------------------------------------------------------------------------
   J. H. Andersen, A. Balbi, S. Coriani, S. D. Folkestad, T. Giovannini, 
   L. Goletto, T. S. Haugland, A. Hutcheson, I-M. Høyvik, E. F. Kjønstad, 
   H. Koch, R. Matveeva, T. Moitra, R. H. Myhre, A. C. Paul, S. Roet, 
   E. Ronca, M. Scavino, A. K. Schnack-Petersen, A. S. Skeidsvoll, Å. 
   H. Tveten
  ------------------------------------------------------------------------
   J. Chem. Phys. 152, 184103 (2020); https://doi.org/10.1063/5.0004713


   This is eT 1.8.0 Ibiza
  ------------------------------------------------------------
  Configuration date: 2022-06-30 08:43:06 UTC +02:00
  Git branch:         release-v1.8.0
  Git hash:           9204bbd8a5d9984444afd222ec28d0f1c1e17adf
  Fortran compiler:   GNU 9.4.0
  C compiler:         GNU 9.4.0
  C++ compiler:       GNU 9.4.0
  LAPACK type:        MKL
  BLAS type:          MKL
  64-bit integers:    ON
  OpenMP:             ON
  PCM:                OFF
  Forced batching:    OFF
  Runtime checks:     OFF
  ------------------------------------------------------------


  :: Input file
  ================

     Note: geometry section is excluded from this print

     system
        name: h2o he
        charge: 0
     end system

     do
        ground state
     end do

     print
        output print level: verbose
     end print

     memory
        available: 8
     end memory

     solver cholesky
        threshold: 1.0d-10
     end solver cholesky

     solver scf
        algorithm:          scf-diis
        energy threshold:   1.0d-10
        gradient threshold: 1.0d-10
     end solver scf

     method
        hf
        ccsd
     end method

     solver cc gs
        algorithm: newton-raphson
        storage: disk
        micro iteration storage: memory
        rel micro threshold: 1.0d-2
        omega threshold:  1.0d-10
        energy threshold: 1.0d-10
     end solver cc gs



  Calculation start:2022-06-30 08:49:36 UTC +02:00

  Running on 2 OMP threads
  Memory available for calculation: 8.000000 GB


  :: RHF wavefunction
  ===================

  Will perform Coulomb and exchange terms in the Fock matrix collectively

  Libint electron repulsion integral precision:  0.1000E-23

     ==============================================================================
                                     Geometry (angstrom)
     ==============================================================================
        Atom           X                  Y                  Z         # in input
     ==============================================================================
        Basis: cc-pvdz
        1  H     0.866810000000     0.601440000000     5.000000000000        1
        2  H    -0.866810000000     0.601440000000     5.000000000000        2
        3  O     0.000000000000    -0.075790000000     5.000000000000        3
        4 He     0.100000000000    -0.020000000000     7.530000000000        4
     ==============================================================================

     ==============================================================================
                                     Geometry (a.u.)
     ==============================================================================
        Atom           X                  Y                  Z         # in input
     ==============================================================================
        Basis: cc-pvdz
        1  H     1.638033502034     1.136556880358     9.448630622825        1
        2  H    -1.638033502034     1.136556880358     9.448630622825        2
        3  O     0.000000000000    -0.143222342981     9.448630622825        3
        4 He     0.188972612457    -0.037794522491    14.229637717975        4
     ==============================================================================

  - Cholesky decomposition of AO overlap to get linearly independent AOs:

     Linear dependence threshold:             0.10E-05
     Number of atomic orbitals:               29
     Number of orthonormal atomic orbitals:   29

  - Molecular orbital details:

     Number of occupied orbitals:         6
     Number of virtual orbitals:         23
     Number of molecular orbitals:       29


  Generating initial SAD density
  ==============================
     Generated atomic density for H  using UHF/cc-pvdz
     Generated atomic density for O  using UHF/cc-pvdz
     Generated atomic density for He using UHF/cc-pvdz


  Determining reference state
  ===========================

  - Setting initial AO density to sad

     Energy of initial guess:               -78.492022836361
     Number of electrons in guess:           12.000000000000

  - Screening and integral thresholds:

     Coulomb screening threshold:    0.1000E-15
     Exchange screening threshold:   0.1000E-13
     ERI cutoff:                     0.1000E-15
     One-electron integral  cutoff:  0.1000E-20
     Cumulative Fock threshold:      0.1000E+01

  - SCF solver settings:

     Maximum iterations:                   100
     Acceleration type:                   diis

  - Convergence thresholds

     Residual threshold:            0.1000E-09
     Energy threshold:              0.1000E-09

  - DIIS tool settings:

     DIIS dimension:   8

     Storage (solver scf_errors): memory
     Storage (solver scf_parameters): memory

  Iteration       Energy (a.u.)      Max(grad.)    Delta E (a.u.)
  ---------------------------------------------------------------
     1           -78.796606592568     0.9786E-01     0.7880E+02
  Fock matrix construction using density differences
     2           -78.828675852646     0.7077E-01     0.3207E-01
  Fock matrix construction using density differences
     3           -78.843487343819     0.6747E-02     0.1481E-01
  Fock matrix construction using density differences
     4           -78.843814479549     0.2753E-02     0.3271E-03
  Fock matrix construction using density differences
     5           -78.843850612079     0.3973E-03     0.3613E-04
  Fock matrix construction using density differences
     6           -78.843851670925     0.5220E-04     0.1059E-05
  Fock matrix construction using density differences
     7           -78.843851692779     0.6096E-05     0.2185E-07
  Fock matrix construction using density differences
     8           -78.843851693528     0.2137E-05     0.7487E-09
  Fock matrix construction using density differences
     9           -78.843851693630     0.3151E-06     0.1027E-09
  Fock matrix construction using density differences
    10           -78.843851693631     0.2637E-07     0.5116E-12
  Fock matrix construction using density differences
    11           -78.843851693631     0.5634E-08     0.4263E-13
  Fock matrix construction using density differences
    12           -78.843851693631     0.1415E-08     0.4263E-13
  Fock matrix construction using density differences
    13           -78.843851693631     0.6806E-09     0.1421E-13
  Fock matrix construction using density differences
    14           -78.843851693631     0.1491E-09     0.0000E+00
  Fock matrix construction using density differences
    15           -78.843851693631     0.2501E-10     0.4263E-13
  ---------------------------------------------------------------
  Convergence criterion met in 15 iterations!

  - Summary of RHF wavefunction energetics (a.u.):

     HOMO-LUMO gap:                  0.645629080219
     Nuclear repulsion energy:      12.116100574587
     Electronic energy:            -90.959952268218
     Total energy:                 -78.843851693631

  No frozen fock contributions!

  Libint electron repulsion integral precision:  0.1000E-23


  :: CCSD wavefunction
  ====================

     Bath orbital(s):         False

   - Number of orbitals:

     Occupied orbitals:    6
     Virtual orbitals:     23
     Molecular orbitals:   29
     Atomic orbitals:      29

   - Number of ground state amplitudes:

     Single excitation amplitudes:  138
     Double excitation amplitudes:  9591


  Cholesky-decomposing electron repulsion integrals
  =================================================

  Cholesky decomposition of electronic repulsion integrals solver
  ---------------------------------------------------------------

  Performs a Cholesky decomposition of the two-electron electronic repulsion 
  integrals in the atomic orbital basis,

  (ab|cd) = sum_J L_ab^J L_cd^J.

  Once the Cholesky basis has been determined, the vectors L^J are constructed 
  and stored to disk. These may either be used directly, or be transformed 
  to the MO basis for use in post-HF calculations. For more information, 
  see S. D. Folkestad, E. F. Kjønstad and H. Koch, JCP, 150(19), (2019)

  - Cholesky decomposition settings:

     Target threshold is:   0.10E-09
     Span factor:           0.10E-01
     Max qual:                  1000

  - Cholesky decomposition ao details:

     Total number of AOs:                    29
     Total number of shell pairs:           120
     Total number of AO pairs:              435

  - Preparing diagonal for decomposition:

     Significant shell pairs:               116
     Significant AO pairs:                  427

     Construct shell pairs:                 120
     Construct AO pairs:                    435

  Iter.  #Sign. ao pairs / shell pairs   Max diagonal    #Qualified    #Cholesky    Cholesky array size
  -------------------------------------------------------------------------------------------------------
     1               391 /     103       0.47383E+01         147             42             16422
     2               303 /      87       0.47165E-01         234            111             33633
     3               230 /      68       0.46944E-03         178            183             42090
     4               156 /      44       0.38270E-05         145            265             41340
     5                37 /       7       0.38106E-07          78            324             11988
     6                 0 /       0       0.37202E-09          10            330                 0
  -------------------------------------------------------------------------------------------------------

  - Summary of Cholesky decomposition of electronic repulsion integrals:

     Final number of Cholesky vectors: 330

 - Testing the Cholesky decomposition decomposition electronic repulsion integrals:

     Maximal difference between approximate and actual diagonal:              0.8462E-10
     Minimal element of difference between approximate and actual diagonal:  -0.1238E-14

  - Settings for integral handling:

     Cholesky vectors in memory: True
     ERI matrix in memory:       True

  - Finished decomposing the ERIs.

     Total wall time (sec):              0.15913
     Total cpu time (sec):               0.31906


  Determining CC cluster amplitudes
  =================================

   - Davidson tool settings:

     Number of parameters:                 9729
     Number of requested solutions:           1
     Max reduced space dimension:            50

     Storage (newton_raphson_amplitude_updator_trials): memory
     Storage (newton_raphson_amplitude_updator_transforms): memory

   - DIIS coupled cluster ground state solver
  ----------------------------------------------

  A DIIS CC ground state amplitude equations solver. It uses an extrapolation 
  of previous quasi-Newton perturbation theory estimates of the next amplitudes. 
  See Helgaker et al., Molecular Electronic Structure Theory, Chapter 
  13.

  - CC ground state solver settings:

  - Convergence thresholds

     Residual threshold:            0.1000E-09
     Energy threshold:              0.1000E-09
     Max number of iterations:      100

  - DIIS tool settings:

     DIIS dimension:   8

     Storage (cc_gs_diis_errors): file
     Storage (cc_gs_diis_parameters): file

  Iteration    Energy (a.u.)        |omega|       Delta E (a.u.)
  ---------------------------------------------------------------
    1           -79.084241931608     0.9391E-01     0.7908E+02

     Iteration     Residual norm
     -----------------------------
       1           0.2413E-01
       2           0.6171E-02
       3           0.1677E-02
       4           0.5979E-03
     -----------------------------

    2           -79.100197477414     0.7117E-03     0.1596E-01

     Iteration     Residual norm
     -----------------------------
       1           0.2100E-03
       2           0.7154E-04
       3           0.2104E-04
       4           0.7312E-05
       5           0.2068E-05
     -----------------------------

    3           -79.100383352298     0.2119E-05     0.1859E-03

     Iteration     Residual norm
     -----------------------------
       1           0.9049E-06
       2           0.5684E-06
       3           0.1712E-06
       4           0.3172E-07
       5           0.7688E-08
     -----------------------------

    4           -79.100383481150     0.7531E-08     0.1289E-06

     Iteration     Residual norm
     -----------------------------
       1           0.2432E-08
       2           0.9579E-09
       3           0.2963E-09
       4           0.1340E-09
       5           0.4229E-10
     -----------------------------

    5           -79.100383481552     0.4166E-10     0.4021E-09

     Iteration     Residual norm
     -----------------------------
       1           0.1894E-10
       2           0.1069E-10
       3           0.3227E-11
       4           0.7948E-12
       5           0.3453E-12
     -----------------------------

    6           -79.100383481554     0.3289E-12     0.1137E-11
  ---------------------------------------------------------------
  Convergence criterion met in 6 iterations!

  - Ground state summary:

     Final ground state energy (a.u.):   -79.100383481554

     Correlation energy (a.u.):           -0.256531787923

     Largest single amplitudes:
     -----------------------------------
        a       i         t(a,i)
     -----------------------------------
        1      5        0.014740597488
       14      4       -0.009546856218
        7      4        0.008284826483
       15      5       -0.006124828873
        4      5        0.005606072713
        6      2        0.005476844296
        2      4        0.005318591713
       13      5        0.005269818334
        5      6        0.004933006888
       11      6       -0.003454309402
     ------------------------------------

     Largest double amplitudes:
     --------------------------------------------------
        a      i       b      j         t(ai,bj)
     --------------------------------------------------
        2      4       2      4       -0.047351708918
        5      6       5      6       -0.046240574404
        9      3       9      3       -0.041367012245
        3      4       3      4       -0.036659067518
        6      5       6      5       -0.034554012171
        1      5       1      5       -0.034177347743
       16      3      16      3       -0.032108235347
       17      3      17      3       -0.032052553603
       18      3      18      3       -0.031351828684
        2      4       3      4       -0.029701270697
     --------------------------------------------------

  - Finished solving the CCSD ground state equations

     Total wall time (sec):              0.34364
     Total cpu time (sec):               0.69364

  - Cleaning up ccsd wavefunction

  Peak memory usage during the execution of eT: 22.295080 MB

  Total wall time in eT (sec):              0.95564
  Total cpu time in eT (sec):               1.88527

  Calculation end:2022-06-30 08:49:37 UTC +02:00

  - Implementation references:

     eT: https://doi.org/10.1063/5.0004713
     Cholesky decomposition of ERIs: https://doi.org/10.1063/1.5083802

  eT terminated successfully!
