


                     eT 1.8 - an electronic structure program

  ------------------------------------------------------------------------
   Author list in alphabetical order:
  ------------------------------------------------------------------------
   J. H. Andersen, A. Balbi, S. Coriani, S. D. Folkestad, T. Giovannini, 
   L. Goletto, T. S. Haugland, A. Hutcheson, I-M. Høyvik, E. F. Kjønstad, 
   H. Koch, R. Matveeva, T. Moitra, R. H. Myhre, A. C. Paul, S. Roet, 
   E. Ronca, M. Scavino, A. K. Schnack-Petersen, A. S. Skeidsvoll, Å. 
   H. Tveten
  ------------------------------------------------------------------------
   J. Chem. Phys. 152, 184103 (2020); https://doi.org/10.1063/5.0004713


   This is eT 1.8.0 Ibiza
  ------------------------------------------------------------
  Configuration date: 2022-06-30 08:43:06 UTC +02:00
  Git branch:         release-v1.8.0
  Git hash:           9204bbd8a5d9984444afd222ec28d0f1c1e17adf
  Fortran compiler:   GNU 9.4.0
  C compiler:         GNU 9.4.0
  C++ compiler:       GNU 9.4.0
  LAPACK type:        MKL
  BLAS type:          MKL
  64-bit integers:    ON
  OpenMP:             ON
  PCM:                OFF
  Forced batching:    OFF
  Runtime checks:     OFF
  ------------------------------------------------------------


  :: Input file
  ================

     Note: geometry section is excluded from this print

     system
        name: h2o he
        charge: 0
     end system

     do
        excited state
        restart
     end do

     memory
        available: 8
     end memory

     method
        hf
        ccsd
     end method

     solver scf
        algorithm:          scf-diis
        energy threshold:   1.0d-11
        gradient threshold: 1.0d-11
     end solver scf

     solver cholesky
        threshold: 1.0d-12
     end solver cholesky

     solver cc gs
        omega threshold:  1.0d-11
        energy threshold: 1.0d-11
     end solver cc gs

     solver cc es
        singlet states:     3
        residual threshold: 1.0d-11
        energy threshold:   1.0d-11
        left eigenvectors
     end solver cc es


  Calculation start:2022-06-30 08:48:21 UTC +02:00

  Running on 2 OMP threads
  Memory available for calculation: 8.000000 GB


  :: RHF wavefunction
  ===================

     ==============================================================================
                                     Geometry (angstrom)
     ==============================================================================
        Atom           X                  Y                  Z         # in input
     ==============================================================================
        Basis: cc-pvdz
        1  H     0.866810000000     0.601440000000     5.000000000000        1
        2  H    -0.866810000000     0.601440000000     5.000000000000        2
        3  O     0.000000000000    -0.075790000000     5.000000000000        3
        4 He     0.100000000000    -0.020000000000     7.530000000000        4
     ==============================================================================

     ==============================================================================
                                     Geometry (a.u.)
     ==============================================================================
        Atom           X                  Y                  Z         # in input
     ==============================================================================
        Basis: cc-pvdz
        1  H     1.638033502034     1.136556880358     9.448630622825        1
        2  H    -1.638033502034     1.136556880358     9.448630622825        2
        3  O     0.000000000000    -0.143222342981     9.448630622825        3
        4 He     0.188972612457    -0.037794522491    14.229637717975        4
     ==============================================================================

  - Cholesky decomposition of AO overlap to get linearly independent AOs:

     Linear dependence threshold:             0.10E-05
     Number of atomic orbitals:               29
     Number of orthonormal atomic orbitals:   29

  - Molecular orbital details:

     Number of occupied orbitals:         6
     Number of virtual orbitals:         23
     Number of molecular orbitals:       29


  Determining reference state
  ===========================

  - Requested restart. Reading orbitals from file

  - Screening and integral thresholds:

     Coulomb screening threshold:    0.1000E-16
     Exchange screening threshold:   0.1000E-14
     ERI cutoff:                     0.1000E-16
     One-electron integral  cutoff:  0.1000E-21
     Cumulative Fock threshold:      0.1000E+01

  - SCF solver settings:

     Maximum iterations:                   100
     Acceleration type:                   diis

  - Convergence thresholds

     Residual threshold:            0.1000E-10
     Energy threshold:              0.1000E-10

  - DIIS tool settings:

     DIIS dimension:   8

     Storage (solver scf_errors): memory
     Storage (solver scf_parameters): memory

  Iteration       Energy (a.u.)      Max(grad.)    Delta E (a.u.)
  ---------------------------------------------------------------
     1           -78.843851693631     0.5171E-11     0.7884E+02
  ---------------------------------------------------------------
  Convergence criterion met in 1 iterations!

  - Summary of RHF wavefunction energetics (a.u.):

     HOMO-LUMO gap:                  0.645629080245
     Nuclear repulsion energy:      12.116100574587
     Electronic energy:            -90.959952268218
     Total energy:                 -78.843851693631


  :: CCSD wavefunction
  ====================

     Bath orbital(s):         False

   - Number of orbitals:

     Occupied orbitals:    6
     Virtual orbitals:     23
     Molecular orbitals:   29
     Atomic orbitals:      29

   - Number of ground state amplitudes:

     Single excitation amplitudes:  138
     Double excitation amplitudes:  9591


  Cholesky-decomposing electron repulsion integrals
  =================================================

  Cholesky decomposition of electronic repulsion integrals solver
  ---------------------------------------------------------------

  Performs a Cholesky decomposition of the two-electron electronic repulsion 
  integrals in the atomic orbital basis,

  (ab|cd) = sum_J L_ab^J L_cd^J.

  Once the Cholesky basis has been determined, the vectors L^J are constructed 
  and stored to disk. These may either be used directly, or be transformed 
  to the MO basis for use in post-HF calculations. For more information, 
  see S. D. Folkestad, E. F. Kjønstad and H. Koch, JCP, 150(19), (2019)

  - Cholesky decomposition settings:

     Target threshold is:   0.10E-11
     Span factor:           0.10E-01
     Max qual:                  1000

  - Cholesky decomposition ao details:

     Total number of AOs:                    29
     Total number of shell pairs:           120
     Total number of AO pairs:              435

     Significant shell pairs:               118
     Significant AO pairs:                  431

     Construct shell pairs:                 120
     Construct AO pairs:                    435

  Iter.  #Sign. ao pairs / shell pairs   Max diagonal    #Qualified    #Cholesky    Cholesky array size
  -------------------------------------------------------------------------------------------------------
     1               406 /     108       0.47383E+01         147             42             17052
     2               319 /      93       0.47165E-01         234            111             35409
     3               250 /      76       0.46944E-03         178            183             45750
     4               187 /      55       0.38270E-05         145            265             49555
     5                87 /      25       0.38106E-07          78            324             28188
     6                21 /       3       0.37202E-09          43            349              7329
     7                 0 /       0       0.36652E-11           7            354                 0
  -------------------------------------------------------------------------------------------------------

  - Summary of Cholesky decomposition of electronic repulsion integrals:

     Final number of Cholesky vectors: 354

 - Testing the Cholesky decomposition decomposition electronic repulsion integrals:

     Maximal difference between approximate and actual diagonal:              0.7161E-12
     Minimal element of difference between approximate and actual diagonal:  -0.1238E-14

  - Settings for integral handling:

     Cholesky vectors in memory: True
     ERI matrix in memory:       True

  - Finished decomposing the ERIs.

     Total wall time (sec):              0.24385
     Total cpu time (sec):               0.48386


  Determining CC cluster amplitudes
  =================================

   - DIIS coupled cluster ground state solver
  ----------------------------------------------

  A DIIS CC ground state amplitude equations solver. It uses an extrapolation 
  of previous quasi-Newton perturbation theory estimates of the next amplitudes. 
  See Helgaker et al., Molecular Electronic Structure Theory, Chapter 
  13.

  - CC ground state solver settings:

  - Convergence thresholds

     Residual threshold:            0.1000E-10
     Energy threshold:              0.1000E-10
     Max number of iterations:      100

  Requested restart. Reading in solution from file.

  - DIIS tool settings:

     DIIS dimension:   8

     Storage (cc_gs_diis_errors): file
     Storage (cc_gs_diis_parameters): file

  Iteration    Energy (a.u.)        |omega|       Delta E (a.u.)
  ---------------------------------------------------------------
    1           -79.100383481556     0.7516E-11     0.7910E+02
  ---------------------------------------------------------------
  Convergence criterion met in 1 iterations!

  - Ground state summary:

     Final ground state energy (a.u.):   -79.100383481556

     Correlation energy (a.u.):           -0.256531787925

     Largest single amplitudes:
     -----------------------------------
        a       i         t(a,i)
     -----------------------------------
        1      5        0.014740597522
       14      4       -0.009546856220
        7      4        0.008284826483
       15      5       -0.006124828873
        4      5        0.005606072698
        6      2        0.005476844297
        2      4        0.005318591702
       13      5        0.005269818337
        5      6        0.004933006903
       11      6       -0.003454309399
     ------------------------------------

     Largest double amplitudes:
     --------------------------------------------------
        a      i       b      j         t(ai,bj)
     --------------------------------------------------
        2      4       2      4       -0.047351708919
        5      6       5      6       -0.046240574404
        9      3       9      3       -0.041367012249
        3      4       3      4       -0.036659067517
        6      5       6      5       -0.034554012170
        1      5       1      5       -0.034177347751
       16      3      16      3       -0.032108235347
       17      3      17      3       -0.032052553603
       18      3      18      3       -0.031351828684
        2      4       3      4       -0.029701270698
     --------------------------------------------------

  - Finished solving the CCSD ground state equations

     Total wall time (sec):              0.01632
     Total cpu time (sec):               0.03632


  Determining CC excited state amplitudes
  =======================================

  Davidson eigenvalue equation solver
  -----------------------------------

  A Davidson solver that solves an eigenvalue equation: M x = omega x. 
  This equation is solved in a reduced space. A description of the algorithm 
  can be found in E. R. Davidson, J. Comput. Phys. 17, 87 (1975).

   - Davidson tool settings:

     Number of parameters:                 9729
     Number of requested solutions:           3
     Max reduced space dimension:           100

     Storage (cc_es_davidson_trials): file
     Storage (cc_es_davidson_transforms): file
     Restarting left vector 1 from file r_001.
     Restarting left vector 2 from file r_002.
     Restarting left vector 3 from file r_003.

  - Davidson solver settings

     Number of singlet states:               3
     Max number of iterations:             100

  Iteration:                  1
  Reduced space dimension:    3

  Root  Eigenvalue (Re)   Eigenvalue (Im)    |residual|   Delta E (Re)
  -------------------------------------------------------------------------
     1   0.233922187017    0.000000000000     0.1288E+00   0.2339E+00
     2   0.300503783785    0.000000000000     0.1241E+00   0.3005E+00
     3   0.342971283191    0.000000000000     0.1703E+00   0.3430E+00
  -------------------------------------------------------------------------

  Iteration:                  2
  Reduced space dimension:    6

  Root  Eigenvalue (Re)   Eigenvalue (Im)    |residual|   Delta E (Re)
  -------------------------------------------------------------------------
     1   0.247185049086    0.000000000000     0.2736E-01   0.1326E-01
     2   0.312680283436    0.000000000000     0.2554E-01   0.1218E-01
     3   0.357707204016    0.000000000000     0.4196E-01   0.1474E-01
  -------------------------------------------------------------------------

  Iteration:                  3
  Reduced space dimension:    9

  Root  Eigenvalue (Re)   Eigenvalue (Im)    |residual|   Delta E (Re)
  -------------------------------------------------------------------------
     1   0.247073145080    0.000000000000     0.8785E-02   0.1119E-03
     2   0.312620183965    0.000000000000     0.8740E-02   0.6010E-04
     3   0.356006227132    0.000000000000     0.1227E-01   0.1701E-02
  -------------------------------------------------------------------------

  Iteration:                  4
  Reduced space dimension:   12

  Root  Eigenvalue (Re)   Eigenvalue (Im)    |residual|   Delta E (Re)
  -------------------------------------------------------------------------
     1   0.247196105248    0.000000000000     0.2072E-02   0.1230E-03
     2   0.312718425150    0.000000000000     0.2158E-02   0.9824E-04
     3   0.356126639396    0.000000000000     0.4228E-02   0.1204E-03
  -------------------------------------------------------------------------

  Iteration:                  5
  Reduced space dimension:   15

  Root  Eigenvalue (Re)   Eigenvalue (Im)    |residual|   Delta E (Re)
  -------------------------------------------------------------------------
     1   0.247195032614    0.000000000000     0.6215E-03   0.1073E-05
     2   0.312720245847    0.000000000000     0.8451E-03   0.1821E-05
     3   0.356113432174    0.000000000000     0.1204E-02   0.1321E-04
  -------------------------------------------------------------------------

  Iteration:                  6
  Reduced space dimension:   18

  Root  Eigenvalue (Re)   Eigenvalue (Im)    |residual|   Delta E (Re)
  -------------------------------------------------------------------------
     1   0.247193142816    0.000000000000     0.1546E-03   0.1890E-05
     2   0.312714513373    0.000000000000     0.2058E-03   0.5732E-05
     3   0.356080316662    0.000000000000     0.4276E-03   0.3312E-04
  -------------------------------------------------------------------------

  Iteration:                  7
  Reduced space dimension:   21

  Root  Eigenvalue (Re)   Eigenvalue (Im)    |residual|   Delta E (Re)
  -------------------------------------------------------------------------
     1   0.247193993652    0.000000000000     0.4656E-04   0.8508E-06
     2   0.312716502581    0.000000000000     0.5359E-04   0.1989E-05
     3   0.356084495304    0.000000000000     0.1356E-03   0.4179E-05
  -------------------------------------------------------------------------

  Iteration:                  8
  Reduced space dimension:   24

  Root  Eigenvalue (Re)   Eigenvalue (Im)    |residual|   Delta E (Re)
  -------------------------------------------------------------------------
     1   0.247194239930    0.000000000000     0.1271E-04   0.2463E-06
     2   0.312716777710    0.000000000000     0.1739E-04   0.2751E-06
     3   0.356084660087    0.000000000000     0.3779E-04   0.1648E-06
  -------------------------------------------------------------------------

  Iteration:                  9
  Reduced space dimension:   27

  Root  Eigenvalue (Re)   Eigenvalue (Im)    |residual|   Delta E (Re)
  -------------------------------------------------------------------------
     1   0.247194265249    0.000000000000     0.2777E-05   0.2532E-07
     2   0.312716725280    0.000000000000     0.6475E-05   0.5243E-07
     3   0.356085244571    0.000000000000     0.1095E-04   0.5845E-06
  -------------------------------------------------------------------------

  Iteration:                 10
  Reduced space dimension:   30

  Root  Eigenvalue (Re)   Eigenvalue (Im)    |residual|   Delta E (Re)
  -------------------------------------------------------------------------
     1   0.247194255849    0.000000000000     0.6684E-06   0.9400E-08
     2   0.312716690648    0.000000000000     0.4377E-05   0.3463E-07
     3   0.356085108431    0.000000000000     0.3269E-05   0.1361E-06
  -------------------------------------------------------------------------

  Iteration:                 11
  Reduced space dimension:   33

  Root  Eigenvalue (Re)   Eigenvalue (Im)    |residual|   Delta E (Re)
  -------------------------------------------------------------------------
     1   0.247194255348    0.000000000000     0.1779E-06   0.5015E-09
     2   0.312716690497    0.000000000000     0.3244E-05   0.1511E-09
     3   0.356085065584    0.000000000000     0.9863E-06   0.4285E-07
  -------------------------------------------------------------------------

  Iteration:                 12
  Reduced space dimension:   36

  Root  Eigenvalue (Re)   Eigenvalue (Im)    |residual|   Delta E (Re)
  -------------------------------------------------------------------------
     1   0.247194255864    0.000000000000     0.5912E-07   0.5161E-09
     2   0.312716695932    0.000000000000     0.1076E-05   0.5435E-08
     3   0.356085057779    0.000000000000     0.3001E-06   0.7805E-08
  -------------------------------------------------------------------------

  Iteration:                 13
  Reduced space dimension:   39

  Root  Eigenvalue (Re)   Eigenvalue (Im)    |residual|   Delta E (Re)
  -------------------------------------------------------------------------
     1   0.247194255668    0.000000000000     0.2048E-07   0.1957E-09
     2   0.312716696613    0.000000000000     0.4475E-06   0.6809E-09
     3   0.356085057898    0.000000000000     0.1265E-06   0.1193E-09
  -------------------------------------------------------------------------

  Iteration:                 14
  Reduced space dimension:   42

  Root  Eigenvalue (Re)   Eigenvalue (Im)    |residual|   Delta E (Re)
  -------------------------------------------------------------------------
     1   0.247194255549    0.000000000000     0.5943E-08   0.1192E-09
     2   0.312716698143    0.000000000000     0.2315E-06   0.1530E-08
     3   0.356085057099    0.000000000000     0.7831E-07   0.7989E-09
  -------------------------------------------------------------------------

  Iteration:                 15
  Reduced space dimension:   45

  Root  Eigenvalue (Re)   Eigenvalue (Im)    |residual|   Delta E (Re)
  -------------------------------------------------------------------------
     1   0.247194255555    0.000000000000     0.1676E-08   0.5645E-11
     2   0.312716699581    0.000000000000     0.9703E-07   0.1437E-08
     3   0.356085057517    0.000000000000     0.3873E-07   0.4181E-09
  -------------------------------------------------------------------------

  Iteration:                 16
  Reduced space dimension:   48

  Root  Eigenvalue (Re)   Eigenvalue (Im)    |residual|   Delta E (Re)
  -------------------------------------------------------------------------
     1   0.247194255568    0.000000000000     0.4271E-09   0.1342E-10
     2   0.312716699190    0.000000000000     0.3568E-07   0.3903E-09
     3   0.356085057636    0.000000000000     0.1590E-07   0.1190E-09
  -------------------------------------------------------------------------

  Iteration:                 17
  Reduced space dimension:   51

  Root  Eigenvalue (Re)   Eigenvalue (Im)    |residual|   Delta E (Re)
  -------------------------------------------------------------------------
     1   0.247194255572    0.000000000000     0.1269E-09   0.3743E-11
     2   0.312716698756    0.000000000000     0.1272E-07   0.4344E-09
     3   0.356085057590    0.000000000000     0.6238E-08   0.4611E-10
  -------------------------------------------------------------------------

  Iteration:                 18
  Reduced space dimension:   54

  Root  Eigenvalue (Re)   Eigenvalue (Im)    |residual|   Delta E (Re)
  -------------------------------------------------------------------------
     1   0.247194255572    0.000000000000     0.2919E-10   0.2770E-12
     2   0.312716698762    0.000000000000     0.4057E-08   0.5785E-11
     3   0.356085057601    0.000000000000     0.2105E-08   0.1052E-10
  -------------------------------------------------------------------------

  Iteration:                 19
  Reduced space dimension:   57

  Root  Eigenvalue (Re)   Eigenvalue (Im)    |residual|   Delta E (Re)
  -------------------------------------------------------------------------
     1   0.247194255572    0.000000000000     0.7156E-11   0.4149E-13
     2   0.312716698778    0.000000000000     0.1087E-08   0.1582E-10
     3   0.356085057592    0.000000000000     0.6162E-09   0.8939E-11
  -------------------------------------------------------------------------

  Iteration:                 20
  Reduced space dimension:   59

  Root  Eigenvalue (Re)   Eigenvalue (Im)    |residual|   Delta E (Re)
  -------------------------------------------------------------------------
     1   0.247194255572    0.000000000000     0.6573E-11   0.6051E-14
     2   0.312716698778    0.000000000000     0.3280E-09   0.6354E-12
     3   0.356085057593    0.000000000000     0.1871E-09   0.7931E-12
  -------------------------------------------------------------------------

  Iteration:                 21
  Reduced space dimension:   61

  Root  Eigenvalue (Re)   Eigenvalue (Im)    |residual|   Delta E (Re)
  -------------------------------------------------------------------------
     1   0.247194255572    0.000000000000     0.6427E-11   0.3941E-14
     2   0.312716698779    0.000000000000     0.9591E-10   0.6524E-12
     3   0.356085057593    0.000000000000     0.5691E-10   0.4230E-13
  -------------------------------------------------------------------------

  Iteration:                 22
  Reduced space dimension:   63

  Root  Eigenvalue (Re)   Eigenvalue (Im)    |residual|   Delta E (Re)
  -------------------------------------------------------------------------
     1   0.247194255572    0.000000000000     0.6346E-11   0.5912E-14
     2   0.312716698779    0.000000000000     0.2562E-10   0.1880E-12
     3   0.356085057592    0.000000000000     0.1508E-10   0.2647E-12
  -------------------------------------------------------------------------

  Iteration:                 23
  Reduced space dimension:   65

  Root  Eigenvalue (Re)   Eigenvalue (Im)    |residual|   Delta E (Re)
  -------------------------------------------------------------------------
     1   0.247194255572    0.000000000000     0.6339E-11   0.1193E-14
     2   0.312716698779    0.000000000000     0.6501E-11   0.5967E-13
     3   0.356085057593    0.000000000000     0.3739E-11   0.9698E-13
  -------------------------------------------------------------------------
  Convergence criterion met in 23 iterations!

  - Excitation vector amplitudes:

     Electronic state nr. 1

     Energy (Hartree):                  0.247194255572
     Fraction singles (|L1|/|L|):       0.942536368057

     Largest single amplitudes:
     -----------------------------------
        a       i         L(a,i)
     -----------------------------------
        1      6        0.934321066335
        4      6        0.114002382605
        6      6       -0.032814400825
       13      6       -0.027947643734
        1      3       -0.010930020791
        1      5        0.007879253292
       22      6        0.007408446952
       10      6        0.006944886702
       19      5       -0.006882560535
        9      6       -0.006676723237
     ------------------------------------

     Largest double amplitudes:
     --------------------------------------------------
        a      i       b      j         L(ai,bj)
     --------------------------------------------------
        2      4       1      6       -0.171079645373
        6      5       1      6        0.100212340582
        3      4       1      6       -0.099658455492
        1      5       1      6       -0.089486547887
        4      5       1      6       -0.079266906022
        1      6       5      6       -0.071510175861
        7      4       1      6        0.068318341918
        1      2       1      6       -0.065029437021
        4      4       2      6       -0.055727685952
        3      5       2      6       -0.042559408817
     --------------------------------------------------

     Electronic state nr. 2

     Energy (Hartree):                  0.312716698779
     Fraction singles (|L1|/|L|):       0.947346929584

     Largest single amplitudes:
     -----------------------------------
        a       i         L(a,i)
     -----------------------------------
        2      6       -0.929176283477
        3      6       -0.170171916891
        7      6        0.067040287511
       14      6       -0.019343770379
        2      3        0.010988929729
       12      6        0.005562563577
        8      2        0.005268480761
        2      5       -0.005150490921
        5      4        0.004776593204
       11      4        0.003612608696
     ------------------------------------

     Largest double amplitudes:
     --------------------------------------------------
        a      i       b      j         L(ai,bj)
     --------------------------------------------------
        1      5       2      6        0.127019523015
        2      4       2      6        0.118729473863
        3      4       2      6        0.091137477753
        6      5       2      6       -0.082397334663
        7      4       2      6       -0.081191332741
        1      2       2      6        0.072465986377
        4      5       2      6        0.072390631930
        2      6       5      6        0.065336366668
        3      5       1      6        0.053276119555
        4      4       1      6        0.048446470294
     --------------------------------------------------

     Electronic state nr. 3

     Energy (Hartree):                  0.356085057593
     Fraction singles (|L1|/|L|):       0.938777046182

     Largest single amplitudes:
     -----------------------------------
        a       i         L(a,i)
     -----------------------------------
        1      5       -0.920088349284
        2      4        0.130880085863
        4      5       -0.082954102259
        1      2        0.066949838482
        3      4        0.051783287687
        5      6        0.035952688613
       13      5        0.027083554110
        7      4       -0.022267567554
        4      2        0.019543419768
       10      5       -0.012292234036
     ------------------------------------

     Largest double amplitudes:
     --------------------------------------------------
        a      i       b      j         L(ai,bj)
     --------------------------------------------------
        1      5       1      5        0.160292538736
        2      4       1      5        0.141010853920
        3      4       1      5        0.088409690091
        1      5       5      6        0.085732644502
        4      4       2      5        0.059886875057
        1      5       6      5       -0.058600304296
        2      5       2      5        0.056836923109
        7      4       1      5       -0.051021542268
        1      2       3      4       -0.050766399787
        1      2       2      4       -0.050263933720
     --------------------------------------------------

  - CCSD excitation energies:

                                      Excitation energy
                          ------------------------------------------
      State                (Hartree)             (eV)
     ---------------------------------------------------------------
        1                  0.247194255572        6.726498310303
        2                  0.312716698779        8.509454805379
        3                  0.356085057593        9.689567958104
     ---------------------------------------------------------------
     eV/Hartree (CODATA 2014): 27.21138602

  Peak memory usage during the execution of eT: 16.305136 MB

  Total wall time in eT (sec):              1.17905
  Total cpu time in eT (sec):               2.30632

  Calculation end:2022-06-30 08:48:22 UTC +02:00

  - Implementation references:

     eT: https://doi.org/10.1063/5.0004713
     Cholesky decomposition of ERIs: https://doi.org/10.1063/1.5083802

  eT terminated successfully!
