


                     eT 1.8 - an electronic structure program

  ------------------------------------------------------------------------
   Author list in alphabetical order:
  ------------------------------------------------------------------------
   J. H. Andersen, A. Balbi, S. Coriani, S. D. Folkestad, T. Giovannini, 
   L. Goletto, T. S. Haugland, A. Hutcheson, I-M. Høyvik, E. F. Kjønstad, 
   H. Koch, R. Matveeva, T. Moitra, R. H. Myhre, A. C. Paul, S. Roet, 
   E. Ronca, M. Scavino, A. K. Schnack-Petersen, A. S. Skeidsvoll, Å. 
   H. Tveten
  ------------------------------------------------------------------------
   J. Chem. Phys. 152, 184103 (2020); https://doi.org/10.1063/5.0004713


   This is eT 1.8.0 Ibiza
  ------------------------------------------------------------
  Configuration date: 2022-06-30 08:43:06 UTC +02:00
  Git branch:         release-v1.8.0
  Git hash:           9204bbd8a5d9984444afd222ec28d0f1c1e17adf
  Fortran compiler:   GNU 9.4.0
  C compiler:         GNU 9.4.0
  C++ compiler:       GNU 9.4.0
  LAPACK type:        MKL
  BLAS type:          MKL
  64-bit integers:    ON
  OpenMP:             ON
  PCM:                OFF
  Forced batching:    OFF
  Runtime checks:     OFF
  ------------------------------------------------------------


  :: Input file
  ================

     Note: geometry section is excluded from this print

     system
        name: h2o-h2o-fq-uhf
        charge: 0
        multiplicity: 3
     end system

     do
       ground state
     end do

     memory
        available: 8
     end memory

     solver scf
        algorithm:          scf-diis
        energy threshold:   1.0d-10
        gradient threshold: 1.0d-10
     end solver scf

     molecular mechanics
        forcefield: fq
     end molecular mechanics

     method
        uhf
     end method


  Calculation start:2022-06-30 08:45:22 UTC +02:00

  Running on 2 OMP threads
  Memory available for calculation: 8.000000 GB


  :: UHF wavefunction
  ===================

     ==============================================================================
                                     Geometry (angstrom)
     ==============================================================================
        Atom           X                  Y                  Z         # in input
     ==============================================================================
        Basis: cc-pvdz
        1  O     0.009319000000     1.133156000000     0.000000000000        1
        2  H     0.023452000000     0.185621000000     0.000000000000        2
        3  H     0.906315000000     1.422088000000     0.000000000000        3
     ==============================================================================

     ==============================================================================
                                     Geometry (a.u.)
     ==============================================================================
        Atom           X                  Y                  Z         # in input
     ==============================================================================
        Basis: cc-pvdz
        1  O     0.017610357755     2.141354496408     0.000000000000        1
        2  H     0.044317857073     0.350772852968     0.000000000000        2
        3  H     1.712687132585     2.687356845030     0.000000000000        3
     ==============================================================================

  - Cholesky decomposition of AO overlap to get linearly independent AOs:

     Linear dependence threshold:             0.10E-05
     Number of atomic orbitals:               24
     Number of orthonormal atomic orbitals:   24

  This is a QM/MM calculation

     Polarizable Embedding: FQ

     Each atom of the MM portion is endowed with a charge which value 
     can vary in agreement with the ElectronegativityEqualization Principle 
     (EEP), which states that at the equilibrium each atom has the same 
     electronegativity.

     The force field is defined in terms of electronegativity (Chi) and 
     chemical hardness (Eta), which are specified for each MM atom.

     The QM/MM electrostatic interaction energy is defined as:

        E^ele_QM/MM = sum_i q_i * V_i(P)

     where V_i(P) is the electrostatic potential due to the QMdensity 
     calculated at the position of the i-th charge q_i.The values of the 
     charges are obtained by solving a linearequation:

        Dq = -Chi - V(P)

     For further details, see:
     T.Giovannini, F.Egidi, C.Cappelli, Chem. Soc. Rev., 2020, 49, 5664-5677


     ====================================================================
                                MM Geometry (angstrom)
     ====================================================================
     Atom    Mol         X          Y          Z         Chi        Eta
     ====================================================================
      O       1    -0.042964  -1.404707  -0.000000   0.116859   0.584852
      H       1    -0.419020  -1.818953   0.760190   0.000000   0.625010
      H       1    -0.419020  -1.818953  -0.760190   0.000000   0.625010
     ====================================================================

     ====================================================================
                                MM Geometry (a.u.)
     ====================================================================
     Atom    Mol         X          Y          Z         Chi        Eta
     ====================================================================
      O       1    -0.081190  -2.654512  -0.000000   0.116859   0.584852
      H       1    -0.791833  -3.437323   1.436551   0.000000   0.625010
      H       1    -0.791833  -3.437323  -1.436551   0.000000   0.625010
     ====================================================================

  - Molecular orbital details:

     Number of alpha electrons:               6
     Number of beta electrons:                4
     Number of virtual alpha orbitals:       18
     Number of virtual beta orbitals:        20
     Number of molecular orbitals:           24


  Generating initial SAD density
  ==============================


  Determining reference state
  ===========================

  - Setting initial AO density to sad

     Energy of initial guess:               -76.294484481340
     Number of electrons in guess:           10.000000000000

  - Screening and integral thresholds:

     Coulomb screening threshold:    0.1000E-15
     Exchange screening threshold:   0.1000E-13
     ERI cutoff:                     0.1000E-15
     One-electron integral  cutoff:  0.1000E-20
     Cumulative Fock threshold:      0.1000E+01

  - SCF solver settings:

     Maximum iterations:                   100
     Acceleration type:                   diis

  - Convergence thresholds

     Residual threshold:            0.1000E-09
     Energy threshold:              0.1000E-09

  - DIIS tool settings:

     DIIS dimension:   8

     Storage (solver scf_errors): memory
     Storage (solver scf_parameters): memory

  Iteration       Energy (a.u.)      Max(grad.)    Delta E (a.u.)
  ---------------------------------------------------------------
     1           -75.788161655089     0.3252E-01     0.7579E+02
     2           -75.808941489083     0.1152E-01     0.2078E-01
     3           -75.811265221222     0.6642E-02     0.2324E-02
     4           -75.811810403468     0.1736E-02     0.5452E-03
     5           -75.812026633273     0.8460E-03     0.2162E-03
     6           -75.812150049123     0.4146E-03     0.1234E-03
     7           -75.812190840523     0.2121E-03     0.4079E-04
     8           -75.812202157492     0.6723E-04     0.1132E-04
     9           -75.812203027757     0.1211E-04     0.8703E-06
    10           -75.812203037793     0.3984E-05     0.1004E-07
    11           -75.812203039026     0.1178E-05     0.1233E-08
    12           -75.812203039125     0.2772E-06     0.9852E-10
    13           -75.812203039128     0.7015E-07     0.3936E-11
    14           -75.812203039129     0.1986E-07     0.2700E-12
    15           -75.812203039129     0.8196E-08     0.2842E-13
    16           -75.812203039129     0.2014E-08     0.5684E-13
    17           -75.812203039129     0.5363E-09     0.5684E-13
    18           -75.812203039129     0.1928E-09     0.2842E-13
    19           -75.812203039129     0.3314E-10     0.0000E+00
  ---------------------------------------------------------------
  Convergence criterion met in 19 iterations!

  - Summary of UHF wavefunction energetics (a.u.):

     HOMO-LUMO gap (alpha):          0.335293734253
     HOMO-LUMO gap (beta):           0.722713238608
     Nuclear repulsion energy:       9.307879526626
     Electronic energy:            -85.120082565755
     Total energy:                 -75.812203039129

  - Summary of QM/MM energetics:
                                         a.u.             eV     kcal/mol
     QM/MM SCF Contribution:        -0.042676818996    -1.16130   -26.780
     QM/MM Electrostatic Energy:    -0.013696279436    -0.37269    -8.595

  - UHF wavefunction spin expectation values:

     Sz:                   1.00000000
     Sz(Sz + 1):           2.00000000
     S^2:                  2.00526807
     Spin contamination:   0.00526807

  Peak memory usage during the execution of eT: 214.608 KB

  Total wall time in eT (sec):              0.68864
  Total cpu time in eT (sec):               1.32009

  Calculation end:2022-06-30 08:45:23 UTC +02:00

  - Implementation references:

     eT: https://doi.org/10.1063/5.0004713

  eT terminated successfully!
