


                     eT 1.8 - an electronic structure program

  ------------------------------------------------------------------------
   Author list in alphabetical order:
  ------------------------------------------------------------------------
   J. H. Andersen, A. Balbi, S. Coriani, S. D. Folkestad, T. Giovannini, 
   L. Goletto, T. S. Haugland, A. Hutcheson, I-M. Høyvik, E. F. Kjønstad, 
   H. Koch, R. Matveeva, T. Moitra, R. H. Myhre, A. C. Paul, S. Roet, 
   E. Ronca, M. Scavino, A. K. Schnack-Petersen, A. S. Skeidsvoll, Å. 
   H. Tveten
  ------------------------------------------------------------------------
   J. Chem. Phys. 152, 184103 (2020); https://doi.org/10.1063/5.0004713


   This is eT 1.8.0 Ibiza
  ------------------------------------------------------------
  Configuration date: 2022-06-30 08:43:06 UTC +02:00
  Git branch:         release-v1.8.0
  Git hash:           9204bbd8a5d9984444afd222ec28d0f1c1e17adf
  Fortran compiler:   GNU 9.4.0
  C compiler:         GNU 9.4.0
  C++ compiler:       GNU 9.4.0
  LAPACK type:        MKL
  BLAS type:          MKL
  64-bit integers:    ON
  OpenMP:             ON
  PCM:                OFF
  Forced batching:    OFF
  Runtime checks:     OFF
  ------------------------------------------------------------


  :: Input file
  ================

     Note: geometry section is excluded from this print

     system
        name: h2o he
        charge: 0
     end system

     method
       hf
       lowmem-cc2
     end method

     print
        output print level: verbose
     end print

     memory
        available: 8
     end memory

     solver cholesky
        threshold: 1.0d-12
     end solver cholesky

     solver scf
        algorithm:          scf-diis
        energy threshold:   1.0d-11
        gradient threshold: 1.0d-11
     end solver scf

     solver cc gs
        multimodel newton: on
        algorithm: newton-raphson
        energy threshold: 1.0d-11
        omega threshold:  1.0d-11
     end solver cc gs

     do
        ground state
     end do


  Calculation start:2022-06-30 08:49:34 UTC +02:00

  Running on 2 OMP threads
  Memory available for calculation: 8.000000 GB


  :: RHF wavefunction
  ===================

  Will perform Coulomb and exchange terms in the Fock matrix collectively

  Libint electron repulsion integral precision:  0.1000E-23

     ==============================================================================
                                     Geometry (angstrom)
     ==============================================================================
        Atom           X                  Y                  Z         # in input
     ==============================================================================
        Basis: cc-pvdz
        1  H     0.866810000000     0.601440000000     5.000000000000        1
        2  H    -0.866810000000     0.601440000000     5.000000000000        2
        3  O     0.000000000000    -0.075790000000     5.000000000000        3
        4 He     0.100000000000    -0.020000000000     7.530000000000        4
     ==============================================================================

     ==============================================================================
                                     Geometry (a.u.)
     ==============================================================================
        Atom           X                  Y                  Z         # in input
     ==============================================================================
        Basis: cc-pvdz
        1  H     1.638033502034     1.136556880358     9.448630622825        1
        2  H    -1.638033502034     1.136556880358     9.448630622825        2
        3  O     0.000000000000    -0.143222342981     9.448630622825        3
        4 He     0.188972612457    -0.037794522491    14.229637717975        4
     ==============================================================================

  - Cholesky decomposition of AO overlap to get linearly independent AOs:

     Linear dependence threshold:             0.10E-05
     Number of atomic orbitals:               29
     Number of orthonormal atomic orbitals:   29

  - Molecular orbital details:

     Number of occupied orbitals:         6
     Number of virtual orbitals:         23
     Number of molecular orbitals:       29


  Generating initial SAD density
  ==============================
     Generated atomic density for H  using UHF/cc-pvdz
     Generated atomic density for O  using UHF/cc-pvdz
     Generated atomic density for He using UHF/cc-pvdz


  Determining reference state
  ===========================

  - Setting initial AO density to sad

     Energy of initial guess:               -78.492022836321
     Number of electrons in guess:           12.000000000000

  - Screening and integral thresholds:

     Coulomb screening threshold:    0.1000E-16
     Exchange screening threshold:   0.1000E-14
     ERI cutoff:                     0.1000E-16
     One-electron integral  cutoff:  0.1000E-21
     Cumulative Fock threshold:      0.1000E+01

  - SCF solver settings:

     Maximum iterations:                   100
     Acceleration type:                   diis

  - Convergence thresholds

     Residual threshold:            0.1000E-10
     Energy threshold:              0.1000E-10

  - DIIS tool settings:

     DIIS dimension:   8

     Storage (solver scf_errors): memory
     Storage (solver scf_parameters): memory

  Iteration       Energy (a.u.)      Max(grad.)    Delta E (a.u.)
  ---------------------------------------------------------------
     1           -78.796606592585     0.9786E-01     0.7880E+02
  Fock matrix construction using density differences
     2           -78.828675852654     0.7077E-01     0.3207E-01
  Fock matrix construction using density differences
     3           -78.843487343819     0.6747E-02     0.1481E-01
  Fock matrix construction using density differences
     4           -78.843814479549     0.2753E-02     0.3271E-03
  Fock matrix construction using density differences
     5           -78.843850612079     0.3973E-03     0.3613E-04
  Fock matrix construction using density differences
     6           -78.843851670925     0.5220E-04     0.1059E-05
  Fock matrix construction using density differences
     7           -78.843851692779     0.6096E-05     0.2185E-07
  Fock matrix construction using density differences
     8           -78.843851693528     0.2137E-05     0.7487E-09
  Fock matrix construction using density differences
     9           -78.843851693630     0.3151E-06     0.1027E-09
  Fock matrix construction using density differences
    10           -78.843851693631     0.2637E-07     0.4405E-12
  Fock matrix construction using density differences
    11           -78.843851693631     0.5634E-08     0.0000E+00
  Fock matrix construction using density differences
    12           -78.843851693631     0.1415E-08     0.8527E-13
  Fock matrix construction using density differences
    13           -78.843851693631     0.6806E-09     0.2842E-13
  Fock matrix construction using density differences
    14           -78.843851693631     0.1491E-09     0.1421E-13
  Fock matrix construction using density differences
    15           -78.843851693631     0.2501E-10     0.9948E-13
  Fock matrix construction using density differences
    16           -78.843851693631     0.5165E-11     0.1137E-12
  ---------------------------------------------------------------
  Convergence criterion met in 16 iterations!

  - Summary of RHF wavefunction energetics (a.u.):

     HOMO-LUMO gap:                  0.645629080245
     Nuclear repulsion energy:      12.116100574587
     Electronic energy:            -90.959952268218
     Total energy:                 -78.843851693631

  No frozen fock contributions!

  Libint electron repulsion integral precision:  0.1000E-23


  :: LOW MEMORY CC2 wavefunction
  ==============================

     Bath orbital(s):         False

   - Number of orbitals:

     Occupied orbitals:    6
     Virtual orbitals:     23
     Molecular orbitals:   29
     Atomic orbitals:      29

   - Number of ground state amplitudes:

     Single excitation amplitudes:  138


  Cholesky-decomposing electron repulsion integrals
  =================================================

  Cholesky decomposition of electronic repulsion integrals solver
  ---------------------------------------------------------------

  Performs a Cholesky decomposition of the two-electron electronic repulsion 
  integrals in the atomic orbital basis,

  (ab|cd) = sum_J L_ab^J L_cd^J.

  Once the Cholesky basis has been determined, the vectors L^J are constructed 
  and stored to disk. These may either be used directly, or be transformed 
  to the MO basis for use in post-HF calculations. For more information, 
  see S. D. Folkestad, E. F. Kjønstad and H. Koch, JCP, 150(19), (2019)

  - Cholesky decomposition settings:

     Target threshold is:   0.10E-11
     Span factor:           0.10E-01
     Max qual:                  1000

  - Cholesky decomposition ao details:

     Total number of AOs:                    29
     Total number of shell pairs:           120
     Total number of AO pairs:              435

  - Preparing diagonal for decomposition:

     Significant shell pairs:               118
     Significant AO pairs:                  431

     Construct shell pairs:                 120
     Construct AO pairs:                    435

  Iter.  #Sign. ao pairs / shell pairs   Max diagonal    #Qualified    #Cholesky    Cholesky array size
  -------------------------------------------------------------------------------------------------------
     1               406 /     108       0.47383E+01         147             42             17052
     2               319 /      93       0.47165E-01         234            111             35409
     3               250 /      76       0.46944E-03         178            183             45750
     4               187 /      55       0.38270E-05         145            265             49555
     5                87 /      25       0.38106E-07          78            324             28188
     6                21 /       3       0.37202E-09          43            349              7329
     7                 0 /       0       0.36652E-11           7            354                 0
  -------------------------------------------------------------------------------------------------------

  - Summary of Cholesky decomposition of electronic repulsion integrals:

     Final number of Cholesky vectors: 354

 - Testing the Cholesky decomposition decomposition electronic repulsion integrals:

     Maximal difference between approximate and actual diagonal:              0.7161E-12
     Minimal element of difference between approximate and actual diagonal:  -0.1238E-14

  - Settings for integral handling:

     Cholesky vectors in memory: True
     ERI matrix in memory:       False

  - Finished decomposing the ERIs.

     Total wall time (sec):              0.19588
     Total cpu time (sec):               0.39580


  Determining CC cluster amplitudes
  =================================

   - Davidson tool settings:

     Number of parameters:                  138
     Number of requested solutions:           1
     Max reduced space dimension:            50

     Storage (newton_raphson_amplitude_updator_trials): file
     Storage (newton_raphson_amplitude_updator_transforms): file

   - DIIS coupled cluster ground state solver
  ----------------------------------------------

  A DIIS CC ground state amplitude equations solver. It uses an extrapolation 
  of previous quasi-Newton perturbation theory estimates of the next amplitudes. 
  See Helgaker et al., Molecular Electronic Structure Theory, Chapter 
  13.

  - CC ground state solver settings:

  - Convergence thresholds

     Residual threshold:            0.1000E-10
     Energy threshold:              0.1000E-10
     Max number of iterations:      100

  - DIIS tool settings:

     DIIS dimension:   8

     Storage (cc_gs_diis_errors): file
     Storage (cc_gs_diis_parameters): file

  Iteration    Energy (a.u.)        |omega|       Delta E (a.u.)
  ---------------------------------------------------------------
    1           -79.084241931608     0.3734E-01     0.7908E+02

  - No preparations for the low memory cc2 excited state equation.

     Iteration     Residual norm
     -----------------------------
       1           0.2889E-02
       2           0.8213E-03
       3           0.1718E-03
     -----------------------------

    2           -79.085756108345     0.9787E-03     0.1514E-02

  - No preparations for the low memory cc2 excited state equation.

     Iteration     Residual norm
     -----------------------------
       1           0.3206E-03
       2           0.7912E-04
       3           0.1352E-04
       4           0.2698E-05
     -----------------------------

    3           -79.085767741743     0.9009E-04     0.1163E-04

  - No preparations for the low memory cc2 excited state equation.

     Iteration     Residual norm
     -----------------------------
       1           0.2595E-04
       2           0.6020E-05
       3           0.1261E-05
       4           0.2232E-06
     -----------------------------

    4           -79.085769696042     0.4568E-05     0.1954E-05

  - No preparations for the low memory cc2 excited state equation.

     Iteration     Residual norm
     -----------------------------
       1           0.1718E-05
       2           0.3568E-06
       3           0.8084E-07
       4           0.1628E-07
     -----------------------------

    5           -79.085769727318     0.1903E-06     0.3128E-07

  - No preparations for the low memory cc2 excited state equation.

     Iteration     Residual norm
     -----------------------------
       1           0.4231E-07
       2           0.1767E-07
       3           0.4406E-08
       4           0.7550E-09
     -----------------------------

    6           -79.085769729596     0.8880E-08     0.2279E-08

  - No preparations for the low memory cc2 excited state equation.

     Iteration     Residual norm
     -----------------------------
       1           0.3103E-08
       2           0.1379E-08
       3           0.2051E-09
       4           0.2234E-10
     -----------------------------

    7           -79.085769729575     0.4789E-09     0.2103E-10

  - No preparations for the low memory cc2 excited state equation.

     Iteration     Residual norm
     -----------------------------
       1           0.1480E-09
       2           0.3751E-10
       3           0.8106E-11
       4           0.9346E-12
     -----------------------------

    8           -79.085769729575     0.2014E-10     0.8527E-13

  - No preparations for the low memory cc2 excited state equation.

     Iteration     Residual norm
     -----------------------------
       1           0.6860E-11
       2           0.2931E-11
       3           0.4648E-12
       4           0.8498E-13
     -----------------------------

    9           -79.085769729576     0.8392E-12     0.4263E-13
  ---------------------------------------------------------------
  Convergence criterion met in 9 iterations!

  - Ground state summary:

     Final ground state energy (a.u.):   -79.085769729576

     Correlation energy (a.u.):           -0.241918035945

     Largest single amplitudes:
     -----------------------------------
        a       i         t(a,i)
     -----------------------------------
        1      5        0.015071367760
       14      4       -0.009516336777
        7      4        0.008547796583
       15      5       -0.006232215147
        5      6        0.005875107059
        6      2        0.005220429230
       13      5        0.005212699582
        2      4        0.005071084626
       11      6       -0.003616248565
        4      5        0.003233309226
     ------------------------------------

  - Finished solving the LOW MEMORY CC2 ground state equations

     Total wall time (sec):              0.07233
     Total cpu time (sec):               0.14226

  - Cleaning up low memory cc2 wavefunction

  Peak memory usage during the execution of eT: 10.699752 MB

  Total wall time in eT (sec):              0.76691
  Total cpu time in eT (sec):               1.47962

  Calculation end:2022-06-30 08:49:35 UTC +02:00

  - Implementation references:

     eT: https://doi.org/10.1063/5.0004713
     Cholesky decomposition of ERIs: https://doi.org/10.1063/1.5083802
     Multimodel Newton algorithm: https://doi.org/10.1063/5.0010989

  eT terminated successfully!
