


                     eT 1.8 - an electronic structure program

  ------------------------------------------------------------------------
   Author list in alphabetical order:
  ------------------------------------------------------------------------
   J. H. Andersen, A. Balbi, S. Coriani, S. D. Folkestad, T. Giovannini, 
   L. Goletto, T. S. Haugland, A. Hutcheson, I-M. Høyvik, E. F. Kjønstad, 
   H. Koch, R. Matveeva, T. Moitra, R. H. Myhre, A. C. Paul, S. Roet, 
   E. Ronca, M. Scavino, A. K. Schnack-Petersen, A. S. Skeidsvoll, Å. 
   H. Tveten
  ------------------------------------------------------------------------
   J. Chem. Phys. 152, 184103 (2020); https://doi.org/10.1063/5.0004713


   This is eT 1.8.0 Ibiza
  ------------------------------------------------------------
  Configuration date: 2022-06-30 08:43:06 UTC +02:00
  Git branch:         release-v1.8.0
  Git hash:           9204bbd8a5d9984444afd222ec28d0f1c1e17adf
  Fortran compiler:   GNU 9.4.0
  C compiler:         GNU 9.4.0
  C++ compiler:       GNU 9.4.0
  LAPACK type:        MKL
  BLAS type:          MKL
  64-bit integers:    ON
  OpenMP:             ON
  PCM:                OFF
  Forced batching:    OFF
  Runtime checks:     OFF
  ------------------------------------------------------------


  :: Input file
  ================

     Note: geometry section is excluded from this print

     system
        name: h2o
        charge: 0
        multiplicity: 1
     end system

     do
        ground state
     end do

     memory
        available: 8
     end memory

     method
        hf
        fci
     end method

     solver cholesky
        threshold: 1e-11
     end solver cholesky

     solver scf
        algorithm:          scf-diis
        energy threshold:   1.0d-10
        gradient threshold: 1.0d-10
        diis dimension: 8
     end solver scf

     solver fci
        states: 10
        start guess: random
        residual threshold: 1.0d-10
     end solver fci


  Calculation start:2022-06-30 08:49:32 UTC +02:00

  Running on 2 OMP threads
  Memory available for calculation: 8.000000 GB


  :: RHF wavefunction
  ===================

     ==============================================================================
                                     Geometry (angstrom)
     ==============================================================================
        Atom           X                  Y                  Z         # in input
     ==============================================================================
        Basis: sto-3g
        1  O     0.000000000000     0.000000000000     0.000000000000        1
        2  H     0.000000000000     0.000000000000     0.950000000000        2
        3  H     0.895670000000     0.000000000000    -0.316663000000        3
     ==============================================================================

     ==============================================================================
                                     Geometry (a.u.)
     ==============================================================================
        Atom           X                  Y                  Z         # in input
     ==============================================================================
        Basis: sto-3g
        1  O     0.000000000000     0.000000000000     0.000000000000        1
        2  H     0.000000000000     0.000000000000     1.795239818337        2
        3  H     1.692570997989     0.000000000000    -0.598406343783        3
     ==============================================================================

  - Cholesky decomposition of AO overlap to get linearly independent AOs:

     Linear dependence threshold:             0.10E-05
     Number of atomic orbitals:               7
     Number of orthonormal atomic orbitals:   7

  - Molecular orbital details:

     Number of occupied orbitals:         5
     Number of virtual orbitals:          2
     Number of molecular orbitals:        7


  Generating initial SAD density
  ==============================


  Determining reference state
  ===========================

  - Setting initial AO density to sad

     Energy of initial guess:               -74.699961417128
     Number of electrons in guess:           10.000000000000

  - Screening and integral thresholds:

     Coulomb screening threshold:    0.1000E-15
     Exchange screening threshold:   0.1000E-13
     ERI cutoff:                     0.1000E-15
     One-electron integral  cutoff:  0.1000E-20
     Cumulative Fock threshold:      0.1000E+01

  - SCF solver settings:

     Maximum iterations:                   100
     Acceleration type:                   diis

  - Convergence thresholds

     Residual threshold:            0.1000E-09
     Energy threshold:              0.1000E-09

  - DIIS tool settings:

     DIIS dimension:   8

     Storage (solver scf_errors): memory
     Storage (solver scf_parameters): memory

  Iteration       Energy (a.u.)      Max(grad.)    Delta E (a.u.)
  ---------------------------------------------------------------
     1           -74.922470022932     0.1104E+00     0.7492E+02
     2           -74.958896870634     0.1169E-01     0.3643E-01
     3           -74.959268670905     0.2426E-02     0.3718E-03
     4           -74.959292233449     0.9703E-04     0.2356E-04
     5           -74.959292303292     0.9554E-05     0.6984E-07
     6           -74.959292303909     0.3353E-06     0.6164E-09
     7           -74.959292303910     0.3711E-09     0.9379E-12
     8           -74.959292303910     0.1289E-12     0.2842E-13
  ---------------------------------------------------------------
  Convergence criterion met in 8 iterations!

  - Summary of RHF wavefunction energetics (a.u.):

     HOMO-LUMO gap:                  0.990754169402
     Nuclear repulsion energy:       9.253567250513
     Electronic energy:            -84.212859554423
     Total energy:                 -74.959292303910


  :: FCI wavefunction
  ======================

   - Number of orbitals:

     Alpha electrons:          5
     Virtual alpha orbitals:   2
     Beta electrons:           5
     Virtual beta orbitals:    2
     Molecular orbitals:       7

   - Number of determinants:
     Alpha Determinants:       21
     Beta Determinants:        21

  Cholesky decomposition of electronic repulsion integrals solver
  ---------------------------------------------------------------

  Performs a Cholesky decomposition of the two-electron electronic repulsion 
  integrals in the atomic orbital basis,

  (ab|cd) = sum_J L_ab^J L_cd^J.

  Once the Cholesky basis has been determined, the vectors L^J are constructed 
  and stored to disk. These may either be used directly, or be transformed 
  to the MO basis for use in post-HF calculations. For more information, 
  see S. D. Folkestad, E. F. Kjønstad and H. Koch, JCP, 150(19), (2019)

  - Cholesky decomposition settings:

     Target threshold is:   0.10E-10
     Span factor:           0.10E-01
     Max qual:                  1000

  - Cholesky decomposition ao details:

     Total number of AOs:                     7
     Total number of shell pairs:            15
     Total number of AO pairs:               28

     Significant shell pairs:                15
     Significant AO pairs:                   28

     Construct shell pairs:                  15
     Construct AO pairs:                     28

  Iter.  #Sign. ao pairs / shell pairs   Max diagonal    #Qualified    #Cholesky    Cholesky array size
  -------------------------------------------------------------------------------------------------------
     1                22 /      11       0.47851E+01          15              9               198
     2                 5 /       5       0.47444E-01          16             23               115
     3                 0 /       0       0.10516E-03           5             28                 0
  -------------------------------------------------------------------------------------------------------

  - Summary of Cholesky decomposition of electronic repulsion integrals:

     Final number of Cholesky vectors: 28

 - Testing the Cholesky decomposition decomposition electronic repulsion integrals:

     Maximal difference between approximate and actual diagonal:              0.2871E-15
     Minimal element of difference between approximate and actual diagonal:  -0.2871E-15

  - Finished decomposing the ERIs.

     Total wall time (sec):              0.00530
     Total cpu time (sec):               0.01530


  Determining FCI eigenstates
  ===========================

  Davidson eigenvalue equation solver
  -----------------------------------

  A Davidson solver that solves an eigenvalue equation: M x = omega x. 
  This equation is solved in a reduced space. A description of the algorithm 
  can be found in E. R. Davidson, J. Comput. Phys. 17, 87 (1975).

   - Davidson tool settings:

     Number of parameters:                  441
     Number of requested solutions:          10
     Max reduced space dimension:           100

     Storage (fci_davidson_trials): file
     Storage (fci_davidson_transforms): file

  - Davidson solver settings

     Number of singlet states:              10
     Max number of iterations:             100

  Iteration:                  1
  Reduced space dimension:   10

  Root  Eigenvalue (Re)   Eigenvalue (Im)    |residual|   Delta E (Re)
  -------------------------------------------------------------------------
     1 -63.820304225950    0.000000000000     0.1172E+02   0.6382E+02
     2 -63.668697807531    0.000000000000     0.1254E+02   0.6367E+02
     3 -62.304072984982    0.000000000000     0.1277E+02   0.6230E+02
     4 -61.317866653969    0.000000000000     0.1225E+02   0.6132E+02
     5 -60.559730146069    0.000000000000     0.1268E+02   0.6056E+02
     6 -60.457304418117    0.000000000000     0.1343E+02   0.6046E+02
     7 -59.627314099382    0.000000000000     0.1377E+02   0.5963E+02
     8 -58.816617017496    0.000000000000     0.1432E+02   0.5882E+02
     9 -57.972695090202    0.000000000000     0.1441E+02   0.5797E+02
    10 -57.688974002839    0.000000000000     0.1443E+02   0.5769E+02
  -------------------------------------------------------------------------

  Iteration:                  2
  Reduced space dimension:   20

  Root  Eigenvalue (Re)   Eigenvalue (Im)    |residual|   Delta E (Re)
  -------------------------------------------------------------------------
     1 -64.386384402274    0.000000000000     0.1123E+02   0.5661E+00
     2 -64.132217344295    0.000000000000     0.1135E+02   0.4635E+00
     3 -63.315192599180    0.000000000000     0.1232E+02   0.1011E+01
     4 -62.635982326880    0.000000000000     0.1254E+02   0.1318E+01
     5 -62.482290984969    0.000000000000     0.1150E+02   0.1923E+01
     6 -61.501549563352    0.000000000000     0.1223E+02   0.1044E+01
     7 -60.960100483605    0.000000000000     0.1186E+02   0.1333E+01
     8 -60.124031202475    0.000000000000     0.1337E+02   0.1307E+01
     9 -59.960751917304    0.000000000000     0.1259E+02   0.1988E+01
    10 -58.915758373632    0.000000000000     0.1413E+02   0.1227E+01
  -------------------------------------------------------------------------

  Iteration:                  3
  Reduced space dimension:   30

  Root  Eigenvalue (Re)   Eigenvalue (Im)    |residual|   Delta E (Re)
  -------------------------------------------------------------------------
     1 -70.979833853066    0.000000000000     0.3522E+01   0.6593E+01
     2 -70.187653185224    0.000000000000     0.6198E+01   0.6055E+01
     3 -66.371009678555    0.000000000000     0.1074E+02   0.3056E+01
     4 -66.068997878632    0.000000000000     0.1095E+02   0.3433E+01
     5 -65.014975313064    0.000000000000     0.1129E+02   0.2533E+01
     6 -63.781631542322    0.000000000000     0.1241E+02   0.2280E+01
     7 -62.869836019586    0.000000000000     0.1258E+02   0.1910E+01
     8 -62.482719196118    0.000000000000     0.1295E+02   0.2359E+01
     9 -61.907996599578    0.000000000000     0.1254E+02   0.1947E+01
    10 -61.261839954476    0.000000000000     0.1374E+02   0.2346E+01
  -------------------------------------------------------------------------

  Iteration:                  4
  Reduced space dimension:   40

  Root  Eigenvalue (Re)   Eigenvalue (Im)    |residual|   Delta E (Re)
  -------------------------------------------------------------------------
     1 -71.189872440784    0.000000000000     0.2001E+01   0.2100E+00
     2 -71.154610977550    0.000000000000     0.4472E+01   0.9670E+00
     3 -70.927397657705    0.000000000000     0.3978E+01   0.4556E+01
     4 -70.782186562247    0.000000000000     0.2614E+01   0.4713E+01
     5 -70.079973270849    0.000000000000     0.6977E+01   0.5065E+01
     6 -69.042436775367    0.000000000000     0.7553E+01   0.5261E+01
     7 -67.361536480597    0.000000000000     0.9602E+01   0.4492E+01
     8 -65.841295653328    0.000000000000     0.1040E+02   0.3359E+01
     9 -65.585597380614    0.000000000000     0.1118E+02   0.3678E+01
    10 -64.581742285027    0.000000000000     0.1147E+02   0.3320E+01
  -------------------------------------------------------------------------

  Iteration:                  5
  Reduced space dimension:   50

  Root  Eigenvalue (Re)   Eigenvalue (Im)    |residual|   Delta E (Re)
  -------------------------------------------------------------------------
     1 -71.891032709272    0.000000000000     0.2041E+01   0.7012E+00
     2 -71.704943676396    0.000000000000     0.3204E+01   0.5503E+00
     3 -71.538011092785    0.000000000000     0.3422E+01   0.6106E+00
     4 -71.465759232098    0.000000000000     0.1987E+01   0.6836E+00
     5 -71.167969855425    0.000000000000     0.9081E+00   0.1088E+01
     6 -71.134078515501    0.000000000000     0.1199E+01   0.2092E+01
     7 -70.951984534254    0.000000000000     0.2470E+01   0.3590E+01
     8 -70.874156422661    0.000000000000     0.1150E+01   0.5033E+01
     9 -70.641152252441    0.000000000000     0.3465E+01   0.5056E+01
    10 -70.609193626938    0.000000000000     0.3363E+01   0.6027E+01
  -------------------------------------------------------------------------

  Iteration:                  6
  Reduced space dimension:   60

  Root  Eigenvalue (Re)   Eigenvalue (Im)    |residual|   Delta E (Re)
  -------------------------------------------------------------------------
     1 -72.247231571162    0.000000000000     0.2022E+01   0.3562E+00
     2 -72.192324741346    0.000000000000     0.1855E+01   0.4874E+00
     3 -71.828644361190    0.000000000000     0.2720E+01   0.2906E+00
     4 -71.648780273789    0.000000000000     0.1383E+01   0.1830E+00
     5 -71.567022185574    0.000000000000     0.1637E+01   0.3991E+00
     6 -71.541719934483    0.000000000000     0.1249E+01   0.4076E+00
     7 -71.510672336647    0.000000000000     0.1101E+01   0.5587E+00
     8 -71.455634725303    0.000000000000     0.1228E+01   0.5815E+00
     9 -71.427014235471    0.000000000000     0.8709E+00   0.7859E+00
    10 -71.348810968950    0.000000000000     0.1088E+01   0.7396E+00
  -------------------------------------------------------------------------

  Iteration:                  7
  Reduced space dimension:   70

  Root  Eigenvalue (Re)   Eigenvalue (Im)    |residual|   Delta E (Re)
  -------------------------------------------------------------------------
     1 -72.356593589641    0.000000000000     0.1690E+01   0.1094E+00
     2 -72.269205621490    0.000000000000     0.1379E+01   0.7688E-01
     3 -72.247130792034    0.000000000000     0.1027E+01   0.4185E+00
     4 -72.154745884082    0.000000000000     0.9110E+00   0.5060E+00
     5 -72.063911113916    0.000000000000     0.1943E+01   0.4969E+00
     6 -72.003246812685    0.000000000000     0.9943E+00   0.4615E+00
     7 -71.890065953509    0.000000000000     0.9918E+00   0.3794E+00
     8 -71.779934190623    0.000000000000     0.2460E+01   0.3243E+00
     9 -71.741588951112    0.000000000000     0.1206E+01   0.3146E+00
    10 -71.657137153581    0.000000000000     0.1030E+01   0.3083E+00
  -------------------------------------------------------------------------

  Iteration:                  8
  Reduced space dimension:   80

  Root  Eigenvalue (Re)   Eigenvalue (Im)    |residual|   Delta E (Re)
  -------------------------------------------------------------------------
     1 -72.561242002436    0.000000000000     0.1427E+01   0.2046E+00
     2 -72.375836992783    0.000000000000     0.3312E+00   0.1066E+00
     3 -72.355605344375    0.000000000000     0.1383E+01   0.1085E+00
     4 -72.287599987824    0.000000000000     0.1145E+01   0.1329E+00
     5 -72.266431872760    0.000000000000     0.1665E+01   0.2025E+00
     6 -72.249997461611    0.000000000000     0.7695E+00   0.2468E+00
     7 -72.213998067231    0.000000000000     0.1199E+01   0.3239E+00
     8 -72.168985975220    0.000000000000     0.9757E+00   0.3891E+00
     9 -72.124985906919    0.000000000000     0.6025E+00   0.3834E+00
    10 -72.107240326001    0.000000000000     0.1318E+01   0.4501E+00
  -------------------------------------------------------------------------

  Iteration:                  9
  Reduced space dimension:   90

  Root  Eigenvalue (Re)   Eigenvalue (Im)    |residual|   Delta E (Re)
  -------------------------------------------------------------------------
     1 -72.629494288167    0.000000000000     0.1510E+01   0.6825E-01
     2 -72.592961003833    0.000000000000     0.2896E+00   0.2171E+00
     3 -72.558821527320    0.000000000000     0.7650E+00   0.2032E+00
     4 -72.473182574526    0.000000000000     0.3003E+00   0.1856E+00
     5 -72.423840320496    0.000000000000     0.5544E+00   0.1574E+00
     6 -72.368975765220    0.000000000000     0.8628E+00   0.1190E+00
     7 -72.348858491640    0.000000000000     0.5056E+00   0.1349E+00
     8 -72.344289338775    0.000000000000     0.7131E+00   0.1753E+00
     9 -72.315096029829    0.000000000000     0.7161E+00   0.1901E+00
    10 -72.291986022062    0.000000000000     0.6714E+00   0.1847E+00
  -------------------------------------------------------------------------

  Iteration:                 10
  Reduced space dimension:  100

  Root  Eigenvalue (Re)   Eigenvalue (Im)    |residual|   Delta E (Re)
  -------------------------------------------------------------------------
     1 -72.885139165920    0.000000000000     0.8105E+00   0.2556E+00
     2 -72.767802008308    0.000000000000     0.7668E+00   0.1748E+00
     3 -72.683101657967    0.000000000000     0.8479E+00   0.1243E+00
     4 -72.643193007820    0.000000000000     0.5259E+00   0.1700E+00
     5 -72.615878029580    0.000000000000     0.4728E+00   0.1920E+00
     6 -72.576702775297    0.000000000000     0.8200E+00   0.2077E+00
     7 -72.550959319380    0.000000000000     0.9060E+00   0.2021E+00
     8 -72.519445979408    0.000000000000     0.8410E+00   0.1752E+00
     9 -72.504778624713    0.000000000000     0.4942E+00   0.1897E+00
    10 -72.474853249064    0.000000000000     0.4646E+00   0.1829E+00
  -------------------------------------------------------------------------

  Iteration:                 11
  Reduced space dimension:   10

  Root  Eigenvalue (Re)   Eigenvalue (Im)    |residual|   Delta E (Re)
  -------------------------------------------------------------------------
     1 -72.885139165920    0.000000000000     0.8105E+00   0.1421E-12
     2 -72.767802008308    0.000000000000     0.7668E+00   0.4263E-13
     3 -72.683101657967    0.000000000000     0.8479E+00   0.8527E-13
     4 -72.643193007820    0.000000000000     0.5259E+00   0.2416E-12
     5 -72.615878029580    0.000000000000     0.4728E+00   0.0000E+00
     6 -72.576702775297    0.000000000000     0.8200E+00   0.3126E-12
     7 -72.550959319380    0.000000000000     0.9060E+00   0.5684E-13
     8 -72.519445979408    0.000000000000     0.8410E+00   0.1137E-12
     9 -72.504778624713    0.000000000000     0.4942E+00   0.7105E-13
    10 -72.474853249064    0.000000000000     0.4646E+00   0.1421E-13
  -------------------------------------------------------------------------

  Iteration:                 12
  Reduced space dimension:   20

  Root  Eigenvalue (Re)   Eigenvalue (Im)    |residual|   Delta E (Re)
  -------------------------------------------------------------------------
     1 -72.987130187229    0.000000000000     0.7109E+00   0.1020E+00
     2 -72.940737523224    0.000000000000     0.5806E+00   0.1729E+00
     3 -72.866961919662    0.000000000000     0.5296E+00   0.1839E+00
     4 -72.832725647451    0.000000000000     0.7078E+00   0.1895E+00
     5 -72.761905500902    0.000000000000     0.5934E+00   0.1460E+00
     6 -72.721687517593    0.000000000000     0.6022E+00   0.1450E+00
     7 -72.691069652842    0.000000000000     0.7992E+00   0.1401E+00
     8 -72.666190458774    0.000000000000     0.4608E+00   0.1467E+00
     9 -72.636124692024    0.000000000000     0.6553E+00   0.1313E+00
    10 -72.631010143834    0.000000000000     0.5812E+00   0.1562E+00
  -------------------------------------------------------------------------

  Iteration:                 13
  Reduced space dimension:   30

  Root  Eigenvalue (Re)   Eigenvalue (Im)    |residual|   Delta E (Re)
  -------------------------------------------------------------------------
     1 -73.153857952069    0.000000000000     0.3451E+00   0.1667E+00
     2 -73.043126523486    0.000000000000     0.5389E+00   0.1024E+00
     3 -72.994608463594    0.000000000000     0.4771E+00   0.1276E+00
     4 -72.952802809984    0.000000000000     0.6780E+00   0.1201E+00
     5 -72.937081527346    0.000000000000     0.4463E+00   0.1752E+00
     6 -72.905017828987    0.000000000000     0.4058E+00   0.1833E+00
     7 -72.886257778714    0.000000000000     0.5017E+00   0.1952E+00
     8 -72.851033293248    0.000000000000     0.5668E+00   0.1848E+00
     9 -72.825876512519    0.000000000000     0.4222E+00   0.1898E+00
    10 -72.768514582325    0.000000000000     0.6001E+00   0.1375E+00
  -------------------------------------------------------------------------

  Iteration:                 14
  Reduced space dimension:   40

  Root  Eigenvalue (Re)   Eigenvalue (Im)    |residual|   Delta E (Re)
  -------------------------------------------------------------------------
     1 -73.328987417407    0.000000000000     0.1928E+00   0.1751E+00
     2 -73.146797113680    0.000000000000     0.3334E+00   0.1037E+00
     3 -73.115475652867    0.000000000000     0.3789E+00   0.1209E+00
     4 -73.079972359365    0.000000000000     0.3679E+00   0.1272E+00
     5 -73.061231158696    0.000000000000     0.3961E+00   0.1241E+00
     6 -73.040502587073    0.000000000000     0.4541E+00   0.1355E+00
     7 -72.983825138259    0.000000000000     0.4404E+00   0.9757E-01
     8 -72.981221497270    0.000000000000     0.4657E+00   0.1302E+00
     9 -72.950992201538    0.000000000000     0.4319E+00   0.1251E+00
    10 -72.930079659437    0.000000000000     0.4889E+00   0.1616E+00
  -------------------------------------------------------------------------

  Iteration:                 15
  Reduced space dimension:   50

  Root  Eigenvalue (Re)   Eigenvalue (Im)    |residual|   Delta E (Re)
  -------------------------------------------------------------------------
     1 -73.387523149921    0.000000000000     0.4652E+00   0.5854E-01
     2 -73.339174237395    0.000000000000     0.3772E+00   0.1924E+00
     3 -73.329364049383    0.000000000000     0.5648E+00   0.2139E+00
     4 -73.226265861264    0.000000000000     0.2927E+00   0.1463E+00
     5 -73.177860797336    0.000000000000     0.3589E+00   0.1166E+00
     6 -73.165506147411    0.000000000000     0.2268E+00   0.1250E+00
     7 -73.115853086359    0.000000000000     0.2900E+00   0.1320E+00
     8 -73.093009680511    0.000000000000     0.3653E+00   0.1118E+00
     9 -73.087037245584    0.000000000000     0.2778E+00   0.1360E+00
    10 -73.075059286378    0.000000000000     0.3277E+00   0.1450E+00
  -------------------------------------------------------------------------

  Iteration:                 16
  Reduced space dimension:   60

  Root  Eigenvalue (Re)   Eigenvalue (Im)    |residual|   Delta E (Re)
  -------------------------------------------------------------------------
     1 -73.592495935792    0.000000000000     0.4846E+00   0.2050E+00
     2 -73.517045040293    0.000000000000     0.4956E+00   0.1779E+00
     3 -73.440837908731    0.000000000000     0.3027E+00   0.1115E+00
     4 -73.362465900879    0.000000000000     0.1010E+00   0.1362E+00
     5 -73.283992418009    0.000000000000     0.2145E+00   0.1061E+00
     6 -73.271638776571    0.000000000000     0.2114E+00   0.1061E+00
     7 -73.250406171134    0.000000000000     0.5503E+00   0.1346E+00
     8 -73.202486090329    0.000000000000     0.4244E+00   0.1095E+00
     9 -73.177199208802    0.000000000000     0.1743E+00   0.9016E-01
    10 -73.171463724079    0.000000000000     0.4664E+00   0.9640E-01
  -------------------------------------------------------------------------

  Iteration:                 17
  Reduced space dimension:   70

  Root  Eigenvalue (Re)   Eigenvalue (Im)    |residual|   Delta E (Re)
  -------------------------------------------------------------------------
     1 -73.677301310954    0.000000000000     0.3066E+00   0.8481E-01
     2 -73.621705615999    0.000000000000     0.4603E+00   0.1047E+00
     3 -73.571587545751    0.000000000000     0.5391E+00   0.1307E+00
     4 -73.496378159258    0.000000000000     0.4485E+00   0.1339E+00
     5 -73.460304756609    0.000000000000     0.3544E+00   0.1763E+00
     6 -73.414087986485    0.000000000000     0.6455E+00   0.1424E+00
     7 -73.384643429699    0.000000000000     0.3071E+00   0.1342E+00
     8 -73.364000914015    0.000000000000     0.1553E+00   0.1615E+00
     9 -73.338086185157    0.000000000000     0.3408E+00   0.1609E+00
    10 -73.315813318381    0.000000000000     0.3942E+00   0.1443E+00
  -------------------------------------------------------------------------

  Iteration:                 18
  Reduced space dimension:   80

  Root  Eigenvalue (Re)   Eigenvalue (Im)    |residual|   Delta E (Re)
  -------------------------------------------------------------------------
     1 -73.791149436944    0.000000000000     0.2750E+00   0.1138E+00
     2 -73.755940307235    0.000000000000     0.2992E+00   0.1342E+00
     3 -73.729246688836    0.000000000000     0.4254E+00   0.1577E+00
     4 -73.717835269787    0.000000000000     0.3912E+00   0.2215E+00
     5 -73.673055614977    0.000000000000     0.5564E+00   0.2128E+00
     6 -73.628351042425    0.000000000000     0.3470E+00   0.2143E+00
     7 -73.607631507305    0.000000000000     0.4551E+00   0.2230E+00
     8 -73.564514073489    0.000000000000     0.4135E+00   0.2005E+00
     9 -73.547862955867    0.000000000000     0.4274E+00   0.2098E+00
    10 -73.482509234986    0.000000000000     0.3266E+00   0.1667E+00
  -------------------------------------------------------------------------

  Iteration:                 19
  Reduced space dimension:   90

  Root  Eigenvalue (Re)   Eigenvalue (Im)    |residual|   Delta E (Re)
  -------------------------------------------------------------------------
     1 -73.929963846980    0.000000000000     0.3265E+00   0.1388E+00
     2 -73.904014543616    0.000000000000     0.2505E+00   0.1481E+00
     3 -73.842781589390    0.000000000000     0.2853E+00   0.1135E+00
     4 -73.807656557916    0.000000000000     0.2767E+00   0.8982E-01
     5 -73.791056920920    0.000000000000     0.2589E+00   0.1180E+00
     6 -73.771160210482    0.000000000000     0.3105E+00   0.1428E+00
     7 -73.740666956355    0.000000000000     0.3475E+00   0.1330E+00
     8 -73.725286813011    0.000000000000     0.2792E+00   0.1608E+00
     9 -73.682016600746    0.000000000000     0.3201E+00   0.1342E+00
    10 -73.665609214621    0.000000000000     0.3199E+00   0.1831E+00
  -------------------------------------------------------------------------

  Iteration:                 20
  Reduced space dimension:  100

  Root  Eigenvalue (Re)   Eigenvalue (Im)    |residual|   Delta E (Re)
  -------------------------------------------------------------------------
     1 -74.044774635043    0.000000000000     0.1209E+00   0.1148E+00
     2 -73.956583309997    0.000000000000     0.1683E+00   0.5257E-01
     3 -73.943591931116    0.000000000000     0.1968E+00   0.1008E+00
     4 -73.916202391091    0.000000000000     0.2125E+00   0.1085E+00
     5 -73.906798162434    0.000000000000     0.2182E+00   0.1157E+00
     6 -73.894235500176    0.000000000000     0.2234E+00   0.1231E+00
     7 -73.853221598469    0.000000000000     0.2512E+00   0.1126E+00
     8 -73.833051522039    0.000000000000     0.1665E+00   0.1078E+00
     9 -73.790277660280    0.000000000000     0.3787E+00   0.1083E+00
    10 -73.773990477221    0.000000000000     0.2582E+00   0.1084E+00
  -------------------------------------------------------------------------

  Iteration:                 21
  Reduced space dimension:   10

  Root  Eigenvalue (Re)   Eigenvalue (Im)    |residual|   Delta E (Re)
  -------------------------------------------------------------------------
     1 -74.044774635042    0.000000000000     0.1209E+00   0.1421E-12
     2 -73.956583309997    0.000000000000     0.1683E+00   0.5684E-13
     3 -73.943591931116    0.000000000000     0.1968E+00   0.1421E-13
     4 -73.916202391091    0.000000000000     0.2125E+00   0.0000E+00
     5 -73.906798162433    0.000000000000     0.2182E+00   0.2132E-12
     6 -73.894235500175    0.000000000000     0.2234E+00   0.1279E-12
     7 -73.853221598469    0.000000000000     0.2512E+00   0.9948E-13
     8 -73.833051522039    0.000000000000     0.1665E+00   0.3979E-12
     9 -73.790277660280    0.000000000000     0.3787E+00   0.1990E-12
    10 -73.773990477221    0.000000000000     0.2582E+00   0.0000E+00
  -------------------------------------------------------------------------

  Iteration:                 22
  Reduced space dimension:   20

  Root  Eigenvalue (Re)   Eigenvalue (Im)    |residual|   Delta E (Re)
  -------------------------------------------------------------------------
     1 -74.167469185354    0.000000000000     0.2898E+00   0.1227E+00
     2 -74.042238286562    0.000000000000     0.1502E+00   0.8565E-01
     3 -73.996000537176    0.000000000000     0.1384E+00   0.5241E-01
     4 -73.970192948021    0.000000000000     0.1843E+00   0.5399E-01
     5 -73.956204283684    0.000000000000     0.7747E-01   0.4941E-01
     6 -73.935727876425    0.000000000000     0.7247E-01   0.4149E-01
     7 -73.919260962221    0.000000000000     0.8430E-01   0.6604E-01
     8 -73.889358667734    0.000000000000     0.1220E+00   0.5631E-01
     9 -73.863429476039    0.000000000000     0.2418E+00   0.7315E-01
    10 -73.850806885734    0.000000000000     0.1693E+00   0.7682E-01
  -------------------------------------------------------------------------

  Iteration:                 23
  Reduced space dimension:   30

  Root  Eigenvalue (Re)   Eigenvalue (Im)    |residual|   Delta E (Re)
  -------------------------------------------------------------------------
     1 -74.213479552358    0.000000000000     0.7619E-01   0.4601E-01
     2 -74.053183578346    0.000000000000     0.1611E+00   0.1095E-01
     3 -74.035120162047    0.000000000000     0.6734E+00   0.3912E-01
     4 -74.004500712976    0.000000000000     0.7274E-01   0.3431E-01
     5 -73.981851460486    0.000000000000     0.3579E+00   0.2565E-01
     6 -73.960426436995    0.000000000000     0.6394E-01   0.2470E-01
     7 -73.941191033907    0.000000000000     0.1396E+00   0.2193E-01
     8 -73.930066733938    0.000000000000     0.1671E+00   0.4071E-01
     9 -73.911151745931    0.000000000000     0.2422E+00   0.4772E-01
    10 -73.904681776960    0.000000000000     0.1438E+00   0.5387E-01
  -------------------------------------------------------------------------

  Iteration:                 24
  Reduced space dimension:   40

  Root  Eigenvalue (Re)   Eigenvalue (Im)    |residual|   Delta E (Re)
  -------------------------------------------------------------------------
     1 -74.216864725630    0.000000000000     0.1260E+00   0.3385E-02
     2 -74.208434384361    0.000000000000     0.4788E+00   0.1553E+00
     3 -74.108375820643    0.000000000000     0.6535E+00   0.7326E-01
     4 -74.053098858283    0.000000000000     0.4118E-01   0.4860E-01
     5 -74.010359294804    0.000000000000     0.6668E+00   0.2851E-01
     6 -74.003199279619    0.000000000000     0.4408E+00   0.4277E-01
     7 -73.989798004319    0.000000000000     0.4986E+00   0.4861E-01
     8 -73.961437146310    0.000000000000     0.4248E-01   0.3137E-01
     9 -73.943128404268    0.000000000000     0.6446E-01   0.3198E-01
    10 -73.935774048617    0.000000000000     0.6008E-01   0.3109E-01
  -------------------------------------------------------------------------

  Iteration:                 25
  Reduced space dimension:   50

  Root  Eigenvalue (Re)   Eigenvalue (Im)    |residual|   Delta E (Re)
  -------------------------------------------------------------------------
     1 -74.303048353316    0.000000000000     0.5937E+00   0.8618E-01
     2 -74.297697030549    0.000000000000     0.3700E+00   0.8926E-01
     3 -74.222916406108    0.000000000000     0.7904E+00   0.1145E+00
     4 -74.216419717921    0.000000000000     0.9461E-01   0.1633E+00
     5 -74.172957517733    0.000000000000     0.3248E+00   0.1626E+00
     6 -74.089747196113    0.000000000000     0.6721E+00   0.8655E-01
     7 -74.053308219265    0.000000000000     0.7855E-02   0.6351E-01
     8 -74.005887869098    0.000000000000     0.2640E-01   0.4445E-01
     9 -73.997714873767    0.000000000000     0.1314E+00   0.5459E-01
    10 -73.972795791884    0.000000000000     0.7257E+00   0.3702E-01
  -------------------------------------------------------------------------

  Iteration:                 26
  Reduced space dimension:   60

  Root  Eigenvalue (Re)   Eigenvalue (Im)    |residual|   Delta E (Re)
  -------------------------------------------------------------------------
     1 -74.405814921940    0.000000000000     0.1606E+00   0.1028E+00
     2 -74.348789107824    0.000000000000     0.5285E+00   0.5109E-01
     3 -74.306757338339    0.000000000000     0.2067E+00   0.8384E-01
     4 -74.284394889606    0.000000000000     0.4997E+00   0.6798E-01
     5 -74.274465122979    0.000000000000     0.5658E+00   0.1015E+00
     6 -74.232551605067    0.000000000000     0.6965E+00   0.1428E+00
     7 -74.216675421622    0.000000000000     0.3340E-01   0.1634E+00
     8 -74.163195878635    0.000000000000     0.1210E+00   0.1573E+00
     9 -74.077075872065    0.000000000000     0.7663E+00   0.7936E-01
    10 -74.053328491903    0.000000000000     0.2181E-02   0.8053E-01
  -------------------------------------------------------------------------

  Iteration:                 27
  Reduced space dimension:   70

  Root  Eigenvalue (Re)   Eigenvalue (Im)    |residual|   Delta E (Re)
  -------------------------------------------------------------------------
     1 -74.502441614617    0.000000000000     0.1719E+00   0.9663E-01
     2 -74.492703907271    0.000000000000     0.4971E+00   0.1439E+00
     3 -74.418319388512    0.000000000000     0.8277E-01   0.1116E+00
     4 -74.352316192573    0.000000000000     0.4103E+00   0.6792E-01
     5 -74.321260239049    0.000000000000     0.5018E+00   0.4680E-01
     6 -74.312494621879    0.000000000000     0.9303E-01   0.7994E-01
     7 -74.303108857264    0.000000000000     0.1774E+00   0.8643E-01
     8 -74.232772509163    0.000000000000     0.6429E+00   0.6958E-01
     9 -74.216876535735    0.000000000000     0.7988E-02   0.1398E+00
    10 -74.166623451882    0.000000000000     0.8467E-01   0.1133E+00
  -------------------------------------------------------------------------

  Iteration:                 28
  Reduced space dimension:   80

  Root  Eigenvalue (Re)   Eigenvalue (Im)    |residual|   Delta E (Re)
  -------------------------------------------------------------------------
     1 -74.599511589806    0.000000000000     0.1633E+00   0.9707E-01
     2 -74.515620375746    0.000000000000     0.4063E-01   0.2292E-01
     3 -74.480200882621    0.000000000000     0.1582E+00   0.6188E-01
     4 -74.423697399648    0.000000000000     0.2823E+00   0.7138E-01
     5 -74.411076280220    0.000000000000     0.3509E+00   0.8982E-01
     6 -74.385211832184    0.000000000000     0.3734E+00   0.7272E-01
     7 -74.332456737247    0.000000000000     0.4916E+00   0.2935E-01
     8 -74.313362532638    0.000000000000     0.9673E-02   0.8059E-01
     9 -74.305286836801    0.000000000000     0.2140E-01   0.8841E-01
    10 -74.216878358810    0.000000000000     0.1174E-02   0.5025E-01
  -------------------------------------------------------------------------

  Iteration:                 29
  Reduced space dimension:   90

  Root  Eigenvalue (Re)   Eigenvalue (Im)    |residual|   Delta E (Re)
  -------------------------------------------------------------------------
     1 -74.610495655606    0.000000000000     0.2050E-01   0.1098E-01
     2 -74.548742776610    0.000000000000     0.1066E+00   0.3312E-01
     3 -74.515414784925    0.000000000000     0.2323E-01   0.3521E-01
     4 -74.485362915717    0.000000000000     0.4621E-01   0.6167E-01
     5 -74.424037249601    0.000000000000     0.2075E+00   0.1296E-01
     6 -74.419908885900    0.000000000000     0.1063E+00   0.3470E-01
     7 -74.417483602992    0.000000000000     0.1762E+00   0.8503E-01
     8 -74.313383166148    0.000000000000     0.9987E-03   0.2063E-04
     9 -74.305395581132    0.000000000000     0.2055E-02   0.1087E-03
    10 -74.216878981364    0.000000000000     0.9323E-03   0.6226E-06
  -------------------------------------------------------------------------

  Iteration:                 30
  Reduced space dimension:  100

  Root  Eigenvalue (Re)   Eigenvalue (Im)    |residual|   Delta E (Re)
  -------------------------------------------------------------------------
     1 -74.664703701588    0.000000000000     0.9863E+00   0.5421E-01
     2 -74.610613975985    0.000000000000     0.5076E-02   0.6187E-01
     3 -74.550891884052    0.000000000000     0.1224E-01   0.3548E-01
     4 -74.515604734834    0.000000000000     0.3470E-02   0.3024E-01
     5 -74.486624799339    0.000000000000     0.8588E-02   0.6259E-01
     6 -74.447375378280    0.000000000000     0.3564E-01   0.2747E-01
     7 -74.423335553968    0.000000000000     0.1044E-01   0.5852E-02
     8 -74.418958107691    0.000000000000     0.4357E-02   0.1056E+00
     9 -74.313383586314    0.000000000000     0.1481E-03   0.7988E-02
    10 -74.305397521715    0.000000000000     0.3273E-03   0.8852E-01
  -------------------------------------------------------------------------

  Iteration:                 31
  Reduced space dimension:   10

  Root  Eigenvalue (Re)   Eigenvalue (Im)    |residual|   Delta E (Re)
  -------------------------------------------------------------------------
     1 -74.664703701588    0.000000000000     0.9863E+00   0.7105E-13
     2 -74.610613975984    0.000000000000     0.5076E-02   0.4405E-12
     3 -74.550891884052    0.000000000000     0.1224E-01   0.8527E-13
     4 -74.515604734834    0.000000000000     0.3470E-02   0.1847E-12
     5 -74.486624799339    0.000000000000     0.8588E-02   0.2700E-12
     6 -74.447375378280    0.000000000000     0.3564E-01   0.9948E-13
     7 -74.423335553968    0.000000000000     0.1044E-01   0.1421E-13
     8 -74.418958107691    0.000000000000     0.4357E-02   0.0000E+00
     9 -74.313383586314    0.000000000000     0.1481E-03   0.3695E-12
    10 -74.305397521715    0.000000000000     0.3273E-03   0.2842E-13
  -------------------------------------------------------------------------

  Iteration:                 32
  Reduced space dimension:   20

  Root  Eigenvalue (Re)   Eigenvalue (Im)    |residual|   Delta E (Re)
  -------------------------------------------------------------------------
     1 -74.795166174401    0.000000000000     0.7925E+00   0.1305E+00
     2 -74.610617126684    0.000000000000     0.4823E-03   0.3151E-05
     3 -74.550946883503    0.000000000000     0.2431E-02   0.5500E-04
     4 -74.515608153586    0.000000000000     0.5953E-03   0.3419E-05
     5 -74.486657659454    0.000000000000     0.1857E-02   0.3286E-04
     6 -74.447925960199    0.000000000000     0.7461E-02   0.5506E-03
     7 -74.423379499892    0.000000000000     0.1874E-02   0.4395E-04
     8 -74.418963867163    0.000000000000     0.6377E-03   0.5759E-05
     9 -74.313383595386    0.000000000000     0.2897E-04   0.9072E-08
    10 -74.305397564417    0.000000000000     0.6056E-04   0.4270E-07
  -------------------------------------------------------------------------

  Iteration:                 33
  Reduced space dimension:   30

  Root  Eigenvalue (Re)   Eigenvalue (Im)    |residual|   Delta E (Re)
  -------------------------------------------------------------------------
     1 -74.902621586161    0.000000000000     0.5379E+00   0.1075E+00
     2 -74.610617217676    0.000000000000     0.7949E-04   0.9099E-07
     3 -74.550949010361    0.000000000000     0.5811E-03   0.2127E-05
     4 -74.515608282792    0.000000000000     0.2905E-03   0.1292E-06
     5 -74.486659244590    0.000000000000     0.3684E-03   0.1585E-05
     6 -74.447952465855    0.000000000000     0.1968E-02   0.2651E-04
     7 -74.423381013560    0.000000000000     0.6474E-03   0.1514E-05
     8 -74.418964054470    0.000000000000     0.2334E-03   0.1873E-06
     9 -74.313383595856    0.000000000000     0.7171E-05   0.4704E-09
    10 -74.305397565925    0.000000000000     0.3251E-04   0.1509E-08
  -------------------------------------------------------------------------

  Iteration:                 34
  Reduced space dimension:   40

  Root  Eigenvalue (Re)   Eigenvalue (Im)    |residual|   Delta E (Re)
  -------------------------------------------------------------------------
     1 -74.976657881131    0.000000000000     0.2867E+00   0.7404E-01
     2 -74.610617220298    0.000000000000     0.1281E-04   0.2623E-08
     3 -74.550949174277    0.000000000000     0.1936E-03   0.1639E-06
     4 -74.515608317324    0.000000000000     0.6817E-04   0.3453E-07
     5 -74.486659314034    0.000000000000     0.7939E-04   0.6944E-07
     6 -74.447954687696    0.000000000000     0.5080E-03   0.2222E-05
     7 -74.423381233721    0.000000000000     0.2770E-03   0.2202E-06
     8 -74.418964079898    0.000000000000     0.1167E-03   0.2543E-07
     9 -74.313383595880    0.000000000000     0.2963E-05   0.2441E-10
    10 -74.305397566580    0.000000000000     0.1070E-04   0.6543E-09
  -------------------------------------------------------------------------

  Iteration:                 35
  Reduced space dimension:   50

  Root  Eigenvalue (Re)   Eigenvalue (Im)    |residual|   Delta E (Re)
  -------------------------------------------------------------------------
     1 -75.006406495243    0.000000000000     0.4278E-01   0.2975E-01
     2 -74.610617220390    0.000000000000     0.2751E-05   0.9186E-10
     3 -74.550949192817    0.000000000000     0.3829E-04   0.1854E-07
     4 -74.515608319181    0.000000000000     0.3491E-04   0.1857E-08
     5 -74.486659317474    0.000000000000     0.1530E-04   0.3440E-08
     6 -74.447954815998    0.000000000000     0.9908E-04   0.1283E-06
     7 -74.423381272181    0.000000000000     0.6550E-04   0.3846E-07
     8 -74.418964086928    0.000000000000     0.2843E-04   0.7031E-08
     9 -74.313383595885    0.000000000000     0.8156E-06   0.4746E-11
    10 -74.305397566646    0.000000000000     0.2782E-05   0.6675E-10
  -------------------------------------------------------------------------

  Iteration:                 36
  Reduced space dimension:   60

  Root  Eigenvalue (Re)   Eigenvalue (Im)    |residual|   Delta E (Re)
  -------------------------------------------------------------------------
     1 -75.007095927537    0.000000000000     0.6684E-02   0.6894E-03
     2 -74.610617220395    0.000000000000     0.5961E-06   0.4249E-11
     3 -74.550949193609    0.000000000000     0.8315E-05   0.7923E-09
     4 -74.515608319863    0.000000000000     0.7437E-05   0.6818E-09
     5 -74.486659317617    0.000000000000     0.3803E-05   0.1434E-09
     6 -74.447954821887    0.000000000000     0.2654E-04   0.5889E-08
     7 -74.423381274774    0.000000000000     0.1825E-04   0.2593E-08
     8 -74.418964087361    0.000000000000     0.7177E-05   0.4325E-09
     9 -74.313383595886    0.000000000000     0.2527E-06   0.5684E-12
    10 -74.305397566653    0.000000000000     0.8122E-06   0.6168E-11
  -------------------------------------------------------------------------

  Iteration:                 37
  Reduced space dimension:   70

  Root  Eigenvalue (Re)   Eigenvalue (Im)    |residual|   Delta E (Re)
  -------------------------------------------------------------------------
     1 -75.007115572895    0.000000000000     0.1080E-02   0.1965E-04
     2 -74.610617220395    0.000000000000     0.1158E-06   0.4832E-12
     3 -74.550949193648    0.000000000000     0.2012E-05   0.3894E-10
     4 -74.515608319900    0.000000000000     0.1630E-05   0.3696E-10
     5 -74.486659317626    0.000000000000     0.9166E-06   0.8285E-11
     6 -74.447954822295    0.000000000000     0.7096E-05   0.4085E-09
     7 -74.423381274971    0.000000000000     0.4753E-05   0.1973E-09
     8 -74.418964087392    0.000000000000     0.1961E-05   0.3118E-10
     9 -74.313383595885    0.000000000000     0.8673E-07   0.2984E-12
    10 -74.305397566653    0.000000000000     0.2822E-06   0.1847E-12
  -------------------------------------------------------------------------

  Iteration:                 38
  Reduced space dimension:   80

  Root  Eigenvalue (Re)   Eigenvalue (Im)    |residual|   Delta E (Re)
  -------------------------------------------------------------------------
     1 -75.007116008502    0.000000000000     0.1458E-03   0.4356E-06
     2 -74.610617220395    0.000000000000     0.2149E-07   0.2274E-12
     3 -74.550949193651    0.000000000000     0.4532E-06   0.2430E-11
     4 -74.515608319901    0.000000000000     0.3189E-06   0.1293E-11
     5 -74.486659317626    0.000000000000     0.1832E-06   0.2984E-12
     6 -74.447954822326    0.000000000000     0.1653E-05   0.3072E-10
     7 -74.423381274987    0.000000000000     0.1198E-05   0.1577E-10
     8 -74.418964087394    0.000000000000     0.4785E-06   0.2188E-11
     9 -74.313383595886    0.000000000000     0.2682E-07   0.3268E-12
    10 -74.305397566653    0.000000000000     0.1477E-06   0.2984E-12
  -------------------------------------------------------------------------

  Iteration:                 39
  Reduced space dimension:   90

  Root  Eigenvalue (Re)   Eigenvalue (Im)    |residual|   Delta E (Re)
  -------------------------------------------------------------------------
     1 -75.007116015922    0.000000000000     0.1766E-04   0.7420E-08
     2 -74.610617220395    0.000000000000     0.3249E-08   0.7105E-13
     3 -74.550949193651    0.000000000000     0.6960E-07   0.3553E-12
     4 -74.515608319902    0.000000000000     0.6928E-07   0.6253E-12
     5 -74.486659317627    0.000000000000     0.3277E-07   0.4690E-12
     6 -74.447954822328    0.000000000000     0.3023E-06   0.1791E-11
     7 -74.423381274988    0.000000000000     0.2548E-06   0.9663E-12
     8 -74.418964087394    0.000000000000     0.9379E-07   0.3695E-12
     9 -74.313383595886    0.000000000000     0.5687E-08   0.2416E-12
    10 -74.305397566653    0.000000000000     0.5767E-07   0.1563E-12
  -------------------------------------------------------------------------

  Iteration:                 40
  Reduced space dimension:  100

  Root  Eigenvalue (Re)   Eigenvalue (Im)    |residual|   Delta E (Re)
  -------------------------------------------------------------------------
     1 -75.007116016034    0.000000000000     0.2098E-05   0.1123E-09
     2 -74.610617220395    0.000000000000     0.3980E-09   0.1279E-12
     3 -74.550949193651    0.000000000000     0.1054E-07   0.1421E-13
     4 -74.515608319901    0.000000000000     0.1274E-07   0.6963E-12
     5 -74.486659317626    0.000000000000     0.5376E-08   0.1990E-12
     6 -74.447954822328    0.000000000000     0.4650E-07   0.1421E-12
     7 -74.423381274988    0.000000000000     0.4178E-07   0.2558E-12
     8 -74.418964087395    0.000000000000     0.2078E-07   0.2416E-12
     9 -74.313383595886    0.000000000000     0.1277E-08   0.3126E-12
    10 -74.305397566653    0.000000000000     0.1563E-07   0.2558E-12
  -------------------------------------------------------------------------

  Iteration:                 41
  Reduced space dimension:   10

  Root  Eigenvalue (Re)   Eigenvalue (Im)    |residual|   Delta E (Re)
  -------------------------------------------------------------------------
     1 -75.007116016034    0.000000000000     0.2098E-05   0.1421E-13
     2 -74.610617220395    0.000000000000     0.3980E-09   0.2416E-12
     3 -74.550949193651    0.000000000000     0.1054E-07   0.0000E+00
     4 -74.515608319901    0.000000000000     0.1274E-07   0.5684E-13
     5 -74.486659317626    0.000000000000     0.5376E-08   0.5684E-13
     6 -74.447954822328    0.000000000000     0.4650E-07   0.2558E-12
     7 -74.423381274988    0.000000000000     0.4178E-07   0.1279E-12
     8 -74.418964087394    0.000000000000     0.2078E-07   0.2558E-12
     9 -74.313383595885    0.000000000000     0.1277E-08   0.1137E-12
    10 -74.305397566653    0.000000000000     0.1563E-07   0.7105E-13
  -------------------------------------------------------------------------

  Iteration:                 42
  Reduced space dimension:   20

  Root  Eigenvalue (Re)   Eigenvalue (Im)    |residual|   Delta E (Re)
  -------------------------------------------------------------------------
     1 -75.007116016036    0.000000000000     0.3134E-06   0.1648E-11
     2 -74.610617220395    0.000000000000     0.6653E-10   0.7105E-13
     3 -74.550949193651    0.000000000000     0.1880E-08   0.9948E-13
     4 -74.515608319901    0.000000000000     0.2396E-08   0.1421E-13
     5 -74.486659317626    0.000000000000     0.9932E-09   0.4263E-13
     6 -74.447954822328    0.000000000000     0.8908E-08   0.9948E-13
     7 -74.423381274988    0.000000000000     0.7628E-08   0.1137E-12
     8 -74.418964087394    0.000000000000     0.4429E-08   0.2842E-13
     9 -74.313383595886    0.000000000000     0.3115E-09   0.1421E-13
    10 -74.305397566653    0.000000000000     0.3963E-08   0.0000E+00
  -------------------------------------------------------------------------

  Iteration:                 43
  Reduced space dimension:   29

  Root  Eigenvalue (Re)   Eigenvalue (Im)    |residual|   Delta E (Re)
  -------------------------------------------------------------------------
     1 -75.007116016036    0.000000000000     0.5255E-07   0.0000E+00
     2 -74.610617220395    0.000000000000     0.5799E-10   0.2558E-12
     3 -74.550949193651    0.000000000000     0.4053E-09   0.2842E-13
     4 -74.515608319901    0.000000000000     0.1635E-08   0.1137E-12
     5 -74.486659317626    0.000000000000     0.2510E-09   0.4263E-13
     6 -74.447954822327    0.000000000000     0.2867E-08   0.1705E-12
     7 -74.423381274988    0.000000000000     0.2011E-08   0.0000E+00
     8 -74.418964087394    0.000000000000     0.1587E-08   0.8527E-13
     9 -74.313383595886    0.000000000000     0.1644E-09   0.7105E-13
    10 -74.305397566653    0.000000000000     0.2410E-08   0.1279E-12
  -------------------------------------------------------------------------

  Iteration:                 44
  Reduced space dimension:   38

  Root  Eigenvalue (Re)   Eigenvalue (Im)    |residual|   Delta E (Re)
  -------------------------------------------------------------------------
     1 -75.007116016036    0.000000000000     0.1306E-07   0.3268E-12
     2 -74.610617220395    0.000000000000     0.5406E-10   0.1421E-12
     3 -74.550949193651    0.000000000000     0.9882E-10   0.9948E-13
     4 -74.515608319901    0.000000000000     0.4283E-09   0.7105E-13
     5 -74.486659317626    0.000000000000     0.1028E-09   0.1421E-13
     6 -74.447954822328    0.000000000000     0.1246E-08   0.1137E-12
     7 -74.423381274988    0.000000000000     0.9835E-09   0.7105E-13
     8 -74.418964087394    0.000000000000     0.9838E-09   0.1705E-12
     9 -74.313383595885    0.000000000000     0.8478E-10   0.9948E-13
    10 -74.305397566653    0.000000000000     0.1551E-08   0.8527E-13
  -------------------------------------------------------------------------

  Iteration:                 45
  Reduced space dimension:   45

  Root  Eigenvalue (Re)   Eigenvalue (Im)    |residual|   Delta E (Re)
  -------------------------------------------------------------------------
     1 -75.007116016036    0.000000000000     0.2229E-08   0.2700E-12
     2 -74.610617220395    0.000000000000     0.5290E-10   0.7105E-13
     3 -74.550949193650    0.000000000000     0.6991E-10   0.3268E-12
     4 -74.515608319901    0.000000000000     0.3630E-09   0.1563E-12
     5 -74.486659317627    0.000000000000     0.3340E-10   0.2558E-12
     6 -74.447954822327    0.000000000000     0.3073E-09   0.2700E-12
     7 -74.423381274988    0.000000000000     0.3296E-09   0.9948E-13
     8 -74.418964087394    0.000000000000     0.3497E-09   0.4263E-13
     9 -74.313383595885    0.000000000000     0.4457E-10   0.1137E-12
    10 -74.305397566653    0.000000000000     0.6218E-09   0.1421E-13
  -------------------------------------------------------------------------

  Iteration:                 46
  Reduced space dimension:   51

  Root  Eigenvalue (Re)   Eigenvalue (Im)    |residual|   Delta E (Re)
  -------------------------------------------------------------------------
     1 -75.007116016036    0.000000000000     0.4048E-09   0.5684E-13
     2 -74.610617220394    0.000000000000     0.5154E-10   0.1847E-12
     3 -74.550949193651    0.000000000000     0.4588E-10   0.5684E-12
     4 -74.515608319901    0.000000000000     0.8724E-10   0.2842E-13
     5 -74.486659317626    0.000000000000     0.1891E-10   0.2132E-12
     6 -74.447954822328    0.000000000000     0.8775E-10   0.2132E-12
     7 -74.423381274988    0.000000000000     0.9579E-10   0.7105E-13
     8 -74.418964087394    0.000000000000     0.1067E-09   0.1421E-12
     9 -74.313383595886    0.000000000000     0.2771E-10   0.2274E-12
    10 -74.305397566653    0.000000000000     0.3344E-09   0.5684E-13
  -------------------------------------------------------------------------

  Iteration:                 47
  Reduced space dimension:   54

  Root  Eigenvalue (Re)   Eigenvalue (Im)    |residual|   Delta E (Re)
  -------------------------------------------------------------------------
     1 -75.007116016036    0.000000000000     0.6905E-10   0.0000E+00
     2 -74.610617220395    0.000000000000     0.5138E-10   0.1563E-12
     3 -74.550949193651    0.000000000000     0.4427E-10   0.2984E-12
     4 -74.515608319901    0.000000000000     0.7954E-10   0.1990E-12
     5 -74.486659317626    0.000000000000     0.1831E-10   0.1421E-13
     6 -74.447954822328    0.000000000000     0.5668E-10   0.8527E-13
     7 -74.423381274988    0.000000000000     0.7307E-10   0.1563E-12
     8 -74.418964087394    0.000000000000     0.3024E-10   0.1421E-13
     9 -74.313383595885    0.000000000000     0.2382E-10   0.9948E-13
    10 -74.305397566653    0.000000000000     0.2231E-09   0.9948E-13
  -------------------------------------------------------------------------

  Iteration:                 48
  Reduced space dimension:   55

  Root  Eigenvalue (Re)   Eigenvalue (Im)    |residual|   Delta E (Re)
  -------------------------------------------------------------------------
     1 -75.007116016036    0.000000000000     0.6892E-10   0.1137E-12
     2 -74.610617220395    0.000000000000     0.5136E-10   0.7105E-13
     3 -74.550949193651    0.000000000000     0.4371E-10   0.5684E-13
     4 -74.515608319901    0.000000000000     0.7946E-10   0.2416E-12
     5 -74.486659317626    0.000000000000     0.1826E-10   0.2842E-13
     6 -74.447954822328    0.000000000000     0.5593E-10   0.2984E-12
     7 -74.423381274988    0.000000000000     0.7262E-10   0.2700E-12
     8 -74.418964087394    0.000000000000     0.2697E-10   0.8527E-13
     9 -74.313383595885    0.000000000000     0.1905E-10   0.5684E-13
    10 -74.305397566653    0.000000000000     0.6697E-10   0.1421E-13
  -------------------------------------------------------------------------
  Convergence criterion met in 48 iterations!

  - CI amplitudes:

     Electronic state nr. 1

     Energy (Hartree):     -75.007116016036
     Spin Multiplicity:      1.000000000000

     Largest CI amplitudes:
     ---------------------------
     0022222     -0.987288672283
     2022022      0.073824157946
     0222022      0.044380460425
     ba2ba22      0.044039633593
     ab2ab22      0.044039633592
     0220222      0.043896663140
     2020222      0.039379407286
     022a2b2     -0.033717146415
     022b2a2     -0.033717146413
     ab2ba22      0.033523360069
     ---------------------------

     Electronic state nr. 2

     Energy (Hartree):     -74.610617220395
     Spin Multiplicity:      3.000000000000

     Largest CI amplitudes:
     ---------------------------
     0ab2222     -0.692078645965
     0ba2222      0.692078645964
     bab2a22     -0.098013611252
     aba2b22      0.098013611249
     2ab2022      0.049366250123
     2ba2022     -0.049366250122
     20ba222     -0.048404989610
     20ab222      0.048404989609
     02ab222      0.045498129216
     02ba222     -0.045498129215
     ---------------------------

     Electronic state nr. 3

     Energy (Hartree):     -74.550949193651
     Spin Multiplicity:      1.000000000000

     Largest CI amplitudes:
     ---------------------------
     0ba2222      0.686258832627
     0ab2222      0.686258832626
     bab2a22      0.092094025766
     aba2b22      0.092094025765
     abb2a22      0.075050466287
     baa2b22      0.075050466285
     02a22b2     -0.062669057602
     02b22a2     -0.062669057599
     02ab222      0.054724518791
     02ba222      0.054724518778
     ---------------------------

     Electronic state nr. 4

     Energy (Hartree):     -74.515608319901
     Spin Multiplicity:      3.000000000000

     Largest CI amplitudes:
     ---------------------------
     0a2b222      0.685162874544
     0b2a222     -0.685162874542
     a022b22      0.117456878165
     b022a22     -0.117456878157
     ba2ba22      0.075091722018
     ab2ab22     -0.075091722016
     0b222a2      0.058988030428
     0a222b2     -0.058988030427
     2a2b022     -0.056148702071
     2b2a022      0.056148702067
     ---------------------------

     Electronic state nr. 5

     Energy (Hartree):     -74.486659317626
     Spin Multiplicity:      3.000000000000

     Largest CI amplitudes:
     ---------------------------
     b0a2222      0.690607550331
     a0b2222     -0.690607550327
     02b2a22     -0.076933437906
     02a2b22      0.076933437906
     abba222     -0.065366615244
     baab222      0.065366615244
     abab222      0.051312540997
     baba222     -0.051312540996
     abb22a2      0.045609119774
     baa22b2     -0.045609119774
     ---------------------------

     Electronic state nr. 6

     Energy (Hartree):     -74.447954822328
     Spin Multiplicity:      1.000000000000

     Largest CI amplitudes:
     ---------------------------
     a0b2222     -0.687398024222
     b0a2222     -0.687398024218
     20b2a22     -0.077890217677
     20a2b22     -0.077890217675
     02a2b22     -0.068358464780
     02b2a22     -0.068358464768
     baba222     -0.061842758052
     abab222     -0.061842758049
     baab222     -0.055232561139
     abba222     -0.055232561136
     ---------------------------

     Electronic state nr. 7

     Energy (Hartree):     -74.423381274988
     Spin Multiplicity:      1.000000000000

     Largest CI amplitudes:
     ---------------------------
     0a2b222      0.675148979330
     0b2a222      0.675148979328
     a022b22     -0.119225100764
     b022a22     -0.119225100748
     0220222      0.099642820602
     2020222      0.083549189216
     ba2ba22      0.078350445255
     ab2ab22      0.078350445254
     0222022     -0.057109407308
     0a222b2      0.056927921547
     ---------------------------

     Electronic state nr. 8

     Energy (Hartree):     -74.418964087394
     Spin Multiplicity:      3.000000000000

     Largest CI amplitudes:
     ---------------------------
     a02b222      0.625135601592
     b02a222     -0.625135601591
     0a22b22      0.312639835139
     0b22a22     -0.312639835134
     022ab22     -0.057794264872
     022ba22      0.057794264871
     b22a022     -0.046816512006
     a22b022      0.046816512006
     2a20b22      0.041485583572
     2b20a22     -0.041485583571
     ---------------------------

     Electronic state nr. 9

     Energy (Hartree):     -74.313383595885
     Spin Multiplicity:      3.000000000000

     Largest CI amplitudes:
     ---------------------------
     0b22a22     -0.620580865149
     0a22b22      0.620580865139
     b02a222      0.308860993638
     a02b222     -0.308860993629
     a0222b2     -0.091069804436
     b0222a2      0.091069804436
     202ba22     -0.056438183814
     202ab22      0.056438183809
     022ab22      0.050046680294
     022ba22     -0.050046680288
     ---------------------------

     Electronic state nr. 10

     Energy (Hartree):     -74.305397566653
     Spin Multiplicity:      1.000000000000

     Largest CI amplitudes:
     ---------------------------
     a02b222      0.640277132195
     b02a222      0.640277132189
     0a22b22     -0.248521189074
     0b22a22     -0.248521189068
     ba20222      0.108562155569
     ab20222      0.108562155568
     022ab22      0.082435754122
     022ba22      0.082435754122
     ba22022     -0.050867878976
     ab22022     -0.050867878970
     ---------------------------

  - Electronic energies:

                                      Energy
                          ------------------------------------------
      State                (Hartree)             (eV)
     ---------------------------------------------------------------
        1                -75.007116016036    -2041.047588159277
        2                -74.610617220395    -2030.258306374616
        3                -74.550949193651    -2028.634656665840
        4                -74.515608319901    -2027.672982507942
        5                -74.486659317626    -2026.885240032160
        6                -74.447954822328    -2025.832037069886
        7                -74.423381274988    -2025.163356787334
        8                -74.418964087394    -2025.043158990607
        9                -74.313383595885    -2022.170167479974
       10                -74.305397566653    -2021.952856555760
     ---------------------------------------------------------------
     eV/Hartree (CODATA 2014): 27.21138602

  Peak memory usage during the execution of eT: 663.552 KB

  Total wall time in eT (sec):              0.31471
  Total cpu time in eT (sec):               0.58828

  Calculation end:2022-06-30 08:49:33 UTC +02:00

  - Implementation references:

     eT: https://doi.org/10.1063/5.0004713
     Cholesky decomposition of ERIs: https://doi.org/10.1063/1.5083802

  eT terminated successfully!
