


                     eT 1.8 - an electronic structure program

  ------------------------------------------------------------------------
   Author list in alphabetical order:
  ------------------------------------------------------------------------
   J. H. Andersen, A. Balbi, S. Coriani, S. D. Folkestad, T. Giovannini, 
   L. Goletto, T. S. Haugland, A. Hutcheson, I-M. Høyvik, E. F. Kjønstad, 
   H. Koch, R. Matveeva, T. Moitra, R. H. Myhre, A. C. Paul, S. Roet, 
   E. Ronca, M. Scavino, A. K. Schnack-Petersen, A. S. Skeidsvoll, Å. 
   H. Tveten
  ------------------------------------------------------------------------
   J. Chem. Phys. 152, 184103 (2020); https://doi.org/10.1063/5.0004713


   This is eT 1.8.0 Ibiza
  ------------------------------------------------------------
  Configuration date: 2022-06-30 08:43:06 UTC +02:00
  Git branch:         release-v1.8.0
  Git hash:           9204bbd8a5d9984444afd222ec28d0f1c1e17adf
  Fortran compiler:   GNU 9.4.0
  C compiler:         GNU 9.4.0
  C++ compiler:       GNU 9.4.0
  LAPACK type:        MKL
  BLAS type:          MKL
  64-bit integers:    ON
  OpenMP:             ON
  PCM:                OFF
  Forced batching:    OFF
  Runtime checks:     OFF
  ------------------------------------------------------------


  :: Input file
  ================

     Note: geometry section is excluded from this print

     system
        name: h2o he
        charge: 0
     end system

     do
        ground state
        excited state
     end do

     memory
        available: 8
     end memory

     solver cholesky
        threshold: 1.0d-12
     end solver cholesky

     solver scf
        algorithm:          scf-diis
        energy threshold:   1.0d-10
        gradient threshold: 1.0d-10
     end solver scf

     method
        hf
        ccsd
     end method

     solver cc gs
        omega threshold:  1.0d-10
        energy threshold: 1.0d-10
     end solver cc gs

     solver cc es
        core excitation:    {1}
        algorithm:          davidson
        singlet states:     2
        residual threshold: 1.0d-10
        energy threshold:   1.0d-10
        right eigenvectors
     end solver cc es


  Calculation start:2022-06-30 08:46:44 UTC +02:00

  Running on 2 OMP threads
  Memory available for calculation: 8.000000 GB


  :: RHF wavefunction
  ===================

     ==============================================================================
                                     Geometry (angstrom)
     ==============================================================================
        Atom           X                  Y                  Z         # in input
     ==============================================================================
        Basis: cc-pvdz
        1  H     0.866810000000     0.601440000000     5.000000000000        1
        2  H    -0.866810000000     0.601440000000     5.000000000000        2
        3  O     0.000000000000    -0.075790000000     5.000000000000        3
        4 He     0.100000000000    -0.020000000000     7.530000000000        4
     ==============================================================================

     ==============================================================================
                                     Geometry (a.u.)
     ==============================================================================
        Atom           X                  Y                  Z         # in input
     ==============================================================================
        Basis: cc-pvdz
        1  H     1.638033502034     1.136556880358     9.448630622825        1
        2  H    -1.638033502034     1.136556880358     9.448630622825        2
        3  O     0.000000000000    -0.143222342981     9.448630622825        3
        4 He     0.188972612457    -0.037794522491    14.229637717975        4
     ==============================================================================

  - Cholesky decomposition of AO overlap to get linearly independent AOs:

     Linear dependence threshold:             0.10E-05
     Number of atomic orbitals:               29
     Number of orthonormal atomic orbitals:   29

  - Molecular orbital details:

     Number of occupied orbitals:         6
     Number of virtual orbitals:         23
     Number of molecular orbitals:       29


  Generating initial SAD density
  ==============================


  Determining reference state
  ===========================

  - Setting initial AO density to sad

     Energy of initial guess:               -78.492022836361
     Number of electrons in guess:           12.000000000000

  - Screening and integral thresholds:

     Coulomb screening threshold:    0.1000E-15
     Exchange screening threshold:   0.1000E-13
     ERI cutoff:                     0.1000E-15
     One-electron integral  cutoff:  0.1000E-20
     Cumulative Fock threshold:      0.1000E+01

  - SCF solver settings:

     Maximum iterations:                   100
     Acceleration type:                   diis

  - Convergence thresholds

     Residual threshold:            0.1000E-09
     Energy threshold:              0.1000E-09

  - DIIS tool settings:

     DIIS dimension:   8

     Storage (solver scf_errors): memory
     Storage (solver scf_parameters): memory

  Iteration       Energy (a.u.)      Max(grad.)    Delta E (a.u.)
  ---------------------------------------------------------------
     1           -78.796606592568     0.9786E-01     0.7880E+02
     2           -78.828675852646     0.7077E-01     0.3207E-01
     3           -78.843487343819     0.6747E-02     0.1481E-01
     4           -78.843814479549     0.2753E-02     0.3271E-03
     5           -78.843850612079     0.3973E-03     0.3613E-04
     6           -78.843851670925     0.5220E-04     0.1059E-05
     7           -78.843851692779     0.6096E-05     0.2185E-07
     8           -78.843851693528     0.2137E-05     0.7487E-09
     9           -78.843851693630     0.3151E-06     0.1028E-09
    10           -78.843851693631     0.2637E-07     0.4263E-12
    11           -78.843851693631     0.5634E-08     0.4263E-13
    12           -78.843851693631     0.1415E-08     0.1421E-13
    13           -78.843851693631     0.6806E-09     0.2842E-13
    14           -78.843851693631     0.1491E-09     0.0000E+00
    15           -78.843851693631     0.2501E-10     0.5684E-13
  ---------------------------------------------------------------
  Convergence criterion met in 15 iterations!

  - Summary of RHF wavefunction energetics (a.u.):

     HOMO-LUMO gap:                  0.645629080219
     Nuclear repulsion energy:      12.116100574587
     Electronic energy:            -90.959952268218
     Total energy:                 -78.843851693631


  :: CCSD wavefunction
  ====================

     Bath orbital(s):         False

   - Number of orbitals:

     Occupied orbitals:    6
     Virtual orbitals:     23
     Molecular orbitals:   29
     Atomic orbitals:      29

   - Number of ground state amplitudes:

     Single excitation amplitudes:  138
     Double excitation amplitudes:  9591


  Cholesky-decomposing electron repulsion integrals
  =================================================

  Cholesky decomposition of electronic repulsion integrals solver
  ---------------------------------------------------------------

  Performs a Cholesky decomposition of the two-electron electronic repulsion 
  integrals in the atomic orbital basis,

  (ab|cd) = sum_J L_ab^J L_cd^J.

  Once the Cholesky basis has been determined, the vectors L^J are constructed 
  and stored to disk. These may either be used directly, or be transformed 
  to the MO basis for use in post-HF calculations. For more information, 
  see S. D. Folkestad, E. F. Kjønstad and H. Koch, JCP, 150(19), (2019)

  - Cholesky decomposition settings:

     Target threshold is:   0.10E-11
     Span factor:           0.10E-01
     Max qual:                  1000

  - Cholesky decomposition ao details:

     Total number of AOs:                    29
     Total number of shell pairs:           120
     Total number of AO pairs:              435

     Significant shell pairs:               118
     Significant AO pairs:                  431

     Construct shell pairs:                 120
     Construct AO pairs:                    435

  Iter.  #Sign. ao pairs / shell pairs   Max diagonal    #Qualified    #Cholesky    Cholesky array size
  -------------------------------------------------------------------------------------------------------
     1               406 /     108       0.47383E+01         147             42             17052
     2               319 /      93       0.47165E-01         234            111             35409
     3               250 /      76       0.46944E-03         178            183             45750
     4               187 /      55       0.38270E-05         145            265             49555
     5                87 /      25       0.38106E-07          78            324             28188
     6                21 /       3       0.37202E-09          43            349              7329
     7                 0 /       0       0.36652E-11           7            354                 0
  -------------------------------------------------------------------------------------------------------

  - Summary of Cholesky decomposition of electronic repulsion integrals:

     Final number of Cholesky vectors: 354

 - Testing the Cholesky decomposition decomposition electronic repulsion integrals:

     Maximal difference between approximate and actual diagonal:              0.7161E-12
     Minimal element of difference between approximate and actual diagonal:  -0.1238E-14

  - Settings for integral handling:

     Cholesky vectors in memory: True
     ERI matrix in memory:       True

  - Finished decomposing the ERIs.

     Total wall time (sec):              0.27392
     Total cpu time (sec):               0.55156


  Determining CC cluster amplitudes
  =================================

   - DIIS coupled cluster ground state solver
  ----------------------------------------------

  A DIIS CC ground state amplitude equations solver. It uses an extrapolation 
  of previous quasi-Newton perturbation theory estimates of the next amplitudes. 
  See Helgaker et al., Molecular Electronic Structure Theory, Chapter 
  13.

  - CC ground state solver settings:

  - Convergence thresholds

     Residual threshold:            0.1000E-09
     Energy threshold:              0.1000E-09
     Max number of iterations:      100

  - DIIS tool settings:

     DIIS dimension:   8

     Storage (cc_gs_diis_errors): file
     Storage (cc_gs_diis_parameters): file

  Iteration    Energy (a.u.)        |omega|       Delta E (a.u.)
  ---------------------------------------------------------------
    1           -79.084241931609     0.9391E-01     0.7908E+02
    2           -79.092586666607     0.2720E-01     0.8345E-02
    3           -79.099408028306     0.7507E-02     0.6821E-02
    4           -79.100345871309     0.2095E-02     0.9378E-03
    5           -79.100371860301     0.5154E-03     0.2599E-04
    6           -79.100393801016     0.2313E-03     0.2194E-04
    7           -79.100385611260     0.4933E-04     0.8190E-05
    8           -79.100384217524     0.1180E-04     0.1394E-05
    9           -79.100383621794     0.4135E-05     0.5957E-06
   10           -79.100383427012     0.1779E-05     0.1948E-06
   11           -79.100383466393     0.6705E-06     0.3938E-07
   12           -79.100383474629     0.2989E-06     0.8237E-08
   13           -79.100383487351     0.1028E-06     0.1272E-07
   14           -79.100383481864     0.3056E-07     0.5487E-08
   15           -79.100383481091     0.6508E-08     0.7730E-09
   16           -79.100383481302     0.2112E-08     0.2110E-09
   17           -79.100383481484     0.6588E-09     0.1819E-09
   18           -79.100383481546     0.1594E-09     0.6158E-10
   19           -79.100383481554     0.5326E-10     0.7901E-11
  ---------------------------------------------------------------
  Convergence criterion met in 19 iterations!

  - Ground state summary:

     Final ground state energy (a.u.):   -79.100383481554

     Correlation energy (a.u.):           -0.256531787923

     Largest single amplitudes:
     -----------------------------------
        a       i         t(a,i)
     -----------------------------------
        1      5        0.014740597500
       14      4       -0.009546856217
        7      4        0.008284826482
       15      5       -0.006124828871
        4      5        0.005606072690
        6      2        0.005476844296
        2      4        0.005318591716
       13      5        0.005269818339
        5      6        0.004933006887
       11      6       -0.003454309400
     ------------------------------------

     Largest double amplitudes:
     --------------------------------------------------
        a      i       b      j         t(ai,bj)
     --------------------------------------------------
        2      4       2      4       -0.047351708918
        5      6       5      6       -0.046240574400
        9      3       9      3       -0.041367012251
        3      4       3      4       -0.036659067518
        6      5       6      5       -0.034554012170
        1      5       1      5       -0.034177347751
       16      3      16      3       -0.032108235347
       17      3      17      3       -0.032052553602
       18      3      18      3       -0.031351828683
        2      4       3      4       -0.029701270697
     --------------------------------------------------

  - Finished solving the CCSD ground state equations

     Total wall time (sec):              0.41948
     Total cpu time (sec):               0.83933


  Determining CC excited state amplitudes
  =======================================

  Davidson eigenvalue equation solver
  -----------------------------------

  A Davidson solver that solves an eigenvalue equation: M x = omega x. 
  This equation is solved in a reduced space. A description of the algorithm 
  can be found in E. R. Davidson, J. Comput. Phys. 17, 87 (1975).

   - Davidson tool settings:

     Number of parameters:                 9729
     Number of requested solutions:           2
     Max reduced space dimension:           100

     Storage (cc_es_davidson_trials): file
     Storage (cc_es_davidson_transforms): file

  - Davidson solver settings

     Number of singlet states:               2
     Max number of iterations:             100

  Iteration:                  1
  Reduced space dimension:    2

  Root  Eigenvalue (Re)   Eigenvalue (Im)    |residual|   Delta E (Re)
  -------------------------------------------------------------------------
     1  20.322967277654    0.000000000000     0.9378E+00   0.2032E+02
     2  20.385487902812    0.000000000000     0.9430E+00   0.2039E+02
  -------------------------------------------------------------------------

  Iteration:                  2
  Reduced space dimension:    4

  Root  Eigenvalue (Re)   Eigenvalue (Im)    |residual|   Delta E (Re)
  -------------------------------------------------------------------------
     1  19.764074578669    0.000000000000     0.2436E+00   0.5589E+00
     2  19.830629060420    0.000000000000     0.2672E+00   0.5549E+00
  -------------------------------------------------------------------------

  Iteration:                  3
  Reduced space dimension:    6

  Root  Eigenvalue (Re)   Eigenvalue (Im)    |residual|   Delta E (Re)
  -------------------------------------------------------------------------
     1  19.736463436325    0.000000000000     0.9467E-01   0.2761E-01
     2  19.794046815546    0.000000000000     0.1119E+00   0.3658E-01
  -------------------------------------------------------------------------

  Iteration:                  4
  Reduced space dimension:    8

  Root  Eigenvalue (Re)   Eigenvalue (Im)    |residual|   Delta E (Re)
  -------------------------------------------------------------------------
     1  19.740054603619    0.000000000000     0.6037E-01   0.3591E-02
     2  19.795990268631    0.000000000000     0.7417E-01   0.1943E-02
  -------------------------------------------------------------------------

  Iteration:                  5
  Reduced space dimension:   10

  Root  Eigenvalue (Re)   Eigenvalue (Im)    |residual|   Delta E (Re)
  -------------------------------------------------------------------------
     1  19.743571773038    0.000000000000     0.2525E-01   0.3517E-02
     2  19.800170978437    0.000000000000     0.3308E-01   0.4181E-02
  -------------------------------------------------------------------------

  Iteration:                  6
  Reduced space dimension:   12

  Root  Eigenvalue (Re)   Eigenvalue (Im)    |residual|   Delta E (Re)
  -------------------------------------------------------------------------
     1  19.742565858362    0.000000000000     0.1064E-01   0.1006E-02
     2  19.799062714202    0.000000000000     0.1531E-01   0.1108E-02
  -------------------------------------------------------------------------

  Iteration:                  7
  Reduced space dimension:   14

  Root  Eigenvalue (Re)   Eigenvalue (Im)    |residual|   Delta E (Re)
  -------------------------------------------------------------------------
     1  19.742014047828    0.000000000000     0.2463E-02   0.5518E-03
     2  19.798257172117    0.000000000000     0.3782E-02   0.8055E-03
  -------------------------------------------------------------------------

  Iteration:                  8
  Reduced space dimension:   16

  Root  Eigenvalue (Re)   Eigenvalue (Im)    |residual|   Delta E (Re)
  -------------------------------------------------------------------------
     1  19.741964730650    0.000000000000     0.8987E-03   0.4932E-04
     2  19.798226459620    0.000000000000     0.1359E-02   0.3071E-04
  -------------------------------------------------------------------------

  Iteration:                  9
  Reduced space dimension:   18

  Root  Eigenvalue (Re)   Eigenvalue (Im)    |residual|   Delta E (Re)
  -------------------------------------------------------------------------
     1  19.741967731945    0.000000000000     0.2703E-03   0.3001E-05
     2  19.798254953598    0.000000000000     0.4044E-03   0.2849E-04
  -------------------------------------------------------------------------

  Iteration:                 10
  Reduced space dimension:   20

  Root  Eigenvalue (Re)   Eigenvalue (Im)    |residual|   Delta E (Re)
  -------------------------------------------------------------------------
     1  19.741970130811    0.000000000000     0.1004E-03   0.2399E-05
     2  19.798265429937    0.000000000000     0.1208E-03   0.1048E-04
  -------------------------------------------------------------------------

  Iteration:                 11
  Reduced space dimension:   22

  Root  Eigenvalue (Re)   Eigenvalue (Im)    |residual|   Delta E (Re)
  -------------------------------------------------------------------------
     1  19.741969186325    0.000000000000     0.3217E-04   0.9445E-06
     2  19.798262656809    0.000000000000     0.4043E-04   0.2773E-05
  -------------------------------------------------------------------------

  Iteration:                 12
  Reduced space dimension:   24

  Root  Eigenvalue (Re)   Eigenvalue (Im)    |residual|   Delta E (Re)
  -------------------------------------------------------------------------
     1  19.741968954306    0.000000000000     0.1161E-04   0.2320E-06
     2  19.798262336786    0.000000000000     0.1009E-04   0.3200E-06
  -------------------------------------------------------------------------

  Iteration:                 13
  Reduced space dimension:   26

  Root  Eigenvalue (Re)   Eigenvalue (Im)    |residual|   Delta E (Re)
  -------------------------------------------------------------------------
     1  19.741969049655    0.000000000000     0.3956E-05   0.9535E-07
     2  19.798262278974    0.000000000000     0.2611E-05   0.5781E-07
  -------------------------------------------------------------------------

  Iteration:                 14
  Reduced space dimension:   28

  Root  Eigenvalue (Re)   Eigenvalue (Im)    |residual|   Delta E (Re)
  -------------------------------------------------------------------------
     1  19.741969067274    0.000000000000     0.1041E-05   0.1762E-07
     2  19.798262271446    0.000000000000     0.7188E-06   0.7528E-08
  -------------------------------------------------------------------------

  Iteration:                 15
  Reduced space dimension:   30

  Root  Eigenvalue (Re)   Eigenvalue (Im)    |residual|   Delta E (Re)
  -------------------------------------------------------------------------
     1  19.741969085154    0.000000000000     0.2566E-06   0.1788E-07
     2  19.798262297815    0.000000000000     0.1836E-06   0.2637E-07
  -------------------------------------------------------------------------

  Iteration:                 16
  Reduced space dimension:   32

  Root  Eigenvalue (Re)   Eigenvalue (Im)    |residual|   Delta E (Re)
  -------------------------------------------------------------------------
     1  19.741969094999    0.000000000000     0.7472E-07   0.9845E-08
     2  19.798262306371    0.000000000000     0.4855E-07   0.8556E-08
  -------------------------------------------------------------------------

  Iteration:                 17
  Reduced space dimension:   34

  Root  Eigenvalue (Re)   Eigenvalue (Im)    |residual|   Delta E (Re)
  -------------------------------------------------------------------------
     1  19.741969098273    0.000000000000     0.2510E-07   0.3274E-08
     2  19.798262308269    0.000000000000     0.1372E-07   0.1898E-08
  -------------------------------------------------------------------------

  Iteration:                 18
  Reduced space dimension:   36

  Root  Eigenvalue (Re)   Eigenvalue (Im)    |residual|   Delta E (Re)
  -------------------------------------------------------------------------
     1  19.741969098268    0.000000000000     0.7111E-08   0.4892E-11
     2  19.798262308552    0.000000000000     0.4432E-08   0.2833E-09
  -------------------------------------------------------------------------

  Iteration:                 19
  Reduced space dimension:   38

  Root  Eigenvalue (Re)   Eigenvalue (Im)    |residual|   Delta E (Re)
  -------------------------------------------------------------------------
     1  19.741969098052    0.000000000000     0.1879E-08   0.2157E-09
     2  19.798262308493    0.000000000000     0.1528E-08   0.5904E-10
  -------------------------------------------------------------------------

  Iteration:                 20
  Reduced space dimension:   40

  Root  Eigenvalue (Re)   Eigenvalue (Im)    |residual|   Delta E (Re)
  -------------------------------------------------------------------------
     1  19.741969098023    0.000000000000     0.5523E-09   0.2895E-10
     2  19.798262308492    0.000000000000     0.4824E-09   0.1773E-11
  -------------------------------------------------------------------------

  Iteration:                 21
  Reduced space dimension:   42

  Root  Eigenvalue (Re)   Eigenvalue (Im)    |residual|   Delta E (Re)
  -------------------------------------------------------------------------
     1  19.741969098027    0.000000000000     0.1852E-09   0.3418E-11
     2  19.798262308500    0.000000000000     0.1654E-09   0.8313E-11
  -------------------------------------------------------------------------

  Iteration:                 22
  Reduced space dimension:   44

  Root  Eigenvalue (Re)   Eigenvalue (Im)    |residual|   Delta E (Re)
  -------------------------------------------------------------------------
     1  19.741969098028    0.000000000000     0.6352E-10   0.1101E-11
     2  19.798262308501    0.000000000000     0.4507E-10   0.7390E-12
  -------------------------------------------------------------------------
  Convergence criterion met in 22 iterations!

  - Excitation vector amplitudes:

     Electronic state nr. 1

     Energy (Hartree):                 19.741969098028
     Fraction singles (|R1|/|R|):       0.937559649611

     Largest single amplitudes:
     -----------------------------------
        a       i         R(a,i)
     -----------------------------------
        1      1       -0.911752873503
        4      1       -0.191488504444
        6      1        0.082472040133
       13      1        0.050868965011
       15      1       -0.035733154386
        9      1        0.012581768438
       10      1       -0.011553648885
       11      1        0.007852331407
       22      1       -0.004153994586
        8      1        0.003990074185
     ------------------------------------

     Largest double amplitudes:
     --------------------------------------------------
        a      i       b      j         R(ai,bj)
     --------------------------------------------------
        1      1       5      6        0.133031485386
        1      1       2      4        0.128205084022
        1      1       6      5       -0.121901866532
        1      1       7      4       -0.108565147984
        1      1       1      5        0.096038707120
        1      1       3      4        0.082134627198
        1      1       1      2        0.080273027761
        1      1       4      5        0.071158693576
        1      1      13      2       -0.063624701857
        1      1      14      4        0.058879152106
     --------------------------------------------------

     Electronic state nr. 2

     Energy (Hartree):                 19.798262308501
     Fraction singles (|R1|/|R|):       0.938869734034

     Largest single amplitudes:
     -----------------------------------
        a       i         R(a,i)
     -----------------------------------
        2      1       -0.894726115992
        3      1       -0.240526198909
        7      1        0.141166323724
       14      1       -0.054612641265
       12      1        0.011623954956
       23      1       -0.006218983162
        4      1       -0.001403884599
        5      1       -0.001044786698
       17      1        0.000840489248
        1      1        0.000663563182
     ------------------------------------

     Largest double amplitudes:
     --------------------------------------------------
        a      i       b      j         R(ai,bj)
     --------------------------------------------------
        2      1       2      4        0.140615578422
        2      1       5      6        0.128572395886
        2      1       6      5       -0.115185147006
        2      1       7      4       -0.106245116634
        2      1       1      5        0.087769161453
        2      1       3      4        0.079809753606
        2      1       4      5        0.070753011742
        2      1       1      2        0.066609206708
        2      1      13      2       -0.061143586007
        2      1      14      4        0.052163302819
     --------------------------------------------------

  - CCSD excitation energies:

                                      Excitation energy
                          ------------------------------------------
      State                (Hartree)             (eV)
     ---------------------------------------------------------------
        1                 19.741969098028      537.206341921349
        2                 19.798262308501      538.738158201826
     ---------------------------------------------------------------
     eV/Hartree (CODATA 2014): 27.21138602

  Peak memory usage during the execution of eT: 14.635496 MB

  Total wall time in eT (sec):              2.05983
  Total cpu time in eT (sec):               4.05455

  Calculation end:2022-06-30 08:46:46 UTC +02:00

  - Implementation references:

     eT: https://doi.org/10.1063/5.0004713
     Cholesky decomposition of ERIs: https://doi.org/10.1063/1.5083802

  eT terminated successfully!
