


                     eT 1.8 - an electronic structure program

  ------------------------------------------------------------------------
   Author list in alphabetical order:
  ------------------------------------------------------------------------
   J. H. Andersen, A. Balbi, S. Coriani, S. D. Folkestad, T. Giovannini, 
   L. Goletto, T. S. Haugland, A. Hutcheson, I-M. Høyvik, E. F. Kjønstad, 
   H. Koch, R. Matveeva, T. Moitra, R. H. Myhre, A. C. Paul, S. Roet, 
   E. Ronca, M. Scavino, A. K. Schnack-Petersen, A. S. Skeidsvoll, Å. 
   H. Tveten
  ------------------------------------------------------------------------
   J. Chem. Phys. 152, 184103 (2020); https://doi.org/10.1063/5.0004713


   This is eT 1.8.0 Ibiza
  ------------------------------------------------------------
  Configuration date: 2022-06-30 08:43:06 UTC +02:00
  Git branch:         release-v1.8.0
  Git hash:           9204bbd8a5d9984444afd222ec28d0f1c1e17adf
  Fortran compiler:   GNU 9.4.0
  C compiler:         GNU 9.4.0
  C++ compiler:       GNU 9.4.0
  LAPACK type:        MKL
  BLAS type:          MKL
  64-bit integers:    ON
  OpenMP:             ON
  PCM:                OFF
  Forced batching:    OFF
  Runtime checks:     OFF
  ------------------------------------------------------------


  :: Input file
  ================

     Note: geometry section is excluded from this print

     system
        name: h2+
        charge: 0
        multiplicity: 3
     end system

     do
        ground state
     end do

     memory
        available: 8
     end memory

     method
        rohf
        fci
     end method

     solver cholesky
        threshold: 1e-11
     end solver cholesky

     solver scf
        algorithm:          scf-diis
        energy threshold:   1.0d-10
        gradient threshold: 1.0d-10
        diis dimension: 8
     end solver scf

     solver fci
        states: 1
        residual threshold: 1.0d-10
     end solver fci


  Calculation start:2022-06-30 08:49:33 UTC +02:00

  Running on 2 OMP threads
  Memory available for calculation: 8.000000 GB

  Warning: ROHF orbital energies are not uniquely defined,  and may not 
           fulfill Koopmans theorem


  :: ROHF wavefunction
  ====================

     ==============================================================================
                                     Geometry (angstrom)
     ==============================================================================
        Atom           X                  Y                  Z         # in input
     ==============================================================================
        Basis: 3-21g
        1  H     0.000000000000     0.000000000000     0.000000000000        1
        2  H     0.000000000000     0.000000000000     0.900000000000        2
     ==============================================================================

     ==============================================================================
                                     Geometry (a.u.)
     ==============================================================================
        Atom           X                  Y                  Z         # in input
     ==============================================================================
        Basis: 3-21g
        1  H     0.000000000000     0.000000000000     0.000000000000        1
        2  H     0.000000000000     0.000000000000     1.700753512109        2
     ==============================================================================

  - Cholesky decomposition of AO overlap to get linearly independent AOs:

     Linear dependence threshold:             0.10E-05
     Number of atomic orbitals:               4
     Number of orthonormal atomic orbitals:   4

  - Molecular orbital details:

     Number of alpha electrons:               2
     Number of beta electrons:                0
     Number of virtual alpha orbitals:        2
     Number of virtual beta orbitals:         4
     Number of molecular orbitals:            4


  Generating initial SAD density
  ==============================


  Determining reference state
  ===========================

  - Setting initial AO density to sad

     Energy of initial guess:                -1.260738511850
     Number of electrons in guess:            2.000000000000

  - Screening and integral thresholds:

     Coulomb screening threshold:    0.1000E-15
     Exchange screening threshold:   0.1000E-13
     ERI cutoff:                     0.1000E-15
     One-electron integral  cutoff:  0.1000E-20
     Cumulative Fock threshold:      0.1000E+01

  - SCF solver settings:

     Maximum iterations:                   100
     Acceleration type:                   diis

  - Convergence thresholds

     Residual threshold:            0.1000E-09
     Energy threshold:              0.1000E-09

  - DIIS tool settings:

     DIIS dimension:   8

     Storage (solver scf_errors): memory
     Storage (solver scf_parameters): memory

  Iteration       Energy (a.u.)      Max(grad.)    Delta E (a.u.)
  ---------------------------------------------------------------
     1            -0.824816627068     0.1480E-01     0.8248E+00
     2            -0.826047064194     0.3887E-02     0.1230E-02
     3            -0.826139150071     0.2040E-04     0.9209E-04
     4            -0.826139153875     0.1842E-06     0.3804E-08
     5            -0.826139153875     0.2803E-07     0.3093E-12
     6            -0.826139153875     0.1837E-07     0.4330E-14
     7            -0.826139153875     0.1702E-07     0.0000E+00
     8            -0.826139153875     0.1372E-06     0.1734E-12
     9            -0.826139153875     0.1486E-06     0.2920E-13
    10            -0.826139153875     0.1543E-11     0.2053E-12
  ---------------------------------------------------------------
  Convergence criterion met in 10 iterations!

  - Summary of ROHF wavefunction energetics (a.u.):

     HOMO-LUMO gap (alpha):          1.136757199692
     Nuclear repulsion energy:       0.587974678800
     Electronic energy:             -1.414113832675
     Total energy:                  -0.826139153875

  - ROHF wavefunction spin expectation values:

     Sz:                   1.00000000
     Sz(Sz + 1):           2.00000000
     S^2:                  2.00000000
     Spin contamination:   0.00000000


  :: FCI wavefunction
  ======================

   - Number of orbitals:

     Alpha electrons:          2
     Virtual alpha orbitals:   2
     Beta electrons:           0
     Virtual beta orbitals:    4
     Molecular orbitals:       4

   - Number of determinants:
     Alpha Determinants:       6
     Beta Determinants:        1

  Cholesky decomposition of electronic repulsion integrals solver
  ---------------------------------------------------------------

  Performs a Cholesky decomposition of the two-electron electronic repulsion 
  integrals in the atomic orbital basis,

  (ab|cd) = sum_J L_ab^J L_cd^J.

  Once the Cholesky basis has been determined, the vectors L^J are constructed 
  and stored to disk. These may either be used directly, or be transformed 
  to the MO basis for use in post-HF calculations. For more information, 
  see S. D. Folkestad, E. F. Kjønstad and H. Koch, JCP, 150(19), (2019)

  - Cholesky decomposition settings:

     Target threshold is:   0.10E-10
     Span factor:           0.10E-01
     Max qual:                  1000

  - Cholesky decomposition ao details:

     Total number of AOs:                     4
     Total number of shell pairs:            10
     Total number of AO pairs:               10

     Significant shell pairs:                10
     Significant AO pairs:                   10

     Construct shell pairs:                  10
     Construct AO pairs:                     10

  Iter.  #Sign. ao pairs / shell pairs   Max diagonal    #Qualified    #Cholesky    Cholesky array size
  -------------------------------------------------------------------------------------------------------
     1                 6 /       6       0.11401E+01          10              4                24
     2                 0 /       0       0.86108E-02           6             10                 0
  -------------------------------------------------------------------------------------------------------

  - Summary of Cholesky decomposition of electronic repulsion integrals:

     Final number of Cholesky vectors: 10

 - Testing the Cholesky decomposition decomposition electronic repulsion integrals:

     Maximal difference between approximate and actual diagonal:              0.3606E-15
     Minimal element of difference between approximate and actual diagonal:  -0.1555E-16

  - Finished decomposing the ERIs.

     Total wall time (sec):              0.00155
     Total cpu time (sec):               0.00154


  Determining FCI eigenstates
  ===========================

  Davidson eigenvalue equation solver
  -----------------------------------

  A Davidson solver that solves an eigenvalue equation: M x = omega x. 
  This equation is solved in a reduced space. A description of the algorithm 
  can be found in E. R. Davidson, J. Comput. Phys. 17, 87 (1975).

   - Davidson tool settings:

     Number of parameters:                    6
     Number of requested solutions:           1
     Max reduced space dimension:             6

     Storage (fci_davidson_trials): file
     Storage (fci_davidson_transforms): file

  - Davidson solver settings

     Number of singlet states:               1
     Max number of iterations:             100

  Iteration:                  1
  Reduced space dimension:    1

  Root  Eigenvalue (Re)   Eigenvalue (Im)    |residual|   Delta E (Re)
  -------------------------------------------------------------------------
     1  -0.826139153875    0.000000000000     0.3766E-01   0.8261E+00
  -------------------------------------------------------------------------

  Iteration:                  2
  Reduced space dimension:    2

  Root  Eigenvalue (Re)   Eigenvalue (Im)    |residual|   Delta E (Re)
  -------------------------------------------------------------------------
     1  -0.826805226017    0.000000000000     0.3993E-03   0.6661E-03
  -------------------------------------------------------------------------

  Iteration:                  3
  Reduced space dimension:    3

  Root  Eigenvalue (Re)   Eigenvalue (Im)    |residual|   Delta E (Re)
  -------------------------------------------------------------------------
     1  -0.826805367528    0.000000000000     0.4724E-05   0.1415E-06
  -------------------------------------------------------------------------

  Iteration:                  4
  Reduced space dimension:    4

  Root  Eigenvalue (Re)   Eigenvalue (Im)    |residual|   Delta E (Re)
  -------------------------------------------------------------------------
     1  -0.826805367547    0.000000000000     0.1094E-14   0.1962E-10
  -------------------------------------------------------------------------
  Convergence criterion met in 4 iterations!

  - CI amplitudes:

     Electronic state nr. 1

     Energy (Hartree):      -0.826805367547
     Spin Multiplicity:      3.000000000000

     Largest CI amplitudes:
     ------------------------
     00aa      0.999843488026
     aa00     -0.017688208781
     a00a     -0.000305681032
     0aa0     -0.000182430260
     0a0a     -0.000000000000
     a0a0     -0.000000000000
     ------------------------

  - Electronic energies:

                                      Energy
                          ------------------------------------------
      State                (Hartree)             (eV)
     ---------------------------------------------------------------
        1                 -0.826805367547      -22.498520019738
     ---------------------------------------------------------------
     eV/Hartree (CODATA 2014): 27.21138602

  :: There was 1 warning during the execution of eT. ::

  Peak memory usage during the execution of eT: 35.312 KB

  Total wall time in eT (sec):              0.05223
  Total cpu time in eT (sec):               0.06270

  Calculation end:2022-06-30 08:49:33 UTC +02:00

  - Implementation references:

     eT: https://doi.org/10.1063/5.0004713
     Cholesky decomposition of ERIs: https://doi.org/10.1063/1.5083802

  eT terminated successfully!
