


                     eT 1.8 - an electronic structure program

  ------------------------------------------------------------------------
   Author list in alphabetical order:
  ------------------------------------------------------------------------
   J. H. Andersen, A. Balbi, S. Coriani, S. D. Folkestad, T. Giovannini, 
   L. Goletto, T. S. Haugland, A. Hutcheson, I-M. Høyvik, E. F. Kjønstad, 
   H. Koch, R. Matveeva, T. Moitra, R. H. Myhre, A. C. Paul, S. Roet, 
   E. Ronca, M. Scavino, A. K. Schnack-Petersen, A. S. Skeidsvoll, Å. 
   H. Tveten
  ------------------------------------------------------------------------
   J. Chem. Phys. 152, 184103 (2020); https://doi.org/10.1063/5.0004713


   This is eT 1.8.0 Ibiza
  ------------------------------------------------------------
  Configuration date: 2022-06-30 08:43:06 UTC +02:00
  Git branch:         release-v1.8.0
  Git hash:           9204bbd8a5d9984444afd222ec28d0f1c1e17adf
  Fortran compiler:   GNU 9.4.0
  C compiler:         GNU 9.4.0
  C++ compiler:       GNU 9.4.0
  LAPACK type:        MKL
  BLAS type:          MKL
  64-bit integers:    ON
  OpenMP:             ON
  PCM:                OFF
  Forced batching:    OFF
  Runtime checks:     OFF
  ------------------------------------------------------------


  :: Input file
  ================

     Note: geometry section is excluded from this print

     system
        name: h2
        charge: 0
        multiplicity: 3
     end system

     do
        ground state
     end do

     memory
        available: 8
     end memory

     method
        rohf
        fci
     end method

     solver cholesky
        threshold: 1e-11
     end solver cholesky

     solver scf
        algorithm:          scf-diis
        energy threshold:   1.0d-10
        gradient threshold: 1.0d-10
        diis dimension: 8
     end solver scf

     solver fci
        states: 1
        residual threshold: 1.0d-10
        energy threshold: 1.0d-10
     end solver fci

     fci mean value
        dipole
        quadrupole
     end fci mean value


  Calculation start:2022-06-30 08:49:34 UTC +02:00

  Running on 2 OMP threads
  Memory available for calculation: 8.000000 GB

  Warning: ROHF orbital energies are not uniquely defined,  and may not 
           fulfill Koopmans theorem


  :: ROHF wavefunction
  ====================

     ==============================================================================
                                     Geometry (angstrom)
     ==============================================================================
        Atom           X                  Y                  Z         # in input
     ==============================================================================
        Basis: 6-31g
        1  H     0.000000000000     0.000000000000     0.450000000000        1
        2  H     0.000000000000     0.000000000000    -0.450000000000        2
        3 He     0.000000000000     1.000000000000     0.450000000000        3
     ==============================================================================

     ==============================================================================
                                     Geometry (a.u.)
     ==============================================================================
        Atom           X                  Y                  Z         # in input
     ==============================================================================
        Basis: 6-31g
        1  H     0.000000000000     0.000000000000     0.850376756054        1
        2  H     0.000000000000     0.000000000000    -0.850376756054        2
        3 He     0.000000000000     1.889726124565     0.850376756054        3
     ==============================================================================

  - Cholesky decomposition of AO overlap to get linearly independent AOs:

     Linear dependence threshold:             0.10E-05
     Number of atomic orbitals:               6
     Number of orthonormal atomic orbitals:   6

  - Molecular orbital details:

     Number of alpha electrons:               3
     Number of beta electrons:                1
     Number of virtual alpha orbitals:        3
     Number of virtual beta orbitals:         5
     Number of molecular orbitals:            6


  Generating initial SAD density
  ==============================


  Determining reference state
  ===========================

  - Setting initial AO density to sad

     Energy of initial guess:                -4.328329727892
     Number of electrons in guess:            4.000000000000

  - Screening and integral thresholds:

     Coulomb screening threshold:    0.1000E-15
     Exchange screening threshold:   0.1000E-13
     ERI cutoff:                     0.1000E-15
     One-electron integral  cutoff:  0.1000E-20
     Cumulative Fock threshold:      0.1000E+01

  - SCF solver settings:

     Maximum iterations:                   100
     Acceleration type:                   diis

  - Convergence thresholds

     Residual threshold:            0.1000E-09
     Energy threshold:              0.1000E-09

  - DIIS tool settings:

     DIIS dimension:   8

     Storage (solver scf_errors): memory
     Storage (solver scf_parameters): memory

  Iteration       Energy (a.u.)      Max(grad.)    Delta E (a.u.)
  ---------------------------------------------------------------
     1            -3.548138470759     0.1044E+00     0.3548E+01
     2            -3.599107479056     0.2837E-01     0.5097E-01
     3            -3.609231538919     0.1091E-01     0.1012E-01
     4            -3.611313194698     0.9845E-03     0.2082E-02
     5            -3.611355471019     0.3859E-03     0.4228E-04
     6            -3.611348111582     0.4031E-04     0.7359E-05
     7            -3.611348204261     0.1092E-04     0.9268E-07
     8            -3.611348175946     0.2147E-05     0.2831E-07
     9            -3.611348229384     0.4308E-06     0.5344E-07
    10            -3.611348220711     0.1928E-07     0.8673E-08
    11            -3.611348221079     0.6327E-09     0.3676E-09
    12            -3.611348221074     0.4891E-10     0.4484E-11
  ---------------------------------------------------------------
  Convergence criterion met in 12 iterations!

  - Summary of ROHF wavefunction energetics (a.u.):

     HOMO-LUMO gap (alpha):          0.960515126312
     HOMO-LUMO gap (beta):           1.066715424947
     Nuclear repulsion energy:       2.432997747048
     Electronic energy:             -6.044345968123
     Total energy:                  -3.611348221074

  - ROHF wavefunction spin expectation values:

     Sz:                   1.00000000
     Sz(Sz + 1):           2.00000000
     S^2:                  2.00000000
     Spin contamination:   0.00000000


  :: FCI wavefunction
  ======================

   - Number of orbitals:

     Alpha electrons:          3
     Virtual alpha orbitals:   3
     Beta electrons:           1
     Virtual beta orbitals:    5
     Molecular orbitals:       6

   - Number of determinants:
     Alpha Determinants:       20
     Beta Determinants:        6

  Cholesky decomposition of electronic repulsion integrals solver
  ---------------------------------------------------------------

  Performs a Cholesky decomposition of the two-electron electronic repulsion 
  integrals in the atomic orbital basis,

  (ab|cd) = sum_J L_ab^J L_cd^J.

  Once the Cholesky basis has been determined, the vectors L^J are constructed 
  and stored to disk. These may either be used directly, or be transformed 
  to the MO basis for use in post-HF calculations. For more information, 
  see S. D. Folkestad, E. F. Kjønstad and H. Koch, JCP, 150(19), (2019)

  - Cholesky decomposition settings:

     Target threshold is:   0.10E-10
     Span factor:           0.10E-01
     Max qual:                  1000

  - Cholesky decomposition ao details:

     Total number of AOs:                     6
     Total number of shell pairs:            21
     Total number of AO pairs:               21

     Significant shell pairs:                21
     Significant AO pairs:                   21

     Construct shell pairs:                  21
     Construct AO pairs:                     21

  Iter.  #Sign. ao pairs / shell pairs   Max diagonal    #Qualified    #Cholesky    Cholesky array size
  -------------------------------------------------------------------------------------------------------
     1                15 /      15       0.15439E+01          20              6                90
     2                 2 /       2       0.81588E-02          15             19                38
     3                 0 /       0       0.44519E-04           2             21                 0
  -------------------------------------------------------------------------------------------------------

  - Summary of Cholesky decomposition of electronic repulsion integrals:

     Final number of Cholesky vectors: 21

 - Testing the Cholesky decomposition decomposition electronic repulsion integrals:

     Maximal difference between approximate and actual diagonal:              0.2032E-15
     Minimal element of difference between approximate and actual diagonal:  -0.1135E-15

  - Finished decomposing the ERIs.

     Total wall time (sec):              0.00516
     Total cpu time (sec):               0.00515


  Determining FCI eigenstates
  ===========================

  Davidson eigenvalue equation solver
  -----------------------------------

  A Davidson solver that solves an eigenvalue equation: M x = omega x. 
  This equation is solved in a reduced space. A description of the algorithm 
  can be found in E. R. Davidson, J. Comput. Phys. 17, 87 (1975).

   - Davidson tool settings:

     Number of parameters:                  120
     Number of requested solutions:           1
     Max reduced space dimension:           100

     Storage (fci_davidson_trials): file
     Storage (fci_davidson_transforms): file

  - Davidson solver settings

     Number of singlet states:               1
     Max number of iterations:             100

  Iteration:                  1
  Reduced space dimension:    1

  Root  Eigenvalue (Re)   Eigenvalue (Im)    |residual|   Delta E (Re)
  -------------------------------------------------------------------------
     1  -3.611348221075    0.000000000000     0.2492E+00   0.3611E+01
  -------------------------------------------------------------------------

  Iteration:                  2
  Reduced space dimension:    2

  Root  Eigenvalue (Re)   Eigenvalue (Im)    |residual|   Delta E (Re)
  -------------------------------------------------------------------------
     1  -3.630569489854    0.000000000000     0.2809E-01   0.1922E-01
  -------------------------------------------------------------------------

  Iteration:                  3
  Reduced space dimension:    3

  Root  Eigenvalue (Re)   Eigenvalue (Im)    |residual|   Delta E (Re)
  -------------------------------------------------------------------------
     1  -3.630945165039    0.000000000000     0.7776E-02   0.3757E-03
  -------------------------------------------------------------------------

  Iteration:                  4
  Reduced space dimension:    4

  Root  Eigenvalue (Re)   Eigenvalue (Im)    |residual|   Delta E (Re)
  -------------------------------------------------------------------------
     1  -3.630970585818    0.000000000000     0.1605E-02   0.2542E-04
  -------------------------------------------------------------------------

  Iteration:                  5
  Reduced space dimension:    5

  Root  Eigenvalue (Re)   Eigenvalue (Im)    |residual|   Delta E (Re)
  -------------------------------------------------------------------------
     1  -3.630971432500    0.000000000000     0.2135E-03   0.8467E-06
  -------------------------------------------------------------------------

  Iteration:                  6
  Reduced space dimension:    6

  Root  Eigenvalue (Re)   Eigenvalue (Im)    |residual|   Delta E (Re)
  -------------------------------------------------------------------------
     1  -3.630971447045    0.000000000000     0.2630E-04   0.1455E-07
  -------------------------------------------------------------------------

  Iteration:                  7
  Reduced space dimension:    7

  Root  Eigenvalue (Re)   Eigenvalue (Im)    |residual|   Delta E (Re)
  -------------------------------------------------------------------------
     1  -3.630971447354    0.000000000000     0.4762E-05   0.3082E-09
  -------------------------------------------------------------------------

  Iteration:                  8
  Reduced space dimension:    8

  Root  Eigenvalue (Re)   Eigenvalue (Im)    |residual|   Delta E (Re)
  -------------------------------------------------------------------------
     1  -3.630971447362    0.000000000000     0.8296E-06   0.8530E-11
  -------------------------------------------------------------------------

  Iteration:                  9
  Reduced space dimension:    9

  Root  Eigenvalue (Re)   Eigenvalue (Im)    |residual|   Delta E (Re)
  -------------------------------------------------------------------------
     1  -3.630971447362    0.000000000000     0.1222E-06   0.2820E-12
  -------------------------------------------------------------------------

  Iteration:                 10
  Reduced space dimension:   10

  Root  Eigenvalue (Re)   Eigenvalue (Im)    |residual|   Delta E (Re)
  -------------------------------------------------------------------------
     1  -3.630971447362    0.000000000000     0.1632E-07   0.1332E-14
  -------------------------------------------------------------------------

  Iteration:                 11
  Reduced space dimension:   11

  Root  Eigenvalue (Re)   Eigenvalue (Im)    |residual|   Delta E (Re)
  -------------------------------------------------------------------------
     1  -3.630971447362    0.000000000000     0.2345E-08   0.3997E-14
  -------------------------------------------------------------------------

  Iteration:                 12
  Reduced space dimension:   12

  Root  Eigenvalue (Re)   Eigenvalue (Im)    |residual|   Delta E (Re)
  -------------------------------------------------------------------------
     1  -3.630971447362    0.000000000000     0.2579E-09   0.7550E-14
  -------------------------------------------------------------------------

  Iteration:                 13
  Reduced space dimension:   13

  Root  Eigenvalue (Re)   Eigenvalue (Im)    |residual|   Delta E (Re)
  -------------------------------------------------------------------------
     1  -3.630971447362    0.000000000000     0.3119E-10   0.5329E-14
  -------------------------------------------------------------------------
  Convergence criterion met in 13 iterations!

  - CI amplitudes:

     Electronic state nr. 1

     Energy (Hartree):      -3.630971447362
     Spin Multiplicity:      3.000000000000

     Largest CI amplitudes:
     --------------------------
     000aa2      0.996437115603
     200aa0     -0.050810767358
     a00a20     -0.031465550225
     0a002a     -0.020946949445
     200a0a     -0.020713533039
     0aa002     -0.020217050337
     000a2a      0.018479410902
     a00aba     -0.016888912759
     00aaba      0.014844727138
     0a020a      0.011697494405
     --------------------------

  - Electronic energies:

                                      Energy
                          ------------------------------------------
      State                (Hartree)             (eV)
     ---------------------------------------------------------------
        1                 -3.630971447362      -98.803765681779
     ---------------------------------------------------------------
     eV/Hartree (CODATA 2014): 27.21138602


  Determining FCI mean values
  ===========================

     Dipole moment in [Debye]:
     =========================

     Conversion factor from Debye a.u.: 0.393430270

     Comp.         Electronic           Nuclear             Total
     ------------------------------------------------------------
     x           0.0000000000      0.0000000000      0.0000000000
     y          -8.7427558853      9.6064094241      0.8636535388
     z          -4.2525837588      4.3228842408      0.0703004820
     ------------------------------------------------------------
     Norm of the total dipole moment: 0.8665100

     Quadrupole moment in [Debye*Ang]:
     =================================

     Conversion factor from Debye*Ang to a.u.: 0.743475459

     Comp.         Electronic           Nuclear             Total
     ------------------------------------------------------------
     xx         -3.5375899743      0.0000000000     -3.5375899743
     xy          0.0000000000      0.0000000000      0.0000000000
     xz          0.0000000000      0.0000000000      0.0000000000
     yy        -12.8879710257      9.6064094241     -3.2815616016
     yz         -3.6929746848      4.3228842408      0.6299095560
     zz         -9.7242036025      3.8905958168     -5.8336077857
     ------------------------------------------------------------

     The traceless quadrupole is calculated as:
        Q_ij = 1/2 [3*q_ij - tr(q)*delta_ij]
     where q_ij are the non-traceless matrix elements.

     Traceless quadrupole in [Debye*Ang]

     Comp.         Electronic           Nuclear             Total
     ------------------------------------------------------------
     xx          7.7684973398     -6.7485026204      1.0199947194
     xy          0.0000000000      0.0000000000      0.0000000000
     xz          0.0000000000      0.0000000000      0.0000000000
     yy         -6.2570742373      7.6611115157      1.4040372784
     yz         -5.5394620272      6.4843263613      0.9448643341
     zz         -1.5114231025     -0.9126088953     -2.4240319978
     ------------------------------------------------------------

  :: There was 1 warning during the execution of eT. ::

  Peak memory usage during the execution of eT: 125.080 KB

  Total wall time in eT (sec):              0.06594
  Total cpu time in eT (sec):               0.10988

  Calculation end:2022-06-30 08:49:34 UTC +02:00

  - Implementation references:

     eT: https://doi.org/10.1063/5.0004713
     Cholesky decomposition of ERIs: https://doi.org/10.1063/1.5083802

  eT terminated successfully!
