


                     eT 1.8 - an electronic structure program

  ------------------------------------------------------------------------
   Author list in alphabetical order:
  ------------------------------------------------------------------------
   J. H. Andersen, A. Balbi, S. Coriani, S. D. Folkestad, T. Giovannini, 
   L. Goletto, T. S. Haugland, A. Hutcheson, I-M. Høyvik, E. F. Kjønstad, 
   H. Koch, R. Matveeva, T. Moitra, R. H. Myhre, A. C. Paul, S. Roet, 
   E. Ronca, M. Scavino, A. K. Schnack-Petersen, A. S. Skeidsvoll, Å. 
   H. Tveten
  ------------------------------------------------------------------------
   J. Chem. Phys. 152, 184103 (2020); https://doi.org/10.1063/5.0004713


   This is eT 1.8.0 Ibiza
  ------------------------------------------------------------
  Configuration date: 2022-06-30 08:43:06 UTC +02:00
  Git branch:         release-v1.8.0
  Git hash:           9204bbd8a5d9984444afd222ec28d0f1c1e17adf
  Fortran compiler:   GNU 9.4.0
  C compiler:         GNU 9.4.0
  C++ compiler:       GNU 9.4.0
  LAPACK type:        MKL
  BLAS type:          MKL
  64-bit integers:    ON
  OpenMP:             ON
  PCM:                OFF
  Forced batching:    OFF
  Runtime checks:     OFF
  ------------------------------------------------------------


  :: Input file
  ================

     Note: geometry section is excluded from this print

     system
        name: h2o he
        charge: 0
        multiplicity: 3
     end system

     do
       ground state
     end do

     memory
        available: 8
     end memory

     solver scf
        restart
        energy threshold:   1.0d-11
        gradient threshold: 1.0d-11
     end solver scf

     method
        uhf
     end method


  Calculation start:2022-06-30 08:45:26 UTC +02:00

  Running on 2 OMP threads
  Memory available for calculation: 8.000000 GB


  :: UHF wavefunction
  ===================

     ==============================================================================
                                     Geometry (angstrom)
     ==============================================================================
        Atom           X                  Y                  Z         # in input
     ==============================================================================
        Basis: cc-pvdz
        1  H     0.866810000000     0.601440000000     5.000000000000        1
        2  H    -0.866810000000     0.601440000000     5.000000000000        2
        3  O     0.000000000000    -0.075790000000     5.000000000000        3
        4 He     0.100000000000    -0.020000000000     7.530000000000        4
     ==============================================================================

     ==============================================================================
                                     Geometry (a.u.)
     ==============================================================================
        Atom           X                  Y                  Z         # in input
     ==============================================================================
        Basis: cc-pvdz
        1  H     1.638033502034     1.136556880358     9.448630622825        1
        2  H    -1.638033502034     1.136556880358     9.448630622825        2
        3  O     0.000000000000    -0.143222342981     9.448630622825        3
        4 He     0.188972612457    -0.037794522491    14.229637717975        4
     ==============================================================================

  - Cholesky decomposition of AO overlap to get linearly independent AOs:

     Linear dependence threshold:             0.10E-05
     Number of atomic orbitals:               29
     Number of orthonormal atomic orbitals:   29

  - Molecular orbital details:

     Number of alpha electrons:               7
     Number of beta electrons:                5
     Number of virtual alpha orbitals:       22
     Number of virtual beta orbitals:        24
     Number of molecular orbitals:           29


  Determining reference state
  ===========================

  - Requested restart. Reading orbitals from file

  - Screening and integral thresholds:

     Coulomb screening threshold:    0.1000E-16
     Exchange screening threshold:   0.1000E-14
     ERI cutoff:                     0.1000E-16
     One-electron integral  cutoff:  0.1000E-21
     Cumulative Fock threshold:      0.1000E+01

  - SCF solver settings:

     Maximum iterations:                   100
     Acceleration type:                   diis

  - Convergence thresholds

     Residual threshold:            0.1000E-10
     Energy threshold:              0.1000E-10

  - DIIS tool settings:

     DIIS dimension:   8

     Storage (solver scf_errors): memory
     Storage (solver scf_parameters): memory

  Iteration       Energy (a.u.)      Max(grad.)    Delta E (a.u.)
  ---------------------------------------------------------------
     1           -78.656314613449     0.4048E-03     0.7866E+02
     2           -78.656319463901     0.2867E-03     0.4850E-05
     3           -78.656324064641     0.1139E-03     0.4601E-05
     4           -78.656324344112     0.3082E-04     0.2795E-06
     5           -78.656324391960     0.8431E-05     0.4785E-07
     6           -78.656324395155     0.7205E-05     0.3194E-08
     7           -78.656324397967     0.5785E-05     0.2813E-08
     8           -78.656324402977     0.1851E-05     0.5010E-08
     9           -78.656324403950     0.3315E-06     0.9725E-09
    10           -78.656324403973     0.3858E-06     0.2373E-10
    11           -78.656324404001     0.2784E-06     0.2733E-10
    12           -78.656324404024     0.4397E-07     0.2359E-10
    13           -78.656324404025     0.3786E-07     0.7532E-12
    14           -78.656324404025     0.2769E-07     0.4263E-13
    15           -78.656324404025     0.1463E-07     0.1421E-13
    16           -78.656324404025     0.4610E-08     0.2842E-13
    17           -78.656324404025     0.1174E-08     0.0000E+00
    18           -78.656324404025     0.6448E-09     0.1421E-13
    19           -78.656324404025     0.1608E-09     0.1421E-13
    20           -78.656324404025     0.2434E-10     0.4263E-13
    21           -78.656324404025     0.1323E-10     0.2842E-13
    22           -78.656324404025     0.5470E-11     0.2842E-13
  ---------------------------------------------------------------
  Convergence criterion met in 22 iterations!

  - Summary of UHF wavefunction energetics (a.u.):

     HOMO-LUMO gap (alpha):          0.329592118304
     HOMO-LUMO gap (beta):           0.699081248379
     Nuclear repulsion energy:      12.116100574587
     Electronic energy:            -90.772424978612
     Total energy:                 -78.656324404025

  - UHF wavefunction spin expectation values:

     Sz:                   1.00000000
     Sz(Sz + 1):           2.00000000
     S^2:                  2.00764752
     Spin contamination:   0.00764752

  Peak memory usage during the execution of eT: 305.912 KB

  Total wall time in eT (sec):              0.81946
  Total cpu time in eT (sec):               1.61232

  Calculation end:2022-06-30 08:45:26 UTC +02:00

  - Implementation references:

     eT: https://doi.org/10.1063/5.0004713

  eT terminated successfully!
